{
  "carry_01": {
    "ArmL1_Cla1" : -0.023762118071317673,
    "ArmL2_Sho1" : 0.70779901742935181,
    "ArmL3_Sho2" : 0.16482621431350708,
    "ArmL4_Sho3" : 0.094026461243629456,
    "ArmL5_Elb1" : 1.156981348991394,
    "ArmL6_Elb2" : 1.5848463773727417,
    "ArmL7_Wri1" : 0.10079742223024368,
    "ArmL8_Wri2" : -0.061871830374002457,
    "LeftHandFingers" : 0.13494950532913208,
    "LeftHandThumb" : 0.37643900513648987,
    "ArmR1_Cla1" : -0.065956898033618927,
    "ArmR2_Sho1" : 0.008646789938211441,
    "ArmR3_Sho2" : 0.16020688414573669,
    "ArmR4_Sho3" : -0.16661354899406433,
    "ArmR5_Elb1" : 1.4769662618637085,
    "ArmR6_Elb2" : -0.062970302999019623,
    "ArmR7_Wri1" : -0.055581789463758469,
    "ArmR8_Wri2" : -0.14114600419998169,
    "Neck_1_Yaw": -0.17462554574012756,
    "Neck_2_Pitch": 0.070612996816635132
  },
  "carry_01_w_left": {
    "ArmL1_Cla1" : -0.023762118071317673,
    "ArmL2_Sho1" : 0.70779901742935181,
    "ArmL3_Sho2" : 0.16482621431350708,
    "ArmL4_Sho3" : 0.094026461243629456,
    "ArmL5_Elb1" : 1.156981348991394,
    "ArmL6_Elb2" : 0.059115234762430191,
    "ArmL7_Wri1" : 0.0029121118132025003,
    "ArmL8_Wri2" : -0.059498611837625504,
    "LeftHandFingers" : 0.13494950532913208,
    "LeftHandThumb" : 0.37643900513648987,
    "ArmR1_Cla1" : -0.065956898033618927,
    "ArmR2_Sho1" : 0.008646789938211441,
    "ArmR3_Sho2" : 0.16020688414573669,
    "ArmR4_Sho3" : -0.16661354899406433,
    "ArmR5_Elb1" : 1.4769662618637085,
    "ArmR6_Elb2" : -0.062970302999019623,
    "ArmR7_Wri1" : -0.055581789463758469,
    "ArmR8_Wri2" : -0.14114600419998169,
    "Neck_1_Yaw": -0.17462554574012756,
    "Neck_2_Pitch": 0.070612996816635132
  },
  "carry_02": {
    "ArmL1_Cla1": -0.020142950117588043,
    "ArmL2_Sho1": 0.38499796390533447,
    "ArmL3_Sho2": 0.30007773637771606,
    "ArmL4_Sho3": 0.12482534348964691,
    "ArmL5_Elb1": 0.71428042650222778,
    "ArmL6_Elb2": 0.36280184984207153,
    "ArmL7_Wri1": 0.045407373458147049,
    "ArmL8_Wri2": 0.15753144025802612,
    "ArmR1_Cla1": -0.043407989889383316,
    "ArmR2_Sho1": -0.047912047952413559,
    "ArmR3_Sho2": 0.34588697552680969,
    "ArmR4_Sho3": -0.091953232884407043,
    "ArmR5_Elb1": 1.4650543928146362,
    "ArmR6_Elb2": -0.4390881359577179,
    "ArmR7_Wri1": -0.096914604306221008,
    "ArmR8_Wri2": 0.26131266355514526,
    "Neck_1_Yaw": 0.010722247883677483,
    "Neck_2_Pitch": -0.0069126207381486893
  },
  "carry_waving_03_left": {
    "ArmL1_Cla1": 0.017067369073629379,
    "ArmL2_Sho1": 0.42217233777046204,
    "ArmL3_Sho2": 0.30358868837356567,
    "ArmL4_Sho3": 0.1244778037071228,
    "ArmL5_Elb1": 0.70000773668289185,
    "ArmL6_Elb2": 0.36268216371536255,
    "ArmL7_Wri1": 0.045395389199256897,
    "ArmL8_Wri2": 0.15759152173995972
  },
  "carry_waving_03": {
    "ArmR1_Cla1": -0.020201984792947769,
    "ArmR2_Sho1": 0.91863995790481567,
    "ArmR3_Sho2": 0.59326070547103882,
    "ArmR4_Sho3": 0.015075871720910072,
    "ArmR5_Elb1": 1.1269854307174683,
    "ArmR6_Elb2": -0.83259475231170654,
    "ArmR7_Wri1": -0.12436994910240173,
    "ArmR8_Wri2": 0.0078989826142787933,
    "Neck_1_Yaw": -0.17462554574012756,
    "Neck_2_Pitch": 0.070612996816635132
  },
  "carry_waving_04": {
    "ArmL1_Cla1": -0.020142950117588043,
    "ArmL2_Sho1": 0.38499796390533447,
    "ArmL3_Sho2": 0.30007773637771606,
    "ArmL4_Sho3": 0.12482534348964691,
    "ArmL5_Elb1": 0.71428042650222778,
    "ArmL6_Elb2": 0.36280184984207153,
    "ArmL7_Wri1": 0.045407373458147049,
    "ArmL8_Wri2": 0.15753144025802612,
    "ArmR1_Cla1": -0.019626442342996597,
    "ArmR2_Sho1": 1.1036251783370972,
    "ArmR3_Sho2": 0.58672940731048584,
    "ArmR4_Sho3": -0.071400672197341919,
    "ArmR5_Elb1": 1.2708534002304077,
    "ArmR6_Elb2": -1.0230804681777954,
    "ArmR7_Wri1": -0.1655709445476532,
    "ArmR8_Wri2": 0.10833709686994553,
    "Neck_1_Yaw": 0.010722247883677483,
    "Neck_2_Pitch": -0.0069126207381486893
  },
  "init": {
    "ArmL1_Cla1": 0.036781,
    "ArmL2_Sho1": 0.839879,
    "ArmL3_Sho2": 0.111953,
    "ArmL4_Sho3": 0.178885,
    "ArmL5_Elb1": 1.317399,
    "ArmL6_Elb2": -0.077956,
    "ArmL7_Wri1": 0.081407,
    "ArmL8_Wri2": 0.171840,
    "ArmR1_Cla1": -0.036818,
    "ArmR2_Sho1": -0.839400,
    "ArmR3_Sho2": 0.111619,
    "ArmR4_Sho3": -0.179005,
    "ArmR5_Elb1": 1.319545,
    "ArmR6_Elb2": 0.078254,
    "ArmR7_Wri1": -0.081144,
    "ArmR8_Wri2": 0.171887,
    "Neck_1_Yaw": 0.0,
    "Neck_2_Pitch": 0.0,
    "TorsoJoint": 0.5
  },
  "hand_over": {
    "ArmR1_Cla1": -0.29178315401077271,
    "ArmR2_Sho1": 1.2500094175338745,
    "ArmR3_Sho2": 0.45792537927627563,
    "ArmR4_Sho3": -1.5037163496017456,
    "ArmR5_Elb1": 1.2624167203903198,
    "ArmR6_Elb2": 0.1136498898267746,
    "ArmR7_Wri1": 0.26764899492263794,
    "ArmR8_Wri2": 0.61795681715011597
  },
  "configWave1": {
    "ArmL1_Cla1": -0.26553663611412048,
    "ArmL2_Sho1": -0.37322193384170532,
    "ArmL3_Sho2": 0.51148098707199097,
    "ArmL4_Sho3": 0.63093280792236328,
    "ArmL5_Elb1": 1.7534993886947632,
    "ArmL6_Elb2": 0.57171320915222168,
    "ArmL7_Wri1": 0.4220050573348999,
    "ArmL8_Wri2": 0.7393791675567627,
    "ArmR1_Cla1": 0.14311699569225311,
    "ArmR2_Sho1": 0.87086498737335205,
    "ArmR3_Sho2": 0.27925267815589905,
    "ArmR4_Sho3": 0.62831848859786987,
    "ArmR5_Elb1": 2.1921334266662598,
    "ArmR6_Elb2": -2.8588492870330811,
    "ArmR7_Wri1": 0.034906584769487381,
    "ArmR8_Wri2": -0.13962633907794952,
    "Neck_1_Yaw": -0.34906584024429321,
    "RightHandThumb" : 0.97383302450180054
  },
  "configWave2": {
    "ArmR1_Cla1": 0.12762700021266937,
    "ArmR2_Sho1": 0.83077669143676758,
    "ArmR3_Sho2": 0.56897729635238647,
    "ArmR4_Sho3": -0.083775803446769714,
    "ArmR5_Elb1": 2.1467549800872803,
    "ArmR6_Elb2": -3.0403635501861572,
    "ArmR7_Wri1": -0.059341192245483398,
    "ArmR8_Wri2": -0.17453292012214661,
    "Neck_1_Yaw": 0.0
  },
  "configWave3": {
    "ArmR1_Cla1": 0.14311699569225311,
    "ArmR2_Sho1": 0.87086498737335205,
    "ArmR3_Sho2": 0.27925267815589905,
    "ArmR4_Sho3": 0.62831848859786987,
    "ArmR5_Elb1": 2.1921334266662598,
    "ArmR6_Elb2": -2.8588492870330811,
    "ArmR7_Wri1": 0.034906584769487381,
    "ArmR8_Wri2": -0.13962633907794952,
    "Neck_1_Yaw": 0.34906584024429321
  },
  "configWave4": {
    "ArmR1_Cla1": 0.12762700021266937,
    "ArmR2_Sho1": 0.83077669143676758,
    "ArmR3_Sho2": 0.56897729635238647,
    "ArmR4_Sho3": -0.083775803446769714,
    "ArmR5_Elb1": 2.1467549800872803,
    "ArmR6_Elb2": -3.0403635501861572,
    "ArmR7_Wri1": -0.059341192245483398,
    "ArmR8_Wri2": -0.17453292012214661,
    "Neck_1_Yaw": 0.0
  },
  "configWave5": {
    "ArmR1_Cla1": 0.14311699569225311,
    "ArmR2_Sho1": 0.87086498737335205,
    "ArmR3_Sho2": 0.27925267815589905,
    "ArmR4_Sho3": 0.62831848859786987,
    "ArmR5_Elb1": 2.1921334266662598,
    "ArmR6_Elb2": -2.8588492870330811,
    "ArmR7_Wri1": 0.034906584769487381,
    "ArmR8_Wri2": -0.13962633907794952,
    "Neck_1_Yaw": -0.34906584024429321
  },
  "configWave6": {
    "ArmL1_Cla1": -0.1,
    "ArmL2_Sho1": -0.2,
    "ArmL3_Sho2": 0.104720,
    "ArmL4_Sho3": 0.209440,
    "ArmL5_Elb1": 1.214553,
    "ArmL6_Elb2": 0.000000,
    "ArmL7_Wri1": 0.000000,
    "ArmL8_Wri2": -0.000000,
    "ArmR1_Cla1": 0.000000,
    "ArmR2_Sho1": 0.187610,
    "ArmR3_Sho2": 0.996901,
    "ArmR4_Sho3": 1.331145,
    "ArmR5_Elb1": 1.815898,
    "ArmR6_Elb2": -2.131606,
    "ArmR7_Wri1": 0.000000,
    "ArmR8_Wri2": -0.000000,
    "Neck_1_Yaw": 0.128389,
    "Neck_2_Pitch": 0.082437,
    "TorsoJoint": -0.000021
  },
  "look-at-viewers": {
    "Neck_1_Yaw" : -0.6,
    "Neck_2_Pitch" : 0.028944103047251701
  },
  "look-ahead": {
    "Neck_1_Yaw" : 0,
    "Neck_2_Pitch" : 0.087031453847885132
  },

  "birthday-init": {
    "ArmR1_Cla1" : -0.03690749779343605,
    "ArmR2_Sho1" : -0.52540796995162964,
    "ArmR3_Sho2" : 0.10528421401977539,
    "ArmR4_Sho3" : -0.19101296365261078,
    "ArmR5_Elb1" : 1.3356269598007202,
    "ArmR6_Elb2" : 0.17780023813247681,
    "ArmR7_Wri1" : -0.016358159482479095,
    "ArmR8_Wri2" : 0.80636900663375854
  },
  "birthday-goal": {
    "ArmR1_Cla1" : 0.012921985238790512,
    "ArmR2_Sho1" : 1.1788004636764526,
    "ArmR3_Sho2" : 0.35802677273750305,
    "ArmR4_Sho3" : -0.24785308539867401,
    "ArmR5_Elb1" : 0.88659840822219849,
    "ArmR6_Elb2" : 0.43968659639358521,
    "ArmR7_Wri1" : -0.27639895677566528,
    "ArmR8_Wri2" : -0.33088856935501099
  }
}



