{
    "_id": "1", 
    "attrs": {
        "agentFilePath": [
            {
                "value": {
                    "typeName": "::armarx::StringVariantData", 
                    "value": "Armar6RT/robotmodel/Armar6-SH/Armar6-SH.xml"
                }
            }
        ], 
        "orientation": [
            {
                "value": {
                    "typeName": "::armarx::FramedOrientationBase", 
                    "value": {
                        "agent": "", 
                        "frame": "Global", 
                        "qw": 0.9999760985374451, 
                        "qx": 0, 
                        "qy": 0, 
                        "qz": 0.006908586248755455
                    }
                }
            }
        ], 
        "position": [
            {
                "value": {
                    "typeName": "::armarx::FramedPositionBase", 
                    "value": {
                        "agent": "", 
                        "frame": "Global", 
                        "x": 4179.041015625, 
                        "y": 3834.971435546875, 
                        "z": 0
                    }
                }
            }
        ], 
        "stringifiedSharedRobotInterfaceProxy": [
            {
                "value": {
                    "typeName": "::armarx::StringVariantData", 
                    "value": "C54EF32E-6DFB-4831-B3ED-672CB5D91DCB -t -e 1.0:tcp -h 10.6.2.101 -p 35258"
                }
            }
        ]
    }, 
    "name": "Armar6", 
    "type": "::memoryx::AgentInstanceBase"
}
