{
    "_id": {
        "$oid": "5b1934c995a1fe49bdc59cfb"
    }, 
    "name": "Snapshot_CeBIT", 
    "segments": {
        "activeOac": "Snapshot_CeBIT_activeOac", 
        "affordances": "Snapshot_CeBIT_affordances", 
        "agentInstances": "Snapshot_CeBIT_agentInstances", 
        "environmentalPrimitives": "Snapshot_CeBIT_environmentalPrimitives", 
        "objectClasses": "Snapshot_CeBIT_objectClasses", 
        "objectInstances": "Snapshot_CeBIT_objectInstances", 
        "objectRelations": "Snapshot_CeBIT_objectRelations", 
        "worldState": "Snapshot_CeBIT_worldState"
    }
}
{
    "_id": {
        "$oid": "5d0a550069941be994beffaa"
    }, 
    "name": "Snapshot_Armar6Lab", 
    "segments": {
        "activeOac": "Snapshot_Armar6Lab_activeOac", 
        "affordances": "Snapshot_Armar6Lab_affordances", 
        "agentInstances": "Snapshot_Armar6Lab_agentInstances", 
        "environmentalPrimitives": "Snapshot_Armar6Lab_environmentalPrimitives", 
        "objectClasses": "Snapshot_Armar6Lab_objectClasses", 
        "objectInstances": "Snapshot_Armar6Lab_objectInstances", 
        "objectRelations": "Snapshot_Armar6Lab_objectRelations", 
        "worldState": "Snapshot_Armar6Lab_worldState"
    }
}
