{
    "_id": "1", 
    "attrs": {
        "agentFilePath": [
            {
                "value": {
                    "typeName": "::armarx::StringVariantData", 
                    "value": "Armar6RT/robotmodel/Armar6-SH/Armar6-SH.xml"
                }
            }
        ], 
        "orientation": [
            {
                "value": {
                    "typeName": "::armarx::FramedOrientationBase", 
                    "value": {
                        "agent": "", 
                        "frame": "Global", 
                        "qw": 0.9248017072677612, 
                        "qx": 0, 
                        "qy": 0, 
                        "qz": 0.3804494142532349
                    }
                }
            }
        ], 
        "position": [
            {
                "value": {
                    "typeName": "::armarx::FramedPositionBase", 
                    "value": {
                        "agent": "", 
                        "frame": "Global", 
                        "x": 2065.121337890625, 
                        "y": 1716.62158203125, 
                        "z": 0
                    }
                }
            }
        ], 
        "stringifiedSharedRobotInterfaceProxy": [
            {
                "value": {
                    "typeName": "::armarx::StringVariantData", 
                    "value": "93311167-CEAB-414E-92C6-890B9CA9222B -t -e 1.0:tcp -h 10.6.2.100 -p 34017"
                }
            }
        ]
    }, 
    "name": "Armar6", 
    "type": "::memoryx::AgentInstanceBase"
}
