####
#
# OBJ File Generated by Meshlab
#
####
# Object guard-assembly-color.obj
#
# Vertices: 228
# Faces: 76
#
####
vn -1.570796 0.000000 0.000000
v -408.000000 -8.000000 -712.000000 0.752941 0.752941 0.752941
vn -0.016613 0.000000 0.000000
v -408.000000 -8.000000 492.000000 0.752941 0.752941 0.752941
vn -1.554187 0.000000 0.000000
v -408.000000 12.000000 -712.000000 0.752941 0.752941 0.752941
vn -0.016613 0.000000 0.000000
v -408.000000 12.000000 -712.000000 0.752941 0.752941 0.752941
vn -1.554187 0.000000 0.000000
v -408.000000 -8.000000 492.000000 0.752941 0.752941 0.752941
vn -1.570796 0.000000 0.000000
v -408.000000 12.000000 492.000000 0.752941 0.752941 0.752941
vn 0.000000 0.000000 -1.570796
v 391.000000 -8.000000 -712.000000 0.752941 0.752941 0.752941
vn 0.000000 0.000000 -0.025025
v -408.000000 -8.000000 -712.000000 0.752941 0.752941 0.752941
vn 0.000000 0.000000 -1.545770
v 391.000000 12.000000 -712.000000 0.752941 0.752941 0.752941
vn 0.000000 0.000000 -0.025025
v 391.000000 12.000000 -712.000000 0.752941 0.752941 0.752941
vn 0.000000 0.000000 -1.545770
v -408.000000 -8.000000 -712.000000 0.752941 0.752941 0.752941
vn 0.000000 0.000000 -1.570796
v -408.000000 12.000000 -712.000000 0.752941 0.752941 0.752941
vn 1.570796 0.000000 0.000000
v 391.000000 -8.000000 492.000000 0.752941 0.752941 0.752941
vn 0.016613 0.000000 0.000000
v 391.000000 -8.000000 -712.000000 0.752941 0.752941 0.752941
vn 1.554187 0.000000 0.000000
v 391.000000 12.000000 492.000000 0.752941 0.752941 0.752941
vn 0.016613 0.000000 0.000000
v 391.000000 12.000000 492.000000 0.752941 0.752941 0.752941
vn 1.554187 0.000000 0.000000
v 391.000000 -8.000000 -712.000000 0.752941 0.752941 0.752941
vn 1.570796 0.000000 0.000000
v 391.000000 12.000000 -712.000000 0.752941 0.752941 0.752941
vn 0.000000 0.000000 1.570796
v -408.000000 -8.000000 492.000000 0.752941 0.752941 0.752941
vn 0.000000 0.000000 0.025025
v 391.000000 -8.000000 492.000000 0.752941 0.752941 0.752941
vn 0.000000 0.000000 1.545770
v -408.000000 12.000000 492.000000 0.752941 0.752941 0.752941
vn 0.000000 0.000000 0.025025
v -408.000000 12.000000 492.000000 0.752941 0.752941 0.752941
vn 0.000000 0.000000 1.545770
v 391.000000 -8.000000 492.000000 0.752941 0.752941 0.752941
vn 0.000000 0.000000 1.570796
v 391.000000 12.000000 492.000000 0.752941 0.752941 0.752941
vn 0.000000 1.570796 0.000000
v 391.000000 12.000000 492.000000 0.250980 0.250980 0.250980
vn 0.000000 0.585891 0.000000
v 391.000000 12.000000 -712.000000 0.250980 0.250980 0.250980
vn 0.000000 0.984905 0.000000
v -408.000000 12.000000 492.000000 0.250980 0.250980 0.250980
vn 0.000000 0.585891 0.000000
v -408.000000 12.000000 492.000000 0.250980 0.250980 0.250980
vn 0.000000 0.984905 0.000000
v 391.000000 12.000000 -712.000000 0.250980 0.250980 0.250980
vn 0.000000 1.570796 0.000000
v -408.000000 12.000000 -712.000000 0.250980 0.250980 0.250980
vn 0.000000 -1.570796 0.000000
v -408.000000 -8.000000 492.000000 0.250980 0.250980 0.250980
vn 0.000000 -0.585891 0.000000
v -408.000000 -8.000000 -712.000000 0.250980 0.250980 0.250980
vn 0.000000 -0.984905 0.000000
v 391.000000 -8.000000 492.000000 0.250980 0.250980 0.250980
vn 0.000000 -0.585891 0.000000
v 391.000000 -8.000000 492.000000 0.250980 0.250980 0.250980
vn 0.000000 -0.984905 0.000000
v -408.000000 -8.000000 -712.000000 0.250980 0.250980 0.250980
vn 0.000000 -1.570796 0.000000
v 391.000000 -8.000000 -712.000000 0.250980 0.250980 0.250980
vn 0.000000 0.000000 -1.570796
v -383.000000 -8.000000 467.000000 0.752941 0.752941 0.752941
vn 0.000000 0.000000 -0.002674
v 366.000000 -8.000000 467.000000 0.752941 0.752941 0.752941
vn 0.000000 0.000000 -1.568126
v -383.000000 -10.000000 467.000000 0.752941 0.752941 0.752941
vn 0.000000 0.000000 -0.002674
v -383.000000 -10.000000 467.000000 0.752941 0.752941 0.752941
vn 0.000000 0.000000 -1.568126
v 366.000000 -8.000000 467.000000 0.752941 0.752941 0.752941
vn 0.000000 0.000000 -1.570796
v 366.000000 -10.000000 467.000000 0.752941 0.752941 0.752941
vn 0.000000 0.000000 -1.570796
v -408.000000 12.000000 492.000000 0.752941 0.752941 0.752941
vn 0.000000 0.000000 -0.025025
v 391.000000 12.000000 492.000000 0.752941 0.752941 0.752941
vn 0.000000 0.000000 -1.545770
v -408.000000 -8.000000 492.000000 0.752941 0.752941 0.752941
vn 0.000000 0.000000 -0.025025
v -408.000000 -8.000000 492.000000 0.752941 0.752941 0.752941
vn 0.000000 0.000000 -1.545770
v 391.000000 12.000000 492.000000 0.752941 0.752941 0.752941
vn 0.000000 0.000000 -1.570796
v 391.000000 -8.000000 492.000000 0.752941 0.752941 0.752941
vn 0.000000 0.000000 -1.570796
v 366.000000 12.000000 467.000000 0.752941 0.752941 0.752941
vn 0.000000 0.000000 -0.002674
v -383.000000 12.000000 467.000000 0.752941 0.752941 0.752941
vn 0.000000 0.000000 -1.568126
v 366.000000 14.000000 467.000000 0.752941 0.752941 0.752941
vn 0.000000 0.000000 -0.002674
v 366.000000 14.000000 467.000000 0.752941 0.752941 0.752941
vn 0.000000 0.000000 -1.568126
v -383.000000 12.000000 467.000000 0.752941 0.752941 0.752941
vn 0.000000 0.000000 -1.570796
v -383.000000 14.000000 467.000000 0.752941 0.752941 0.752941
vn 0.000000 0.000000 1.570796
v 393.000000 14.000000 494.000000 0.752941 0.752941 0.752941
vn 0.000000 0.000000 0.029880
v -410.000000 14.000000 494.000000 0.752941 0.752941 0.752941
vn 0.000000 0.000000 1.540917
v 393.000000 -10.000000 494.000000 0.752941 0.752941 0.752941
vn 0.000000 0.000000 0.029880
v 393.000000 -10.000000 494.000000 0.752941 0.752941 0.752941
vn 0.000000 0.000000 1.540917
v -410.000000 14.000000 494.000000 0.752941 0.752941 0.752941
vn 0.000000 0.000000 1.570796
v -410.000000 -10.000000 494.000000 0.752941 0.752941 0.752941
vn 1.570796 0.000000 0.000000
v -383.000000 -8.000000 -687.000000 0.752941 0.752941 0.752941
vn 0.001726 0.000000 0.000000
v -383.000000 -8.000000 467.000000 0.752941 0.752941 0.752941
vn 1.569063 0.000000 0.000000
v -383.000000 -10.000000 -687.000000 0.752941 0.752941 0.752941
vn 0.001726 0.000000 0.000000
v -383.000000 -10.000000 -687.000000 0.752941 0.752941 0.752941
vn 1.569063 0.000000 0.000000
v -383.000000 -8.000000 467.000000 0.752941 0.752941 0.752941
vn 1.570796 0.000000 0.000000
v -383.000000 -10.000000 467.000000 0.752941 0.752941 0.752941
vn 1.570796 0.000000 0.000000
v -408.000000 12.000000 -712.000000 0.752941 0.752941 0.752941
vn 0.016613 0.000000 0.000000
v -408.000000 12.000000 492.000000 0.752941 0.752941 0.752941
vn 1.554187 0.000000 0.000000
v -408.000000 -8.000000 -712.000000 0.752941 0.752941 0.752941
vn 0.016613 0.000000 0.000000
v -408.000000 -8.000000 -712.000000 0.752941 0.752941 0.752941
vn 1.554187 0.000000 0.000000
v -408.000000 12.000000 492.000000 0.752941 0.752941 0.752941
vn 1.570796 0.000000 0.000000
v -408.000000 -8.000000 492.000000 0.752941 0.752941 0.752941
vn -1.570796 0.000000 0.000000
v -410.000000 -10.000000 -714.000000 0.752941 0.752941 0.752941
vn -0.019864 0.000000 0.000000
v -410.000000 -10.000000 494.000000 0.752941 0.752941 0.752941
vn -1.550931 0.000000 0.000000
v -410.000000 14.000000 -714.000000 0.752941 0.752941 0.752941
vn -0.019864 0.000000 0.000000
v -410.000000 14.000000 -714.000000 0.752941 0.752941 0.752941
vn -1.550931 0.000000 0.000000
v -410.000000 -10.000000 494.000000 0.752941 0.752941 0.752941
vn -1.570796 0.000000 0.000000
v -410.000000 14.000000 494.000000 0.752941 0.752941 0.752941
vn 1.570796 0.000000 0.000000
v -383.000000 12.000000 467.000000 0.752941 0.752941 0.752941
vn 0.001726 0.000000 0.000000
v -383.000000 12.000000 -687.000000 0.752941 0.752941 0.752941
vn 1.569063 0.000000 0.000000
v -383.000000 14.000000 467.000000 0.752941 0.752941 0.752941
vn 0.001726 0.000000 0.000000
v -383.000000 14.000000 467.000000 0.752941 0.752941 0.752941
vn 1.569063 0.000000 0.000000
v -383.000000 12.000000 -687.000000 0.752941 0.752941 0.752941
vn 1.570796 0.000000 0.000000
v -383.000000 14.000000 -687.000000 0.752941 0.752941 0.752941
vn 0.000000 0.000000 1.570796
v 366.000000 -8.000000 -687.000000 0.752941 0.752941 0.752941
vn 0.000000 0.000000 0.002674
v -383.000000 -8.000000 -687.000000 0.752941 0.752941 0.752941
vn 0.000000 0.000000 1.568126
v 366.000000 -10.000000 -687.000000 0.752941 0.752941 0.752941
vn 0.000000 0.000000 0.002674
v 366.000000 -10.000000 -687.000000 0.752941 0.752941 0.752941
vn 0.000000 0.000000 1.568126
v -383.000000 -8.000000 -687.000000 0.752941 0.752941 0.752941
vn 0.000000 0.000000 1.570796
v -383.000000 -10.000000 -687.000000 0.752941 0.752941 0.752941
vn -1.570796 0.000000 0.000000
v 366.000000 -8.000000 467.000000 0.752941 0.752941 0.752941
vn -0.001726 0.000000 0.000000
v 366.000000 -8.000000 -687.000000 0.752941 0.752941 0.752941
vn -1.569063 0.000000 0.000000
v 366.000000 -10.000000 467.000000 0.752941 0.752941 0.752941
vn -0.001726 0.000000 0.000000
v 366.000000 -10.000000 467.000000 0.752941 0.752941 0.752941
vn -1.569063 0.000000 0.000000
v 366.000000 -8.000000 -687.000000 0.752941 0.752941 0.752941
vn -1.570796 0.000000 0.000000
v 366.000000 -10.000000 -687.000000 0.752941 0.752941 0.752941
vn 0.000000 0.021200 0.000000
v -383.000000 -8.000000 -687.000000 0.752941 0.752941 0.752941
vn 0.000000 0.764197 0.000000
v -408.000000 -8.000000 492.000000 0.752941 0.752941 0.752941
vn 0.000000 2.356194 0.000000
v -383.000000 -8.000000 467.000000 0.752941 0.752941 0.752941
vn 0.000000 2.323906 0.000000
v -383.000000 -8.000000 467.000000 0.752941 0.752941 0.752941
vn 0.000000 0.785398 0.000000
v -408.000000 -8.000000 492.000000 0.752941 0.752941 0.752941
vn 0.000000 0.032287 0.000000
v 391.000000 -8.000000 492.000000 0.752941 0.752941 0.752941
vn 0.000000 0.032287 0.000000
v -383.000000 -8.000000 467.000000 0.752941 0.752941 0.752941
vn 0.000000 0.753110 0.000000
v 391.000000 -8.000000 492.000000 0.752941 0.752941 0.752941
vn 0.000000 2.356194 0.000000
v 366.000000 -8.000000 467.000000 0.752941 0.752941 0.752941
vn 0.000000 2.356194 0.000000
v 366.000000 -8.000000 467.000000 0.752941 0.752941 0.752941
vn 0.000000 0.764197 0.000000
v 391.000000 -8.000000 492.000000 0.752941 0.752941 0.752941
vn 0.000000 0.021200 0.000000
v 366.000000 -8.000000 -687.000000 0.752941 0.752941 0.752941
vn 0.000000 2.334993 0.000000
v 366.000000 -8.000000 -687.000000 0.752941 0.752941 0.752941
vn 0.000000 0.021200 0.000000
v 391.000000 -8.000000 492.000000 0.752941 0.752941 0.752941
vn 0.000000 0.785398 0.000000
v 391.000000 -8.000000 -712.000000 0.752941 0.752941 0.752941
vn 0.000000 2.323906 0.000000
v 366.000000 -8.000000 -687.000000 0.752941 0.752941 0.752941
vn 0.000000 0.785398 0.000000
v 391.000000 -8.000000 -712.000000 0.752941 0.752941 0.752941
vn 0.000000 0.032287 0.000000
v -408.000000 -8.000000 -712.000000 0.752941 0.752941 0.752941
vn 0.000000 0.021200 0.000000
v -408.000000 -8.000000 492.000000 0.752941 0.752941 0.752941
vn 0.000000 2.334993 0.000000
v -383.000000 -8.000000 -687.000000 0.752941 0.752941 0.752941
vn 0.000000 0.785398 0.000000
v -408.000000 -8.000000 -712.000000 0.752941 0.752941 0.752941
vn 0.000000 0.753110 0.000000
v -408.000000 -8.000000 -712.000000 0.752941 0.752941 0.752941
vn 0.000000 2.356194 0.000000
v -383.000000 -8.000000 -687.000000 0.752941 0.752941 0.752941
vn 0.000000 0.032287 0.000000
v 366.000000 -8.000000 -687.000000 0.752941 0.752941 0.752941
vn 0.000000 -0.785398 0.000000
v -410.000000 -10.000000 -714.000000 0.752941 0.752941 0.752941
vn 0.000000 -2.333336 0.000000
v -383.000000 -10.000000 -687.000000 0.752941 0.752941 0.752941
vn 0.000000 -0.022859 0.000000
v -410.000000 -10.000000 494.000000 0.752941 0.752941 0.752941
vn 0.000000 -0.762540 0.000000
v -410.000000 -10.000000 494.000000 0.752941 0.752941 0.752941
vn 0.000000 -0.022859 0.000000
v -383.000000 -10.000000 -687.000000 0.752941 0.752941 0.752941
vn 0.000000 -2.356194 0.000000
v -383.000000 -10.000000 467.000000 0.752941 0.752941 0.752941
vn 0.000000 -0.750618 0.000000
v -410.000000 -10.000000 494.000000 0.752941 0.752941 0.752941
vn 0.000000 -2.356194 0.000000
v -383.000000 -10.000000 467.000000 0.752941 0.752941 0.752941
vn 0.000000 -0.034781 0.000000
v 366.000000 -10.000000 467.000000 0.752941 0.752941 0.752941
vn 0.000000 -0.785398 0.000000
v -410.000000 -10.000000 -714.000000 0.752941 0.752941 0.752941
vn 0.000000 -0.034781 0.000000
v 393.000000 -10.000000 -714.000000 0.752941 0.752941 0.752941
vn 0.000000 -2.321415 0.000000
v -383.000000 -10.000000 -687.000000 0.752941 0.752941 0.752941
vn 0.000000 -0.034781 0.000000
v -383.000000 -10.000000 -687.000000 0.752941 0.752941 0.752941
vn 0.000000 -0.750618 0.000000
v 393.000000 -10.000000 -714.000000 0.752941 0.752941 0.752941
vn 0.000000 -2.356194 0.000000
v 366.000000 -10.000000 -687.000000 0.752941 0.752941 0.752941
vn 0.000000 -2.333336 0.000000
v 366.000000 -10.000000 -687.000000 0.752941 0.752941 0.752941
vn 0.000000 -0.785398 0.000000
v 393.000000 -10.000000 -714.000000 0.752941 0.752941 0.752941
vn 0.000000 -0.022859 0.000000
v 393.000000 -10.000000 494.000000 0.752941 0.752941 0.752941
vn 0.000000 -0.022859 0.000000
v 366.000000 -10.000000 -687.000000 0.752941 0.752941 0.752941
vn 0.000000 -0.762540 0.000000
v 393.000000 -10.000000 494.000000 0.752941 0.752941 0.752941
vn 0.000000 -2.356194 0.000000
v 366.000000 -10.000000 467.000000 0.752941 0.752941 0.752941
vn 0.000000 -2.321415 0.000000
v 366.000000 -10.000000 467.000000 0.752941 0.752941 0.752941
vn 0.000000 -0.785398 0.000000
v 393.000000 -10.000000 494.000000 0.752941 0.752941 0.752941
vn 0.000000 -0.034781 0.000000
v -410.000000 -10.000000 494.000000 0.752941 0.752941 0.752941
vn 0.000000 0.000000 1.570796
v 391.000000 12.000000 -712.000000 0.752941 0.752941 0.752941
vn 0.000000 0.000000 0.025025
v -408.000000 12.000000 -712.000000 0.752941 0.752941 0.752941
vn 0.000000 0.000000 1.545770
v 391.000000 -8.000000 -712.000000 0.752941 0.752941 0.752941
vn 0.000000 0.000000 0.025025
v 391.000000 -8.000000 -712.000000 0.752941 0.752941 0.752941
vn 0.000000 0.000000 1.545770
v -408.000000 12.000000 -712.000000 0.752941 0.752941 0.752941
vn 0.000000 0.000000 1.570796
v -408.000000 -8.000000 -712.000000 0.752941 0.752941 0.752941
vn -1.570796 0.000000 0.000000
v 391.000000 12.000000 492.000000 0.752941 0.752941 0.752941
vn -0.016613 0.000000 0.000000
v 391.000000 12.000000 -712.000000 0.752941 0.752941 0.752941
vn -1.554187 0.000000 0.000000
v 391.000000 -8.000000 492.000000 0.752941 0.752941 0.752941
vn -0.016613 0.000000 0.000000
v 391.000000 -8.000000 492.000000 0.752941 0.752941 0.752941
vn -1.554187 0.000000 0.000000
v 391.000000 12.000000 -712.000000 0.752941 0.752941 0.752941
vn -1.570796 0.000000 0.000000
v 391.000000 -8.000000 -712.000000 0.752941 0.752941 0.752941
vn 0.000000 -0.785398 0.000000
v -408.000000 12.000000 -712.000000 0.752941 0.752941 0.752941
vn 0.000000 -2.334993 0.000000
v -383.000000 12.000000 -687.000000 0.752941 0.752941 0.752941
vn 0.000000 -0.021200 0.000000
v -408.000000 12.000000 492.000000 0.752941 0.752941 0.752941
vn 0.000000 -0.764197 0.000000
v -408.000000 12.000000 492.000000 0.752941 0.752941 0.752941
vn 0.000000 -0.021200 0.000000
v -383.000000 12.000000 -687.000000 0.752941 0.752941 0.752941
vn 0.000000 -2.356194 0.000000
v -383.000000 12.000000 467.000000 0.752941 0.752941 0.752941
vn 0.000000 -0.753110 0.000000
v -408.000000 12.000000 492.000000 0.752941 0.752941 0.752941
vn 0.000000 -2.356194 0.000000
v -383.000000 12.000000 467.000000 0.752941 0.752941 0.752941
vn 0.000000 -0.032287 0.000000
v 366.000000 12.000000 467.000000 0.752941 0.752941 0.752941
vn 0.000000 -0.785398 0.000000
v -408.000000 12.000000 -712.000000 0.752941 0.752941 0.752941
vn 0.000000 -0.032287 0.000000
v 391.000000 12.000000 -712.000000 0.752941 0.752941 0.752941
vn 0.000000 -2.323906 0.000000
v -383.000000 12.000000 -687.000000 0.752941 0.752941 0.752941
vn 0.000000 -0.032287 0.000000
v -383.000000 12.000000 -687.000000 0.752941 0.752941 0.752941
vn 0.000000 -0.753110 0.000000
v 391.000000 12.000000 -712.000000 0.752941 0.752941 0.752941
vn 0.000000 -2.356194 0.000000
v 366.000000 12.000000 -687.000000 0.752941 0.752941 0.752941
vn 0.000000 -2.334993 0.000000
v 366.000000 12.000000 -687.000000 0.752941 0.752941 0.752941
vn 0.000000 -0.785398 0.000000
v 391.000000 12.000000 -712.000000 0.752941 0.752941 0.752941
vn 0.000000 -0.021200 0.000000
v 391.000000 12.000000 492.000000 0.752941 0.752941 0.752941
vn 0.000000 -0.021200 0.000000
v 366.000000 12.000000 -687.000000 0.752941 0.752941 0.752941
vn 0.000000 -0.764197 0.000000
v 391.000000 12.000000 492.000000 0.752941 0.752941 0.752941
vn 0.000000 -2.356194 0.000000
v 366.000000 12.000000 467.000000 0.752941 0.752941 0.752941
vn 0.000000 -2.323906 0.000000
v 366.000000 12.000000 467.000000 0.752941 0.752941 0.752941
vn 0.000000 -0.785398 0.000000
v 391.000000 12.000000 492.000000 0.752941 0.752941 0.752941
vn 0.000000 -0.032287 0.000000
v -408.000000 12.000000 492.000000 0.752941 0.752941 0.752941
vn 1.570796 0.000000 0.000000
v 393.000000 14.000000 -714.000000 0.752941 0.752941 0.752941
vn 0.019864 0.000000 0.000000
v 393.000000 14.000000 494.000000 0.752941 0.752941 0.752941
vn 1.550931 0.000000 0.000000
v 393.000000 -10.000000 -714.000000 0.752941 0.752941 0.752941
vn 0.019864 0.000000 0.000000
v 393.000000 -10.000000 -714.000000 0.752941 0.752941 0.752941
vn 1.550931 0.000000 0.000000
v 393.000000 14.000000 494.000000 0.752941 0.752941 0.752941
vn 1.570796 0.000000 0.000000
v 393.000000 -10.000000 494.000000 0.752941 0.752941 0.752941
vn -1.570796 0.000000 0.000000
v 366.000000 12.000000 -687.000000 0.752941 0.752941 0.752941
vn -0.001726 0.000000 0.000000
v 366.000000 12.000000 467.000000 0.752941 0.752941 0.752941
vn -1.569063 0.000000 0.000000
v 366.000000 14.000000 -687.000000 0.752941 0.752941 0.752941
vn -0.001726 0.000000 0.000000
v 366.000000 14.000000 -687.000000 0.752941 0.752941 0.752941
vn -1.569063 0.000000 0.000000
v 366.000000 12.000000 467.000000 0.752941 0.752941 0.752941
vn -1.570796 0.000000 0.000000
v 366.000000 14.000000 467.000000 0.752941 0.752941 0.752941
vn 0.000000 0.000000 1.570796
v -383.000000 12.000000 -687.000000 0.752941 0.752941 0.752941
vn 0.000000 0.000000 0.002674
v 366.000000 12.000000 -687.000000 0.752941 0.752941 0.752941
vn 0.000000 0.000000 1.568126
v -383.000000 14.000000 -687.000000 0.752941 0.752941 0.752941
vn 0.000000 0.000000 0.002674
v -383.000000 14.000000 -687.000000 0.752941 0.752941 0.752941
vn 0.000000 0.000000 1.568126
v 366.000000 12.000000 -687.000000 0.752941 0.752941 0.752941
vn 0.000000 0.000000 1.570796
v 366.000000 14.000000 -687.000000 0.752941 0.752941 0.752941
vn 0.000000 0.000000 -1.570796
v -410.000000 14.000000 -714.000000 0.752941 0.752941 0.752941
vn 0.000000 0.000000 -0.029880
v 393.000000 14.000000 -714.000000 0.752941 0.752941 0.752941
vn 0.000000 0.000000 -1.540917
v -410.000000 -10.000000 -714.000000 0.752941 0.752941 0.752941
vn 0.000000 0.000000 -0.029880
v -410.000000 -10.000000 -714.000000 0.752941 0.752941 0.752941
vn 0.000000 0.000000 -1.540917
v 393.000000 14.000000 -714.000000 0.752941 0.752941 0.752941
vn 0.000000 0.000000 -1.570796
v 393.000000 -10.000000 -714.000000 0.752941 0.752941 0.752941
vn 0.000000 0.022859 0.000000
v -383.000000 14.000000 -687.000000 0.752941 0.752941 0.752941
vn 0.000000 0.762540 0.000000
v -410.000000 14.000000 494.000000 0.752941 0.752941 0.752941
vn 0.000000 2.356194 0.000000
v -383.000000 14.000000 467.000000 0.752941 0.752941 0.752941
vn 0.000000 2.321415 0.000000
v -383.000000 14.000000 467.000000 0.752941 0.752941 0.752941
vn 0.000000 0.785398 0.000000
v -410.000000 14.000000 494.000000 0.752941 0.752941 0.752941
vn 0.000000 0.034781 0.000000
v 393.000000 14.000000 494.000000 0.752941 0.752941 0.752941
vn 0.000000 0.034781 0.000000
v -383.000000 14.000000 467.000000 0.752941 0.752941 0.752941
vn 0.000000 0.750618 0.000000
v 393.000000 14.000000 494.000000 0.752941 0.752941 0.752941
vn 0.000000 2.356194 0.000000
v 366.000000 14.000000 467.000000 0.752941 0.752941 0.752941
vn 0.000000 2.356194 0.000000
v 366.000000 14.000000 467.000000 0.752941 0.752941 0.752941
vn 0.000000 0.762540 0.000000
v 393.000000 14.000000 494.000000 0.752941 0.752941 0.752941
vn 0.000000 0.022859 0.000000
v 366.000000 14.000000 -687.000000 0.752941 0.752941 0.752941
vn 0.000000 2.333336 0.000000
v 366.000000 14.000000 -687.000000 0.752941 0.752941 0.752941
vn 0.000000 0.022859 0.000000
v 393.000000 14.000000 494.000000 0.752941 0.752941 0.752941
vn 0.000000 0.785398 0.000000
v 393.000000 14.000000 -714.000000 0.752941 0.752941 0.752941
vn 0.000000 2.321415 0.000000
v 366.000000 14.000000 -687.000000 0.752941 0.752941 0.752941
vn 0.000000 0.785398 0.000000
v 393.000000 14.000000 -714.000000 0.752941 0.752941 0.752941
vn 0.000000 0.034781 0.000000
v -410.000000 14.000000 -714.000000 0.752941 0.752941 0.752941
vn 0.000000 0.022859 0.000000
v -410.000000 14.000000 494.000000 0.752941 0.752941 0.752941
vn 0.000000 2.333336 0.000000
v -383.000000 14.000000 -687.000000 0.752941 0.752941 0.752941
vn 0.000000 0.785398 0.000000
v -410.000000 14.000000 -714.000000 0.752941 0.752941 0.752941
vn 0.000000 0.750618 0.000000
v -410.000000 14.000000 -714.000000 0.752941 0.752941 0.752941
vn 0.000000 2.356194 0.000000
v -383.000000 14.000000 -687.000000 0.752941 0.752941 0.752941
vn 0.000000 0.034781 0.000000
v 366.000000 14.000000 -687.000000 0.752941 0.752941 0.752941
# 228 vertices, 0 vertices normals

f 1//1 2//2 3//3
f 4//4 5//5 6//6
f 7//7 8//8 9//9
f 10//10 11//11 12//12
f 13//13 14//14 15//15
f 16//16 17//17 18//18
f 19//19 20//20 21//21
f 22//22 23//23 24//24
f 25//25 26//26 27//27
f 28//28 29//29 30//30
f 31//31 32//32 33//33
f 34//34 35//35 36//36
f 37//37 38//38 39//39
f 40//40 41//41 42//42
f 43//43 44//44 45//45
f 46//46 47//47 48//48
f 49//49 50//50 51//51
f 52//52 53//53 54//54
f 55//55 56//56 57//57
f 58//58 59//59 60//60
f 61//61 62//62 63//63
f 64//64 65//65 66//66
f 67//67 68//68 69//69
f 70//70 71//71 72//72
f 73//73 74//74 75//75
f 76//76 77//77 78//78
f 79//79 80//80 81//81
f 82//82 83//83 84//84
f 85//85 86//86 87//87
f 88//88 89//89 90//90
f 91//91 92//92 93//93
f 94//94 95//95 96//96
f 97//97 98//98 99//99
f 100//100 101//101 102//102
f 103//103 104//104 105//105
f 106//106 107//107 108//108
f 109//109 110//110 111//111
f 112//112 113//113 114//114
f 115//115 116//116 117//117
f 118//118 119//119 120//120
f 121//121 122//122 123//123
f 124//124 125//125 126//126
f 127//127 128//128 129//129
f 130//130 131//131 132//132
f 133//133 134//134 135//135
f 136//136 137//137 138//138
f 139//139 140//140 141//141
f 142//142 143//143 144//144
f 145//145 146//146 147//147
f 148//148 149//149 150//150
f 151//151 152//152 153//153
f 154//154 155//155 156//156
f 157//157 158//158 159//159
f 160//160 161//161 162//162
f 163//163 164//164 165//165
f 166//166 167//167 168//168
f 169//169 170//170 171//171
f 172//172 173//173 174//174
f 175//175 176//176 177//177
f 178//178 179//179 180//180
f 181//181 182//182 183//183
f 184//184 185//185 186//186
f 187//187 188//188 189//189
f 190//190 191//191 192//192
f 193//193 194//194 195//195
f 196//196 197//197 198//198
f 199//199 200//200 201//201
f 202//202 203//203 204//204
f 205//205 206//206 207//207
f 208//208 209//209 210//210
f 211//211 212//212 213//213
f 214//214 215//215 216//216
f 217//217 218//218 219//219
f 220//220 221//221 222//222
f 223//223 224//224 225//225
f 226//226 227//227 228//228
# 76 faces, 0 coords texture

# End of File