{
    "_id": "1", 
    "attrs": {
        "agentFilePath": [
            {
                "value": {
                    "typeName": "::armarx::StringVariantData", 
                    "value": "Armar6RT/robotmodel/Armar6-SH/Armar6-SH.xml"
                }
            }
        ], 
        "orientation": [
            {
                "value": {
                    "typeName": "::armarx::FramedOrientationBase", 
                    "value": {
                        "agent": "", 
                        "frame": "Global", 
                        "qw": 0.9998992681503296, 
                        "qx": 0, 
                        "qy": 0, 
                        "qz": 0.014194461517035961
                    }
                }
            }
        ], 
        "position": [
            {
                "value": {
                    "typeName": "::armarx::FramedPositionBase", 
                    "value": {
                        "agent": "", 
                        "frame": "Global", 
                        "x": 4187.29443359375, 
                        "y": 3919.113037109375, 
                        "z": 0
                    }
                }
            }
        ], 
        "stringifiedSharedRobotInterfaceProxy": [
            {
                "value": {
                    "typeName": "::armarx::StringVariantData", 
                    "value": "7FDDB2E4-AEF6-45D0-8F72-10DE3C140CE6 -t -e 1.0:tcp -h 10.6.2.101 -p 39517 -t 60000"
                }
            }
        ]
    }, 
    "name": "Armar6", 
    "type": "::memoryx::AgentInstanceBase"
}
{
    "_id": "2", 
    "attrs": {
        "agentFilePath": [
            {
                "value": {
                    "typeName": "::armarx::StringVariantData", 
                    "value": "Armar6RT/robotmodel/Armar6-SH/Armar6-SH.xml"
                }
            }
        ], 
        "orientation": [
            {
                "value": {
                    "typeName": "::armarx::FramedOrientationBase", 
                    "value": {
                        "agent": "", 
                        "frame": "Global", 
                        "qw": 1, 
                        "qx": 0, 
                        "qy": 0, 
                        "qz": 0.0002076304954243824
                    }
                }
            }
        ], 
        "position": [
            {
                "value": {
                    "typeName": "::armarx::FramedPositionBase", 
                    "value": {
                        "agent": "", 
                        "frame": "Global", 
                        "x": 4192.66455078125, 
                        "y": 3839.77685546875, 
                        "z": 0
                    }
                }
            }
        ], 
        "stringifiedSharedRobotInterfaceProxy": [
            {
                "value": {
                    "typeName": "::armarx::StringVariantData", 
                    "value": "7FDDB2E4-AEF6-45D0-8F72-10DE3C140CE6 -t -e 1.0:tcp -h 10.6.2.101 -p 39517 -t 60000"
                }
            }
        ]
    }, 
    "name": "Armar6", 
    "type": "::memoryx::AgentInstanceBase"
}
