{
    "_id": {
        "$oid": "5b473cc4ddbc8f5b4212ba05"
    }, 
    "attrs": {
        "pose": [
            {
                "value": {
                    "typeName": "::armarx::FramedPoseBase", 
                    "value": {
                        "agent": "", 
                        "frame": "Global", 
                        "qw": 0.9999934434890747, 
                        "qx": 0, 
                        "qy": 0, 
                        "qz": 0.003615423105657101, 
                        "x": 4396.7685546875, 
                        "y": 3129.1923828125, 
                        "z": 0
                    }
                }
            }
        ]
    }, 
    "name": "Armar6", 
    "type": "::memoryx::EntityBase"
}
