{
    "_id": {
        "$oid": "56a5e0301d5d134556a203ff"
    }, 
    "attrs": {
        "IvFile": [
            {
                "value": {
                    "typeName": "::memoryx::MongoDBRefBase", 
                    "value": {
                        "dbName": "SecondHandsDB", 
                        "docId": "56a5e0301d5d134556a203fd"
                    }
                }
            }
        ], 
        "IvFileCollision": [
            {
                "value": {
                    "typeName": "::memoryx::MongoDBRefBase", 
                    "value": {
                        "dbName": "SecondHandsDB", 
                        "docId": "56a5e0301d5d134556a203fd"
                    }
                }
            }
        ], 
        "ManipulationFile": [
            {
                "value": {
                    "typeName": "::memoryx::MongoDBRefBase", 
                    "value": {
                        "dbName": "SecondHandsDB", 
                        "docId": "56a5e0301d5d134556a203fe"
                    }
                }
            }
        ], 
        "PutdownOrientationRPY": [
            {
                "value": {
                    "typeName": "::armarx::Vector3Base", 
                    "value": {
                        "x": 0, 
                        "y": 0, 
                        "z": 0
                    }
                }
            }
        ], 
        "defaultMotionModel": [
            {
                "value": {
                    "typeName": "::armarx::StringVariantData", 
                    "value": "Static"
                }
            }
        ], 
        "isInstanceable": [
            {
                "value": {
                    "typeName": "::armarx::BoolVariantData", 
                    "value": true
                }
            }
        ], 
        "objectColor": [
            {
                "value": {
                    "typeName": "::armarx::IntVariantData", 
                    "value": 0
                }
            }
        ], 
        "parentClasses": [
            {
                "value": {
                    "typeName": "::armarx::StringVariantData", 
                    "value": ""
                }
            }
        ], 
        "recognitionMethod": [
            {
                "value": {
                    "typeName": "::armarx::StringVariantData", 
                    "value": "SegmentableObjectRecognition"
                }
            }
        ]
    }, 
    "name": "AllanKey", 
    "type": "::memoryx::ObjectClassBase"
}
{
    "_id": {
        "$oid": "56a5e0401d5d134556a20402"
    }, 
    "attrs": {
        "IvFile": [
            {
                "value": {
                    "typeName": "::memoryx::MongoDBRefBase", 
                    "value": {
                        "dbName": "SecondHandsDB", 
                        "docId": "56a5e0401d5d134556a20400"
                    }
                }
            }
        ], 
        "IvFileCollision": [
            {
                "value": {
                    "typeName": "::memoryx::MongoDBRefBase", 
                    "value": {
                        "dbName": "SecondHandsDB", 
                        "docId": "56a5e0401d5d134556a20400"
                    }
                }
            }
        ], 
        "ManipulationFile": [
            {
                "value": {
                    "typeName": "::memoryx::MongoDBRefBase", 
                    "value": {
                        "dbName": "SecondHandsDB", 
                        "docId": "56a5e0401d5d134556a20401"
                    }
                }
            }
        ], 
        "PutdownOrientationRPY": [
            {
                "value": {
                    "typeName": "::armarx::Vector3Base", 
                    "value": {
                        "x": 0, 
                        "y": 0, 
                        "z": 0
                    }
                }
            }
        ], 
        "defaultMotionModel": [
            {
                "value": {
                    "typeName": "::armarx::StringVariantData", 
                    "value": "Static"
                }
            }
        ], 
        "isInstanceable": [
            {
                "value": {
                    "typeName": "::armarx::BoolVariantData", 
                    "value": true
                }
            }
        ], 
        "parentClasses": [
            {
                "value": {
                    "typeName": "::armarx::StringVariantData", 
                    "value": ""
                }
            }
        ], 
        "recognitionMethod": [
            {
                "value": {
                    "typeName": "::armarx::StringVariantData", 
                    "value": "TexturedObjectRecognition"
                }
            }
        ]
    }, 
    "name": "AllanKey2", 
    "type": "::memoryx::ObjectClassBase"
}
{
    "_id": {
        "$oid": "56a5e04f1d5d134556a20405"
    }, 
    "attrs": {
        "IvFile": [
            {
                "value": {
                    "typeName": "::memoryx::MongoDBRefBase", 
                    "value": {
                        "dbName": "SecondHandsDB", 
                        "docId": "56a5e04f1d5d134556a20403"
                    }
                }
            }
        ], 
        "IvFileCollision": [
            {
                "value": {
                    "typeName": "::memoryx::MongoDBRefBase", 
                    "value": {
                        "dbName": "SecondHandsDB", 
                        "docId": "56a5e04f1d5d134556a20403"
                    }
                }
            }
        ], 
        "ManipulationFile": [
            {
                "value": {
                    "typeName": "::memoryx::MongoDBRefBase", 
                    "value": {
                        "dbName": "SecondHandsDB", 
                        "docId": "56a5e04f1d5d134556a20404"
                    }
                }
            }
        ], 
        "PutdownOrientationRPY": [
            {
                "value": {
                    "typeName": "::armarx::Vector3Base", 
                    "value": {
                        "x": 0, 
                        "y": 0, 
                        "z": 0
                    }
                }
            }
        ], 
        "defaultMotionModel": [
            {
                "value": {
                    "typeName": "::armarx::StringVariantData", 
                    "value": "Static"
                }
            }
        ], 
        "isInstanceable": [
            {
                "value": {
                    "typeName": "::armarx::BoolVariantData", 
                    "value": true
                }
            }
        ], 
        "parentClasses": [
            {
                "value": {
                    "typeName": "::armarx::StringVariantData", 
                    "value": ""
                }
            }
        ], 
        "recognitionMethod": [
            {
                "value": {
                    "typeName": "::armarx::StringVariantData", 
                    "value": "TexturedObjectRecognition"
                }
            }
        ]
    }, 
    "name": "AllanKey3", 
    "type": "::memoryx::ObjectClassBase"
}
{
    "_id": {
        "$oid": "56a5e05c1d5d134556a20408"
    }, 
    "attrs": {
        "IvFile": [
            {
                "value": {
                    "typeName": "::memoryx::MongoDBRefBase", 
                    "value": {
                        "dbName": "SecondHandsDB", 
                        "docId": "589b30c0fc5132f4bc9b1189"
                    }
                }
            }
        ], 
        "IvFileCollision": [
            {
                "value": {
                    "typeName": "::memoryx::MongoDBRefBase", 
                    "value": {
                        "dbName": "SecondHandsDB", 
                        "docId": "589b3fae70a083c3a618afc8"
                    }
                }
            }
        ], 
        "ManipulationFile": [
            {
                "value": {
                    "typeName": "::memoryx::MongoDBRefBase", 
                    "value": {
                        "dbName": "SecondHandsDB", 
                        "docId": "589b30c0fc5132f4bc9b118d"
                    }
                }
            }
        ], 
        "PutdownOrientationRPY": [
            {
                "value": {
                    "typeName": "::armarx::Vector3Base", 
                    "value": {
                        "x": 0, 
                        "y": 0, 
                        "z": 0
                    }
                }
            }
        ], 
        "defaultMotionModel": [
            {
                "value": {
                    "typeName": "::armarx::StringVariantData", 
                    "value": "Static"
                }
            }
        ], 
        "isInstanceable": [
            {
                "value": {
                    "typeName": "::armarx::BoolVariantData", 
                    "value": true
                }
            }
        ], 
        "parentClasses": [
            {
                "value": {
                    "typeName": "::armarx::StringVariantData", 
                    "value": ""
                }
            }
        ], 
        "recognitionMethod": [
            {
                "value": {
                    "typeName": "::armarx::StringVariantData", 
                    "value": "TexturedObjectRecognition"
                }
            }
        ], 
        "texFiles": [
            {
                "value": {
                    "typeName": "::memoryx::MongoDBRefBase", 
                    "value": {
                        "dbName": "SecondHandsDB", 
                        "docId": "589b30c0fc5132f4bc9b118b"
                    }
                }
            }, 
            {
                "value": {
                    "typeName": "::memoryx::MongoDBRefBase", 
                    "value": {
                        "dbName": "SecondHandsDB", 
                        "docId": "589b30c0fc5132f4bc9b118b"
                    }
                }
            }
        ]
    }, 
    "name": "Cutter", 
    "type": "::memoryx::ObjectClassBase"
}
{
    "_id": {
        "$oid": "56a5e0831d5d134556a2040b"
    }, 
    "attrs": {
        "IvFile": [
            {
                "value": {
                    "typeName": "::memoryx::MongoDBRefBase", 
                    "value": {
                        "dbName": "SecondHandsDB", 
                        "docId": "589b3236fc5132f4bc9b1190"
                    }
                }
            }
        ], 
        "IvFileCollision": [
            {
                "value": {
                    "typeName": "::memoryx::MongoDBRefBase", 
                    "value": {
                        "dbName": "SecondHandsDB", 
                        "docId": "589b3236fc5132f4bc9b1191"
                    }
                }
            }
        ], 
        "ManipulationFile": [
            {
                "value": {
                    "typeName": "::memoryx::MongoDBRefBase", 
                    "value": {
                        "dbName": "SecondHandsDB", 
                        "docId": "589b32b2fc5132f4bc9b1199"
                    }
                }
            }
        ], 
        "PutdownOrientationRPY": [
            {
                "value": {
                    "typeName": "::armarx::Vector3Base", 
                    "value": {
                        "x": 0, 
                        "y": 0, 
                        "z": 0
                    }
                }
            }
        ], 
        "defaultMotionModel": [
            {
                "value": {
                    "typeName": "::armarx::StringVariantData", 
                    "value": "Static"
                }
            }
        ], 
        "isInstanceable": [
            {
                "value": {
                    "typeName": "::armarx::BoolVariantData", 
                    "value": true
                }
            }
        ], 
        "parentClasses": [
            {
                "value": {
                    "typeName": "::armarx::StringVariantData", 
                    "value": ""
                }
            }
        ], 
        "recognitionMethod": [
            {
                "value": {
                    "typeName": "::armarx::StringVariantData", 
                    "value": "TexturedObjectRecognition"
                }
            }
        ], 
        "texFiles": [
            {
                "value": {
                    "typeName": "::memoryx::MongoDBRefBase", 
                    "value": {
                        "dbName": "SecondHandsDB", 
                        "docId": "589b3236fc5132f4bc9b1192"
                    }
                }
            }, 
            {
                "value": {
                    "typeName": "::memoryx::MongoDBRefBase", 
                    "value": {
                        "dbName": "SecondHandsDB", 
                        "docId": "589b3236fc5132f4bc9b1192"
                    }
                }
            }
        ]
    }, 
    "name": "Flashlight", 
    "type": "::memoryx::ObjectClassBase"
}
{
    "_id": {
        "$oid": "56a5e0931d5d134556a2040e"
    }, 
    "attrs": {
        "IvFile": [
            {
                "value": {
                    "typeName": "::memoryx::MongoDBRefBase", 
                    "value": {
                        "dbName": "SecondHandsDB", 
                        "docId": "56a5e0931d5d134556a2040c"
                    }
                }
            }
        ], 
        "IvFileCollision": [
            {
                "value": {
                    "typeName": "::memoryx::MongoDBRefBase", 
                    "value": {
                        "dbName": "SecondHandsDB", 
                        "docId": "56a5e0931d5d134556a2040c"
                    }
                }
            }
        ], 
        "ManipulationFile": [
            {
                "value": {
                    "typeName": "::memoryx::MongoDBRefBase", 
                    "value": {
                        "dbName": "SecondHandsDB", 
                        "docId": "56a5e0931d5d134556a2040d"
                    }
                }
            }
        ], 
        "PutdownOrientationRPY": [
            {
                "value": {
                    "typeName": "::armarx::Vector3Base", 
                    "value": {
                        "x": 0, 
                        "y": 0, 
                        "z": 0
                    }
                }
            }
        ], 
        "defaultMotionModel": [
            {
                "value": {
                    "typeName": "::armarx::StringVariantData", 
                    "value": "Static"
                }
            }
        ], 
        "isInstanceable": [
            {
                "value": {
                    "typeName": "::armarx::BoolVariantData", 
                    "value": true
                }
            }
        ], 
        "parentClasses": [
            {
                "value": {
                    "typeName": "::armarx::StringVariantData", 
                    "value": ""
                }
            }
        ], 
        "recognitionMethod": [
            {
                "value": {
                    "typeName": "::armarx::StringVariantData", 
                    "value": "TexturedObjectRecognition"
                }
            }
        ]
    }, 
    "name": "Pliers", 
    "type": "::memoryx::ObjectClassBase"
}
{
    "_id": {
        "$oid": "56a5e0ad1d5d134556a20411"
    }, 
    "attrs": {
        "IvFile": [
            {
                "value": {
                    "typeName": "::memoryx::MongoDBRefBase", 
                    "value": {
                        "dbName": "SecondHandsDB", 
                        "docId": "56a5e0ad1d5d134556a2040f"
                    }
                }
            }
        ], 
        "IvFileCollision": [
            {
                "value": {
                    "typeName": "::memoryx::MongoDBRefBase", 
                    "value": {
                        "dbName": "SecondHandsDB", 
                        "docId": "56a5e0ad1d5d134556a2040f"
                    }
                }
            }
        ], 
        "ManipulationFile": [
            {
                "value": {
                    "typeName": "::memoryx::MongoDBRefBase", 
                    "value": {
                        "dbName": "SecondHandsDB", 
                        "docId": "56a5e0ad1d5d134556a20410"
                    }
                }
            }
        ], 
        "PutdownOrientationRPY": [
            {
                "value": {
                    "typeName": "::armarx::Vector3Base", 
                    "value": {
                        "x": 0, 
                        "y": 0, 
                        "z": 0
                    }
                }
            }
        ], 
        "defaultMotionModel": [
            {
                "value": {
                    "typeName": "::armarx::StringVariantData", 
                    "value": "Static"
                }
            }
        ], 
        "isInstanceable": [
            {
                "value": {
                    "typeName": "::armarx::BoolVariantData", 
                    "value": true
                }
            }
        ], 
        "parentClasses": [
            {
                "value": {
                    "typeName": "::armarx::StringVariantData", 
                    "value": ""
                }
            }
        ], 
        "recognitionMethod": [
            {
                "value": {
                    "typeName": "::armarx::StringVariantData", 
                    "value": "TexturedObjectRecognition"
                }
            }
        ]
    }, 
    "name": "Screwdrover-cross", 
    "type": "::memoryx::ObjectClassBase"
}
{
    "_id": {
        "$oid": "56a5e0c51d5d134556a20414"
    }, 
    "attrs": {
        "IvFile": [
            {
                "value": {
                    "typeName": "::memoryx::MongoDBRefBase", 
                    "value": {
                        "dbName": "SecondHandsDB", 
                        "docId": "56a5e0c41d5d134556a20412"
                    }
                }
            }
        ], 
        "IvFileCollision": [
            {
                "value": {
                    "typeName": "::memoryx::MongoDBRefBase", 
                    "value": {
                        "dbName": "SecondHandsDB", 
                        "docId": "56a5e0c41d5d134556a20412"
                    }
                }
            }
        ], 
        "ManipulationFile": [
            {
                "value": {
                    "typeName": "::memoryx::MongoDBRefBase", 
                    "value": {
                        "dbName": "SecondHandsDB", 
                        "docId": "56a5e0c51d5d134556a20413"
                    }
                }
            }
        ], 
        "PutdownOrientationRPY": [
            {
                "value": {
                    "typeName": "::armarx::Vector3Base", 
                    "value": {
                        "x": 0, 
                        "y": 0, 
                        "z": 0
                    }
                }
            }
        ], 
        "defaultMotionModel": [
            {
                "value": {
                    "typeName": "::armarx::StringVariantData", 
                    "value": "Static"
                }
            }
        ], 
        "isInstanceable": [
            {
                "value": {
                    "typeName": "::armarx::BoolVariantData", 
                    "value": true
                }
            }
        ], 
        "parentClasses": [
            {
                "value": {
                    "typeName": "::armarx::StringVariantData", 
                    "value": ""
                }
            }
        ], 
        "recognitionMethod": [
            {
                "value": {
                    "typeName": "::armarx::StringVariantData", 
                    "value": "TexturedObjectRecognition"
                }
            }
        ]
    }, 
    "name": "Screwdriver-Red-smaller", 
    "type": "::memoryx::ObjectClassBase"
}
{
    "_id": {
        "$oid": "56a5e0d31d5d134556a20417"
    }, 
    "attrs": {
        "IvFile": [
            {
                "value": {
                    "typeName": "::memoryx::MongoDBRefBase", 
                    "value": {
                        "dbName": "SecondHandsDB", 
                        "docId": "56a5e0d31d5d134556a20415"
                    }
                }
            }
        ], 
        "IvFileCollision": [
            {
                "value": {
                    "typeName": "::memoryx::MongoDBRefBase", 
                    "value": {
                        "dbName": "SecondHandsDB", 
                        "docId": "56a5e0d31d5d134556a20415"
                    }
                }
            }
        ], 
        "ManipulationFile": [
            {
                "value": {
                    "typeName": "::memoryx::MongoDBRefBase", 
                    "value": {
                        "dbName": "SecondHandsDB", 
                        "docId": "56a5e0d31d5d134556a20416"
                    }
                }
            }
        ], 
        "PutdownOrientationRPY": [
            {
                "value": {
                    "typeName": "::armarx::Vector3Base", 
                    "value": {
                        "x": 0, 
                        "y": 0, 
                        "z": 0
                    }
                }
            }
        ], 
        "defaultMotionModel": [
            {
                "value": {
                    "typeName": "::armarx::StringVariantData", 
                    "value": "Static"
                }
            }
        ], 
        "isInstanceable": [
            {
                "value": {
                    "typeName": "::armarx::BoolVariantData", 
                    "value": true
                }
            }
        ], 
        "parentClasses": [
            {
                "value": {
                    "typeName": "::armarx::StringVariantData", 
                    "value": ""
                }
            }
        ], 
        "recognitionMethod": [
            {
                "value": {
                    "typeName": "::armarx::StringVariantData", 
                    "value": "TexturedObjectRecognition"
                }
            }
        ]
    }, 
    "name": "Wrench", 
    "type": "::memoryx::ObjectClassBase"
}
{
    "_id": {
        "$oid": "56a5e0de1d5d134556a2041a"
    }, 
    "attrs": {
        "IvFile": [
            {
                "value": {
                    "typeName": "::memoryx::MongoDBRefBase", 
                    "value": {
                        "dbName": "SecondHandsDB", 
                        "docId": "56a5e0de1d5d134556a20418"
                    }
                }
            }
        ], 
        "IvFileCollision": [
            {
                "value": {
                    "typeName": "::memoryx::MongoDBRefBase", 
                    "value": {
                        "dbName": "SecondHandsDB", 
                        "docId": "56a5e0de1d5d134556a20418"
                    }
                }
            }
        ], 
        "ManipulationFile": [
            {
                "value": {
                    "typeName": "::memoryx::MongoDBRefBase", 
                    "value": {
                        "dbName": "SecondHandsDB", 
                        "docId": "56a5e0de1d5d134556a20419"
                    }
                }
            }
        ], 
        "PutdownOrientationRPY": [
            {
                "value": {
                    "typeName": "::armarx::Vector3Base", 
                    "value": {
                        "x": 0, 
                        "y": 0, 
                        "z": 0
                    }
                }
            }
        ], 
        "defaultMotionModel": [
            {
                "value": {
                    "typeName": "::armarx::StringVariantData", 
                    "value": "Static"
                }
            }
        ], 
        "isInstanceable": [
            {
                "value": {
                    "typeName": "::armarx::BoolVariantData", 
                    "value": true
                }
            }
        ], 
        "parentClasses": [
            {
                "value": {
                    "typeName": "::armarx::StringVariantData", 
                    "value": ""
                }
            }
        ], 
        "recognitionMethod": [
            {
                "value": {
                    "typeName": "::armarx::StringVariantData", 
                    "value": "TexturedObjectRecognition"
                }
            }
        ]
    }, 
    "name": "Table", 
    "type": "::memoryx::ObjectClassBase"
}
{
    "_id": {
        "$oid": "589b2d4dfc5132f4bc9b1180"
    }, 
    "attrs": {
        "IvFile": [
            {
                "value": {
                    "typeName": "::memoryx::MongoDBRefBase", 
                    "value": {
                        "dbName": "SecondHandsDB", 
                        "docId": "589b2d4cfc5132f4bc9b117d"
                    }
                }
            }
        ], 
        "IvFileCollision": [
            {
                "value": {
                    "typeName": "::memoryx::MongoDBRefBase", 
                    "value": {
                        "dbName": "SecondHandsDB", 
                        "docId": "589b2d4cfc5132f4bc9b117d"
                    }
                }
            }
        ], 
        "ManipulationFile": [
            {
                "value": {
                    "typeName": "::memoryx::MongoDBRefBase", 
                    "value": {
                        "dbName": "SecondHandsDB", 
                        "docId": "5979485354bf950586e1f045"
                    }
                }
            }
        ], 
        "PutdownOrientationRPY": [
            {
                "value": {
                    "typeName": "::armarx::Vector3Base", 
                    "value": {
                        "x": 0, 
                        "y": 0, 
                        "z": 0
                    }
                }
            }
        ], 
        "defaultMotionModel": [
            {
                "value": {
                    "typeName": "::armarx::StringVariantData", 
                    "value": "Static"
                }
            }
        ], 
        "isInstanceable": [
            {
                "value": {
                    "typeName": "::armarx::BoolVariantData", 
                    "value": true
                }
            }
        ], 
        "parentClasses": [
            {
                "value": {
                    "typeName": "::armarx::StringVariantData", 
                    "value": ""
                }
            }
        ], 
        "recognitionMethod": [
            {
                "value": {
                    "typeName": "::armarx::StringVariantData", 
                    "value": "<none>"
                }
            }
        ], 
        "texFiles": [
            {
                "value": {
                    "typeName": "::memoryx::MongoDBRefBase", 
                    "value": {
                        "dbName": "SecondHandsDB", 
                        "docId": "589b2d4dfc5132f4bc9b117e"
                    }
                }
            }
        ]
    }, 
    "name": "Spraybottle", 
    "type": "::memoryx::ObjectClassBase"
}
{
    "_id": {
        "$oid": "589b2e44fc5132f4bc9b1184"
    }, 
    "attrs": {
        "IvFile": [
            {
                "value": {
                    "typeName": "::memoryx::MongoDBRefBase", 
                    "value": {
                        "dbName": "SecondHandsDB", 
                        "docId": "589b2e44fc5132f4bc9b1181"
                    }
                }
            }
        ], 
        "IvFileCollision": [
            {
                "value": {
                    "typeName": "::memoryx::MongoDBRefBase", 
                    "value": {
                        "dbName": "SecondHandsDB", 
                        "docId": "589b2e44fc5132f4bc9b1181"
                    }
                }
            }
        ], 
        "ManipulationFile": [
            {
                "value": {
                    "typeName": "::memoryx::MongoDBRefBase", 
                    "value": {
                        "dbName": "SecondHandsDB", 
                        "docId": "589b2e44fc5132f4bc9b1183"
                    }
                }
            }
        ], 
        "PutdownOrientationRPY": [
            {
                "value": {
                    "typeName": "::armarx::Vector3Base", 
                    "value": {
                        "x": 0, 
                        "y": 0, 
                        "z": 0
                    }
                }
            }
        ], 
        "defaultMotionModel": [
            {
                "value": {
                    "typeName": "::armarx::StringVariantData", 
                    "value": "Static"
                }
            }
        ], 
        "isInstanceable": [
            {
                "value": {
                    "typeName": "::armarx::BoolVariantData", 
                    "value": true
                }
            }
        ], 
        "parentClasses": [
            {
                "value": {
                    "typeName": "::armarx::StringVariantData", 
                    "value": ""
                }
            }
        ], 
        "recognitionMethod": [
            {
                "value": {
                    "typeName": "::armarx::StringVariantData", 
                    "value": "<none>"
                }
            }
        ], 
        "texFiles": [
            {
                "value": {
                    "typeName": "::memoryx::MongoDBRefBase", 
                    "value": {
                        "dbName": "SecondHandsDB", 
                        "docId": "589b2e44fc5132f4bc9b1182"
                    }
                }
            }
        ]
    }, 
    "name": "Mallet", 
    "type": "::memoryx::ObjectClassBase"
}
{
    "_id": {
        "$oid": "589b2f6cfc5132f4bc9b1188"
    }, 
    "attrs": {
        "IvFile": [
            {
                "value": {
                    "typeName": "::memoryx::MongoDBRefBase", 
                    "value": {
                        "dbName": "SecondHandsDB", 
                        "docId": "589b2f6cfc5132f4bc9b1185"
                    }
                }
            }
        ], 
        "IvFileCollision": [
            {
                "value": {
                    "typeName": "::memoryx::MongoDBRefBase", 
                    "value": {
                        "dbName": "SecondHandsDB", 
                        "docId": "589b2f6cfc5132f4bc9b1185"
                    }
                }
            }
        ], 
        "ManipulationFile": [
            {
                "value": {
                    "typeName": "::memoryx::MongoDBRefBase", 
                    "value": {
                        "dbName": "SecondHandsDB", 
                        "docId": "589b2f6cfc5132f4bc9b1187"
                    }
                }
            }
        ], 
        "PutdownOrientationRPY": [
            {
                "value": {
                    "typeName": "::armarx::Vector3Base", 
                    "value": {
                        "x": 0, 
                        "y": 0, 
                        "z": 0
                    }
                }
            }
        ], 
        "defaultMotionModel": [
            {
                "value": {
                    "typeName": "::armarx::StringVariantData", 
                    "value": "Static"
                }
            }
        ], 
        "isInstanceable": [
            {
                "value": {
                    "typeName": "::armarx::BoolVariantData", 
                    "value": true
                }
            }
        ], 
        "parentClasses": [
            {
                "value": {
                    "typeName": "::armarx::StringVariantData", 
                    "value": ""
                }
            }
        ], 
        "recognitionMethod": [
            {
                "value": {
                    "typeName": "::armarx::StringVariantData", 
                    "value": "<none>"
                }
            }
        ], 
        "texFiles": [
            {
                "value": {
                    "typeName": "::memoryx::MongoDBRefBase", 
                    "value": {
                        "dbName": "SecondHandsDB", 
                        "docId": "589b2f6cfc5132f4bc9b1186"
                    }
                }
            }
        ]
    }, 
    "name": "Brush", 
    "type": "::memoryx::ObjectClassBase"
}
{
    "_id": {
        "$oid": "596f5966156021bdabf3dd4d"
    }, 
    "attrs": {
        "IvFile": [
            {
                "value": {
                    "typeName": "::memoryx::MongoDBRefBase", 
                    "value": {
                        "dbName": "SecondHandsDB", 
                        "docId": "597896d5ca98ecd20d96c26a"
                    }
                }
            }
        ], 
        "IvFileCollision": [
            {
                "value": {
                    "typeName": "::memoryx::MongoDBRefBase", 
                    "value": {
                        "dbName": "SecondHandsDB", 
                        "docId": "597896d5ca98ecd20d96c26a"
                    }
                }
            }
        ], 
        "ManipulationFile": [
            {
                "value": {
                    "typeName": "::memoryx::MongoDBRefBase", 
                    "value": {
                        "dbName": "SecondHandsDB", 
                        "docId": "596f5966156021bdabf3dd4c"
                    }
                }
            }
        ], 
        "PutdownOrientationRPY": [
            {
                "value": {
                    "typeName": "::armarx::Vector3Base", 
                    "value": {
                        "x": 0, 
                        "y": 0, 
                        "z": 0
                    }
                }
            }
        ], 
        "defaultMotionModel": [
            {
                "value": {
                    "typeName": "::armarx::StringVariantData", 
                    "value": "Static"
                }
            }
        ], 
        "isInstanceable": [
            {
                "value": {
                    "typeName": "::armarx::BoolVariantData", 
                    "value": true
                }
            }
        ], 
        "parentClasses": [
            {
                "value": {
                    "typeName": "::armarx::StringVariantData", 
                    "value": ""
                }
            }
        ], 
        "recognitionMethod": [
            {
                "value": {
                    "typeName": "::armarx::StringVariantData", 
                    "value": "<none>"
                }
            }
        ]
    }, 
    "name": "handleftarmar6", 
    "type": "::memoryx::ObjectClassBase"
}
{
    "_id": {
        "$oid": "596f59cf156021bdabf3dd50"
    }, 
    "attrs": {
        "IvFile": [
            {
                "value": {
                    "typeName": "::memoryx::MongoDBRefBase", 
                    "value": {
                        "dbName": "SecondHandsDB", 
                        "docId": "597896feca98ecd20d96c26c"
                    }
                }
            }
        ], 
        "IvFileCollision": [
            {
                "value": {
                    "typeName": "::memoryx::MongoDBRefBase", 
                    "value": {
                        "dbName": "SecondHandsDB", 
                        "docId": "597896feca98ecd20d96c26c"
                    }
                }
            }
        ], 
        "ManipulationFile": [
            {
                "value": {
                    "typeName": "::memoryx::MongoDBRefBase", 
                    "value": {
                        "dbName": "SecondHandsDB", 
                        "docId": "596f59cf156021bdabf3dd4f"
                    }
                }
            }
        ], 
        "PutdownOrientationRPY": [
            {
                "value": {
                    "typeName": "::armarx::Vector3Base", 
                    "value": {
                        "x": 0, 
                        "y": 0, 
                        "z": 0
                    }
                }
            }
        ], 
        "defaultMotionModel": [
            {
                "value": {
                    "typeName": "::armarx::StringVariantData", 
                    "value": "Static"
                }
            }
        ], 
        "isInstanceable": [
            {
                "value": {
                    "typeName": "::armarx::BoolVariantData", 
                    "value": true
                }
            }
        ], 
        "parentClasses": [
            {
                "value": {
                    "typeName": "::armarx::StringVariantData", 
                    "value": ""
                }
            }
        ], 
        "recognitionMethod": [
            {
                "value": {
                    "typeName": "::armarx::StringVariantData", 
                    "value": "<none>"
                }
            }
        ]
    }, 
    "name": "handrightarmar6", 
    "type": "::memoryx::ObjectClassBase"
}
