{
    "_id": "1", 
    "attrs": {
        "IvFile": [
            {
                "value": {
                    "typeName": "::memoryx::MongoDBRefBase", 
                    "value": {
                        "dbName": "SecondHandsDB", 
                        "docId": "56f012b6136b9bd3e9170094"
                    }
                }
            }
        ], 
        "IvFileCollision": [
            {
                "value": {
                    "typeName": "::memoryx::MongoDBRefBase", 
                    "value": {
                        "dbName": "SecondHandsDB", 
                        "docId": "56f012b6136b9bd3e9170094"
                    }
                }
            }
        ], 
        "ManipulationFile": [
            {
                "value": {
                    "typeName": "::memoryx::MongoDBRefBase", 
                    "value": {
                        "dbName": "SecondHandsDB", 
                        "docId": "56f015439a3dba966a33b166"
                    }
                }
            }
        ], 
        "classes": [
            {
                "uncertainty": {
                    "typeName": "::memoryx::DiscreteProbabilityBase", 
                    "value": {
                        "prob": 1
                    }
                }, 
                "value": {
                    "typeName": "::armarx::StringVariantData", 
                    "value": "CK20-split02.wrl"
                }
            }
        ], 
        "existenceCertainty": [
            {
                "value": {
                    "typeName": "::armarx::FloatVariantData", 
                    "value": 1
                }
            }
        ], 
        "isInstanceable": [], 
        "orientation": [
            {
                "value": {
                    "typeName": "::armarx::FramedOrientationBase", 
                    "value": {
                        "agent": "", 
                        "frame": "Global", 
                        "qw": 1, 
                        "qx": 0, 
                        "qy": 0, 
                        "qz": 0
                    }
                }
            }
        ], 
        "parentClasses": [], 
        "position": [
            {
                "value": {
                    "typeName": "::armarx::FramedPositionBase", 
                    "value": {
                        "agent": "", 
                        "frame": "Global", 
                        "x": 0, 
                        "y": 0, 
                        "z": 0
                    }
                }
            }
        ], 
        "texFiles": [
            {
                "value": {
                    "typeName": "::memoryx::MongoDBRefBase", 
                    "value": {
                        "dbName": "SecondHandsDB", 
                        "docId": "56f012b6136b9bd3e9170092"
                    }
                }
            }
        ]
    }, 
    "name": "CK20-split02.wrl", 
    "type": "::memoryx::ObjectInstanceBase"
}
{
    "_id": "10", 
    "attrs": {
        "IvFile": [
            {
                "value": {
                    "typeName": "::memoryx::MongoDBRefBase", 
                    "value": {
                        "dbName": "SecondHandsDB", 
                        "docId": "56f012b7136b9bd3e91700a6"
                    }
                }
            }
        ], 
        "IvFileCollision": [
            {
                "value": {
                    "typeName": "::memoryx::MongoDBRefBase", 
                    "value": {
                        "dbName": "SecondHandsDB", 
                        "docId": "56f012b7136b9bd3e91700a6"
                    }
                }
            }
        ], 
        "ManipulationFile": [
            {
                "value": {
                    "typeName": "::memoryx::MongoDBRefBase", 
                    "value": {
                        "dbName": "SecondHandsDB", 
                        "docId": "56f015439a3dba966a33b17a"
                    }
                }
            }
        ], 
        "classes": [
            {
                "uncertainty": {
                    "typeName": "::memoryx::DiscreteProbabilityBase", 
                    "value": {
                        "prob": 1
                    }
                }, 
                "value": {
                    "typeName": "::armarx::StringVariantData", 
                    "value": "CK20-split11.wrl"
                }
            }
        ], 
        "existenceCertainty": [
            {
                "value": {
                    "typeName": "::armarx::FloatVariantData", 
                    "value": 1
                }
            }
        ], 
        "isInstanceable": [], 
        "orientation": [
            {
                "value": {
                    "typeName": "::armarx::FramedOrientationBase", 
                    "value": {
                        "agent": "", 
                        "frame": "Global", 
                        "qw": 1, 
                        "qx": 0, 
                        "qy": 0, 
                        "qz": 0
                    }
                }
            }
        ], 
        "parentClasses": [], 
        "position": [
            {
                "value": {
                    "typeName": "::armarx::FramedPositionBase", 
                    "value": {
                        "agent": "", 
                        "frame": "Global", 
                        "x": 0, 
                        "y": 0, 
                        "z": 0
                    }
                }
            }
        ], 
        "texFiles": [
            {
                "value": {
                    "typeName": "::memoryx::MongoDBRefBase", 
                    "value": {
                        "dbName": "SecondHandsDB", 
                        "docId": "56f012b6136b9bd3e9170092"
                    }
                }
            }
        ]
    }, 
    "name": "CK20-split11.wrl", 
    "type": "::memoryx::ObjectInstanceBase"
}
{
    "_id": "11", 
    "attrs": {
        "IvFile": [
            {
                "value": {
                    "typeName": "::memoryx::MongoDBRefBase", 
                    "value": {
                        "dbName": "SecondHandsDB", 
                        "docId": "56f012b7136b9bd3e91700af"
                    }
                }
            }
        ], 
        "IvFileCollision": [
            {
                "value": {
                    "typeName": "::memoryx::MongoDBRefBase", 
                    "value": {
                        "dbName": "SecondHandsDB", 
                        "docId": "56f012b7136b9bd3e91700af"
                    }
                }
            }
        ], 
        "ManipulationFile": [
            {
                "value": {
                    "typeName": "::memoryx::MongoDBRefBase", 
                    "value": {
                        "dbName": "SecondHandsDB", 
                        "docId": "56f015449a3dba966a33b18a"
                    }
                }
            }
        ], 
        "classes": [
            {
                "uncertainty": {
                    "typeName": "::memoryx::DiscreteProbabilityBase", 
                    "value": {
                        "prob": 1
                    }
                }, 
                "value": {
                    "typeName": "::armarx::StringVariantData", 
                    "value": "CK20-split10.wrl"
                }
            }
        ], 
        "existenceCertainty": [
            {
                "value": {
                    "typeName": "::armarx::FloatVariantData", 
                    "value": 1
                }
            }
        ], 
        "isInstanceable": [], 
        "orientation": [
            {
                "value": {
                    "typeName": "::armarx::FramedOrientationBase", 
                    "value": {
                        "agent": "", 
                        "frame": "Global", 
                        "qw": 1, 
                        "qx": 0, 
                        "qy": 0, 
                        "qz": 0
                    }
                }
            }
        ], 
        "parentClasses": [], 
        "position": [
            {
                "value": {
                    "typeName": "::armarx::FramedPositionBase", 
                    "value": {
                        "agent": "", 
                        "frame": "Global", 
                        "x": 0, 
                        "y": 0, 
                        "z": 0
                    }
                }
            }
        ], 
        "texFiles": [
            {
                "value": {
                    "typeName": "::memoryx::MongoDBRefBase", 
                    "value": {
                        "dbName": "SecondHandsDB", 
                        "docId": "56f012b6136b9bd3e9170092"
                    }
                }
            }
        ]
    }, 
    "name": "CK20-split10.wrl", 
    "type": "::memoryx::ObjectInstanceBase"
}
{
    "_id": "12", 
    "attrs": {
        "IvFile": [
            {
                "value": {
                    "typeName": "::memoryx::MongoDBRefBase", 
                    "value": {
                        "dbName": "SecondHandsDB", 
                        "docId": "56f012b7136b9bd3e91700b8"
                    }
                }
            }
        ], 
        "IvFileCollision": [
            {
                "value": {
                    "typeName": "::memoryx::MongoDBRefBase", 
                    "value": {
                        "dbName": "SecondHandsDB", 
                        "docId": "56f012b7136b9bd3e91700b8"
                    }
                }
            }
        ], 
        "ManipulationFile": [
            {
                "value": {
                    "typeName": "::memoryx::MongoDBRefBase", 
                    "value": {
                        "dbName": "SecondHandsDB", 
                        "docId": "56f015459a3dba966a33b1b2"
                    }
                }
            }
        ], 
        "classes": [
            {
                "uncertainty": {
                    "typeName": "::memoryx::DiscreteProbabilityBase", 
                    "value": {
                        "prob": 1
                    }
                }, 
                "value": {
                    "typeName": "::armarx::StringVariantData", 
                    "value": "CK20-split19.wrl"
                }
            }
        ], 
        "existenceCertainty": [
            {
                "value": {
                    "typeName": "::armarx::FloatVariantData", 
                    "value": 1
                }
            }
        ], 
        "isInstanceable": [], 
        "orientation": [
            {
                "value": {
                    "typeName": "::armarx::FramedOrientationBase", 
                    "value": {
                        "agent": "", 
                        "frame": "Global", 
                        "qw": 1, 
                        "qx": 0, 
                        "qy": 0, 
                        "qz": 0
                    }
                }
            }
        ], 
        "parentClasses": [], 
        "position": [
            {
                "value": {
                    "typeName": "::armarx::FramedPositionBase", 
                    "value": {
                        "agent": "", 
                        "frame": "Global", 
                        "x": 0, 
                        "y": 0, 
                        "z": 0
                    }
                }
            }
        ], 
        "texFiles": [
            {
                "value": {
                    "typeName": "::memoryx::MongoDBRefBase", 
                    "value": {
                        "dbName": "SecondHandsDB", 
                        "docId": "56f012b6136b9bd3e9170092"
                    }
                }
            }
        ]
    }, 
    "name": "CK20-split19.wrl", 
    "type": "::memoryx::ObjectInstanceBase"
}
{
    "_id": "13", 
    "attrs": {
        "IvFile": [
            {
                "value": {
                    "typeName": "::memoryx::MongoDBRefBase", 
                    "value": {
                        "dbName": "SecondHandsDB", 
                        "docId": "56f012b7136b9bd3e91700b5"
                    }
                }
            }
        ], 
        "IvFileCollision": [
            {
                "value": {
                    "typeName": "::memoryx::MongoDBRefBase", 
                    "value": {
                        "dbName": "SecondHandsDB", 
                        "docId": "56f012b7136b9bd3e91700b5"
                    }
                }
            }
        ], 
        "ManipulationFile": [
            {
                "value": {
                    "typeName": "::memoryx::MongoDBRefBase", 
                    "value": {
                        "dbName": "SecondHandsDB", 
                        "docId": "56f015449a3dba966a33b196"
                    }
                }
            }
        ], 
        "classes": [
            {
                "uncertainty": {
                    "typeName": "::memoryx::DiscreteProbabilityBase", 
                    "value": {
                        "prob": 1
                    }
                }, 
                "value": {
                    "typeName": "::armarx::StringVariantData", 
                    "value": "CK20-split12.wrl"
                }
            }
        ], 
        "existenceCertainty": [
            {
                "value": {
                    "typeName": "::armarx::FloatVariantData", 
                    "value": 1
                }
            }
        ], 
        "isInstanceable": [], 
        "orientation": [
            {
                "value": {
                    "typeName": "::armarx::FramedOrientationBase", 
                    "value": {
                        "agent": "", 
                        "frame": "Global", 
                        "qw": 1, 
                        "qx": 0, 
                        "qy": 0, 
                        "qz": 0
                    }
                }
            }
        ], 
        "parentClasses": [], 
        "position": [
            {
                "value": {
                    "typeName": "::armarx::FramedPositionBase", 
                    "value": {
                        "agent": "", 
                        "frame": "Global", 
                        "x": 0, 
                        "y": 0, 
                        "z": 0
                    }
                }
            }
        ], 
        "texFiles": [
            {
                "value": {
                    "typeName": "::memoryx::MongoDBRefBase", 
                    "value": {
                        "dbName": "SecondHandsDB", 
                        "docId": "56f012b6136b9bd3e9170092"
                    }
                }
            }
        ]
    }, 
    "name": "CK20-split12.wrl", 
    "type": "::memoryx::ObjectInstanceBase"
}
{
    "_id": "14", 
    "attrs": {
        "IvFile": [
            {
                "value": {
                    "typeName": "::memoryx::MongoDBRefBase", 
                    "value": {
                        "dbName": "SecondHandsDB", 
                        "docId": "56f012b7136b9bd3e91700b2"
                    }
                }
            }
        ], 
        "IvFileCollision": [
            {
                "value": {
                    "typeName": "::memoryx::MongoDBRefBase", 
                    "value": {
                        "dbName": "SecondHandsDB", 
                        "docId": "56f012b7136b9bd3e91700b2"
                    }
                }
            }
        ], 
        "ManipulationFile": [
            {
                "value": {
                    "typeName": "::memoryx::MongoDBRefBase", 
                    "value": {
                        "dbName": "SecondHandsDB", 
                        "docId": "56f015449a3dba966a33b19e"
                    }
                }
            }
        ], 
        "classes": [
            {
                "uncertainty": {
                    "typeName": "::memoryx::DiscreteProbabilityBase", 
                    "value": {
                        "prob": 1
                    }
                }, 
                "value": {
                    "typeName": "::armarx::StringVariantData", 
                    "value": "CK20-split14.wrl"
                }
            }
        ], 
        "existenceCertainty": [
            {
                "value": {
                    "typeName": "::armarx::FloatVariantData", 
                    "value": 1
                }
            }
        ], 
        "isInstanceable": [], 
        "orientation": [
            {
                "value": {
                    "typeName": "::armarx::FramedOrientationBase", 
                    "value": {
                        "agent": "", 
                        "frame": "Global", 
                        "qw": 1, 
                        "qx": 0, 
                        "qy": 0, 
                        "qz": 0
                    }
                }
            }
        ], 
        "parentClasses": [], 
        "position": [
            {
                "value": {
                    "typeName": "::armarx::FramedPositionBase", 
                    "value": {
                        "agent": "", 
                        "frame": "Global", 
                        "x": 0, 
                        "y": 0, 
                        "z": 0
                    }
                }
            }
        ], 
        "texFiles": [
            {
                "value": {
                    "typeName": "::memoryx::MongoDBRefBase", 
                    "value": {
                        "dbName": "SecondHandsDB", 
                        "docId": "56f012b6136b9bd3e9170092"
                    }
                }
            }
        ]
    }, 
    "name": "CK20-split14.wrl", 
    "type": "::memoryx::ObjectInstanceBase"
}
{
    "_id": "15", 
    "attrs": {
        "IvFile": [
            {
                "value": {
                    "typeName": "::memoryx::MongoDBRefBase", 
                    "value": {
                        "dbName": "SecondHandsDB", 
                        "docId": "56f012b8136b9bd3e91700bb"
                    }
                }
            }
        ], 
        "IvFileCollision": [
            {
                "value": {
                    "typeName": "::memoryx::MongoDBRefBase", 
                    "value": {
                        "dbName": "SecondHandsDB", 
                        "docId": "56f012b8136b9bd3e91700bb"
                    }
                }
            }
        ], 
        "ManipulationFile": [
            {
                "value": {
                    "typeName": "::memoryx::MongoDBRefBase", 
                    "value": {
                        "dbName": "SecondHandsDB", 
                        "docId": "56f015449a3dba966a33b1a2"
                    }
                }
            }
        ], 
        "classes": [
            {
                "uncertainty": {
                    "typeName": "::memoryx::DiscreteProbabilityBase", 
                    "value": {
                        "prob": 1
                    }
                }, 
                "value": {
                    "typeName": "::armarx::StringVariantData", 
                    "value": "CK20-split15.wrl"
                }
            }
        ], 
        "existenceCertainty": [
            {
                "value": {
                    "typeName": "::armarx::FloatVariantData", 
                    "value": 1
                }
            }
        ], 
        "isInstanceable": [], 
        "orientation": [
            {
                "value": {
                    "typeName": "::armarx::FramedOrientationBase", 
                    "value": {
                        "agent": "", 
                        "frame": "Global", 
                        "qw": 1, 
                        "qx": 0, 
                        "qy": 0, 
                        "qz": 0
                    }
                }
            }
        ], 
        "parentClasses": [], 
        "position": [
            {
                "value": {
                    "typeName": "::armarx::FramedPositionBase", 
                    "value": {
                        "agent": "", 
                        "frame": "Global", 
                        "x": 0, 
                        "y": 0, 
                        "z": 0
                    }
                }
            }
        ], 
        "texFiles": [
            {
                "value": {
                    "typeName": "::memoryx::MongoDBRefBase", 
                    "value": {
                        "dbName": "SecondHandsDB", 
                        "docId": "56f012b6136b9bd3e9170092"
                    }
                }
            }
        ]
    }, 
    "name": "CK20-split15.wrl", 
    "type": "::memoryx::ObjectInstanceBase"
}
{
    "_id": "16", 
    "attrs": {
        "IvFile": [
            {
                "value": {
                    "typeName": "::memoryx::MongoDBRefBase", 
                    "value": {
                        "dbName": "SecondHandsDB", 
                        "docId": "56f012b8136b9bd3e91700c1"
                    }
                }
            }
        ], 
        "IvFileCollision": [
            {
                "value": {
                    "typeName": "::memoryx::MongoDBRefBase", 
                    "value": {
                        "dbName": "SecondHandsDB", 
                        "docId": "56f012b8136b9bd3e91700c1"
                    }
                }
            }
        ], 
        "ManipulationFile": [
            {
                "value": {
                    "typeName": "::memoryx::MongoDBRefBase", 
                    "value": {
                        "dbName": "SecondHandsDB", 
                        "docId": "56f015449a3dba966a33b19a"
                    }
                }
            }
        ], 
        "classes": [
            {
                "uncertainty": {
                    "typeName": "::memoryx::DiscreteProbabilityBase", 
                    "value": {
                        "prob": 1
                    }
                }, 
                "value": {
                    "typeName": "::armarx::StringVariantData", 
                    "value": "CK20-split17.wrl"
                }
            }
        ], 
        "existenceCertainty": [
            {
                "value": {
                    "typeName": "::armarx::FloatVariantData", 
                    "value": 1
                }
            }
        ], 
        "isInstanceable": [], 
        "orientation": [
            {
                "value": {
                    "typeName": "::armarx::FramedOrientationBase", 
                    "value": {
                        "agent": "", 
                        "frame": "Global", 
                        "qw": 1, 
                        "qx": 0, 
                        "qy": 0, 
                        "qz": 0
                    }
                }
            }
        ], 
        "parentClasses": [], 
        "position": [
            {
                "value": {
                    "typeName": "::armarx::FramedPositionBase", 
                    "value": {
                        "agent": "", 
                        "frame": "Global", 
                        "x": 0, 
                        "y": 0, 
                        "z": 0
                    }
                }
            }
        ], 
        "texFiles": [
            {
                "value": {
                    "typeName": "::memoryx::MongoDBRefBase", 
                    "value": {
                        "dbName": "SecondHandsDB", 
                        "docId": "56f012b6136b9bd3e9170092"
                    }
                }
            }
        ]
    }, 
    "name": "CK20-split17.wrl", 
    "type": "::memoryx::ObjectInstanceBase"
}
{
    "_id": "17", 
    "attrs": {
        "IvFile": [
            {
                "value": {
                    "typeName": "::memoryx::MongoDBRefBase", 
                    "value": {
                        "dbName": "SecondHandsDB", 
                        "docId": "56f012b8136b9bd3e91700be"
                    }
                }
            }
        ], 
        "IvFileCollision": [
            {
                "value": {
                    "typeName": "::memoryx::MongoDBRefBase", 
                    "value": {
                        "dbName": "SecondHandsDB", 
                        "docId": "56f012b8136b9bd3e91700be"
                    }
                }
            }
        ], 
        "ManipulationFile": [
            {
                "value": {
                    "typeName": "::memoryx::MongoDBRefBase", 
                    "value": {
                        "dbName": "SecondHandsDB", 
                        "docId": "56f015459a3dba966a33b1a6"
                    }
                }
            }
        ], 
        "classes": [
            {
                "uncertainty": {
                    "typeName": "::memoryx::DiscreteProbabilityBase", 
                    "value": {
                        "prob": 1
                    }
                }, 
                "value": {
                    "typeName": "::armarx::StringVariantData", 
                    "value": "CK20-split16.wrl"
                }
            }
        ], 
        "existenceCertainty": [
            {
                "value": {
                    "typeName": "::armarx::FloatVariantData", 
                    "value": 1
                }
            }
        ], 
        "isInstanceable": [], 
        "orientation": [
            {
                "value": {
                    "typeName": "::armarx::FramedOrientationBase", 
                    "value": {
                        "agent": "", 
                        "frame": "Global", 
                        "qw": 1, 
                        "qx": 0, 
                        "qy": 0, 
                        "qz": 0
                    }
                }
            }
        ], 
        "parentClasses": [], 
        "position": [
            {
                "value": {
                    "typeName": "::armarx::FramedPositionBase", 
                    "value": {
                        "agent": "", 
                        "frame": "Global", 
                        "x": 0, 
                        "y": 0, 
                        "z": 0
                    }
                }
            }
        ], 
        "texFiles": [
            {
                "value": {
                    "typeName": "::memoryx::MongoDBRefBase", 
                    "value": {
                        "dbName": "SecondHandsDB", 
                        "docId": "56f012b6136b9bd3e9170092"
                    }
                }
            }
        ]
    }, 
    "name": "CK20-split16.wrl", 
    "type": "::memoryx::ObjectInstanceBase"
}
{
    "_id": "18", 
    "attrs": {
        "IvFile": [
            {
                "value": {
                    "typeName": "::memoryx::MongoDBRefBase", 
                    "value": {
                        "dbName": "SecondHandsDB", 
                        "docId": "56f012b8136b9bd3e91700c7"
                    }
                }
            }
        ], 
        "IvFileCollision": [
            {
                "value": {
                    "typeName": "::memoryx::MongoDBRefBase", 
                    "value": {
                        "dbName": "SecondHandsDB", 
                        "docId": "56f012b8136b9bd3e91700c7"
                    }
                }
            }
        ], 
        "ManipulationFile": [
            {
                "value": {
                    "typeName": "::memoryx::MongoDBRefBase", 
                    "value": {
                        "dbName": "SecondHandsDB", 
                        "docId": "56f015459a3dba966a33b1aa"
                    }
                }
            }
        ], 
        "classes": [
            {
                "uncertainty": {
                    "typeName": "::memoryx::DiscreteProbabilityBase", 
                    "value": {
                        "prob": 1
                    }
                }, 
                "value": {
                    "typeName": "::armarx::StringVariantData", 
                    "value": "CK20-split18.wrl"
                }
            }
        ], 
        "existenceCertainty": [
            {
                "value": {
                    "typeName": "::armarx::FloatVariantData", 
                    "value": 1
                }
            }
        ], 
        "isInstanceable": [], 
        "orientation": [
            {
                "value": {
                    "typeName": "::armarx::FramedOrientationBase", 
                    "value": {
                        "agent": "", 
                        "frame": "Global", 
                        "qw": 1, 
                        "qx": 0, 
                        "qy": 0, 
                        "qz": 0
                    }
                }
            }
        ], 
        "parentClasses": [], 
        "position": [
            {
                "value": {
                    "typeName": "::armarx::FramedPositionBase", 
                    "value": {
                        "agent": "", 
                        "frame": "Global", 
                        "x": 0, 
                        "y": 0, 
                        "z": 0
                    }
                }
            }
        ], 
        "texFiles": [
            {
                "value": {
                    "typeName": "::memoryx::MongoDBRefBase", 
                    "value": {
                        "dbName": "SecondHandsDB", 
                        "docId": "56f012b6136b9bd3e9170092"
                    }
                }
            }
        ]
    }, 
    "name": "CK20-split18.wrl", 
    "type": "::memoryx::ObjectInstanceBase"
}
{
    "_id": "19", 
    "attrs": {
        "IvFile": [
            {
                "value": {
                    "typeName": "::memoryx::MongoDBRefBase", 
                    "value": {
                        "dbName": "SecondHandsDB", 
                        "docId": "56f012b8136b9bd3e91700ca"
                    }
                }
            }
        ], 
        "IvFileCollision": [
            {
                "value": {
                    "typeName": "::memoryx::MongoDBRefBase", 
                    "value": {
                        "dbName": "SecondHandsDB", 
                        "docId": "56f012b8136b9bd3e91700ca"
                    }
                }
            }
        ], 
        "ManipulationFile": [
            {
                "value": {
                    "typeName": "::memoryx::MongoDBRefBase", 
                    "value": {
                        "dbName": "SecondHandsDB", 
                        "docId": "56f015449a3dba966a33b18e"
                    }
                }
            }
        ], 
        "classes": [
            {
                "uncertainty": {
                    "typeName": "::memoryx::DiscreteProbabilityBase", 
                    "value": {
                        "prob": 1
                    }
                }, 
                "value": {
                    "typeName": "::armarx::StringVariantData", 
                    "value": "CK20-split20.wrl"
                }
            }
        ], 
        "existenceCertainty": [
            {
                "value": {
                    "typeName": "::armarx::FloatVariantData", 
                    "value": 1
                }
            }
        ], 
        "isInstanceable": [], 
        "orientation": [
            {
                "value": {
                    "typeName": "::armarx::FramedOrientationBase", 
                    "value": {
                        "agent": "", 
                        "frame": "Global", 
                        "qw": 1, 
                        "qx": 0, 
                        "qy": 0, 
                        "qz": 0
                    }
                }
            }
        ], 
        "parentClasses": [], 
        "position": [
            {
                "value": {
                    "typeName": "::armarx::FramedPositionBase", 
                    "value": {
                        "agent": "", 
                        "frame": "Global", 
                        "x": 0, 
                        "y": 0, 
                        "z": 0
                    }
                }
            }
        ], 
        "texFiles": [
            {
                "value": {
                    "typeName": "::memoryx::MongoDBRefBase", 
                    "value": {
                        "dbName": "SecondHandsDB", 
                        "docId": "56f012b6136b9bd3e9170092"
                    }
                }
            }
        ]
    }, 
    "name": "CK20-split20.wrl", 
    "type": "::memoryx::ObjectInstanceBase"
}
{
    "_id": "2", 
    "attrs": {
        "IvFile": [
            {
                "value": {
                    "typeName": "::memoryx::MongoDBRefBase", 
                    "value": {
                        "dbName": "SecondHandsDB", 
                        "docId": "56f012b6136b9bd3e9170097"
                    }
                }
            }
        ], 
        "IvFileCollision": [
            {
                "value": {
                    "typeName": "::memoryx::MongoDBRefBase", 
                    "value": {
                        "dbName": "SecondHandsDB", 
                        "docId": "56f012b6136b9bd3e9170097"
                    }
                }
            }
        ], 
        "ManipulationFile": [
            {
                "value": {
                    "typeName": "::memoryx::MongoDBRefBase", 
                    "value": {
                        "dbName": "SecondHandsDB", 
                        "docId": "56f015439a3dba966a33b16a"
                    }
                }
            }
        ], 
        "classes": [
            {
                "uncertainty": {
                    "typeName": "::memoryx::DiscreteProbabilityBase", 
                    "value": {
                        "prob": 1
                    }
                }, 
                "value": {
                    "typeName": "::armarx::StringVariantData", 
                    "value": "CK20-split03.wrl"
                }
            }
        ], 
        "existenceCertainty": [
            {
                "value": {
                    "typeName": "::armarx::FloatVariantData", 
                    "value": 1
                }
            }
        ], 
        "isInstanceable": [], 
        "orientation": [
            {
                "value": {
                    "typeName": "::armarx::FramedOrientationBase", 
                    "value": {
                        "agent": "", 
                        "frame": "Global", 
                        "qw": 1, 
                        "qx": 0, 
                        "qy": 0, 
                        "qz": 0
                    }
                }
            }
        ], 
        "parentClasses": [], 
        "position": [
            {
                "value": {
                    "typeName": "::armarx::FramedPositionBase", 
                    "value": {
                        "agent": "", 
                        "frame": "Global", 
                        "x": 0, 
                        "y": 0, 
                        "z": 0
                    }
                }
            }
        ], 
        "texFiles": [
            {
                "value": {
                    "typeName": "::memoryx::MongoDBRefBase", 
                    "value": {
                        "dbName": "SecondHandsDB", 
                        "docId": "56f012b6136b9bd3e9170092"
                    }
                }
            }
        ]
    }, 
    "name": "CK20-split03.wrl", 
    "type": "::memoryx::ObjectInstanceBase"
}
{
    "_id": "20", 
    "attrs": {
        "IvFile": [
            {
                "value": {
                    "typeName": "::memoryx::MongoDBRefBase", 
                    "value": {
                        "dbName": "SecondHandsDB", 
                        "docId": "56f012b8136b9bd3e91700cd"
                    }
                }
            }
        ], 
        "IvFileCollision": [
            {
                "value": {
                    "typeName": "::memoryx::MongoDBRefBase", 
                    "value": {
                        "dbName": "SecondHandsDB", 
                        "docId": "56f012b8136b9bd3e91700cd"
                    }
                }
            }
        ], 
        "ManipulationFile": [
            {
                "value": {
                    "typeName": "::memoryx::MongoDBRefBase", 
                    "value": {
                        "dbName": "SecondHandsDB", 
                        "docId": "56f015459a3dba966a33b1b6"
                    }
                }
            }
        ], 
        "classes": [
            {
                "uncertainty": {
                    "typeName": "::memoryx::DiscreteProbabilityBase", 
                    "value": {
                        "prob": 1
                    }
                }, 
                "value": {
                    "typeName": "::armarx::StringVariantData", 
                    "value": "CK20-split21.wrl"
                }
            }
        ], 
        "existenceCertainty": [
            {
                "value": {
                    "typeName": "::armarx::FloatVariantData", 
                    "value": 1
                }
            }
        ], 
        "isInstanceable": [], 
        "orientation": [
            {
                "value": {
                    "typeName": "::armarx::FramedOrientationBase", 
                    "value": {
                        "agent": "", 
                        "frame": "Global", 
                        "qw": 1, 
                        "qx": 0, 
                        "qy": 0, 
                        "qz": 0
                    }
                }
            }
        ], 
        "parentClasses": [], 
        "position": [
            {
                "value": {
                    "typeName": "::armarx::FramedPositionBase", 
                    "value": {
                        "agent": "", 
                        "frame": "Global", 
                        "x": 0, 
                        "y": 0, 
                        "z": 0
                    }
                }
            }
        ], 
        "texFiles": [
            {
                "value": {
                    "typeName": "::memoryx::MongoDBRefBase", 
                    "value": {
                        "dbName": "SecondHandsDB", 
                        "docId": "56f012b6136b9bd3e9170092"
                    }
                }
            }
        ]
    }, 
    "name": "CK20-split21.wrl", 
    "type": "::memoryx::ObjectInstanceBase"
}
{
    "_id": "21", 
    "attrs": {
        "IvFile": [
            {
                "value": {
                    "typeName": "::memoryx::MongoDBRefBase", 
                    "value": {
                        "dbName": "SecondHandsDB", 
                        "docId": "56f012b8136b9bd3e91700d0"
                    }
                }
            }
        ], 
        "IvFileCollision": [
            {
                "value": {
                    "typeName": "::memoryx::MongoDBRefBase", 
                    "value": {
                        "dbName": "SecondHandsDB", 
                        "docId": "56f012b8136b9bd3e91700d0"
                    }
                }
            }
        ], 
        "ManipulationFile": [
            {
                "value": {
                    "typeName": "::memoryx::MongoDBRefBase", 
                    "value": {
                        "dbName": "SecondHandsDB", 
                        "docId": "56f015459a3dba966a33b1ae"
                    }
                }
            }
        ], 
        "classes": [
            {
                "uncertainty": {
                    "typeName": "::memoryx::DiscreteProbabilityBase", 
                    "value": {
                        "prob": 1
                    }
                }, 
                "value": {
                    "typeName": "::armarx::StringVariantData", 
                    "value": "CK20-split22.wrl"
                }
            }
        ], 
        "existenceCertainty": [
            {
                "value": {
                    "typeName": "::armarx::FloatVariantData", 
                    "value": 1
                }
            }
        ], 
        "isInstanceable": [], 
        "orientation": [
            {
                "value": {
                    "typeName": "::armarx::FramedOrientationBase", 
                    "value": {
                        "agent": "", 
                        "frame": "Global", 
                        "qw": 1, 
                        "qx": 0, 
                        "qy": 0, 
                        "qz": 0
                    }
                }
            }
        ], 
        "parentClasses": [], 
        "position": [
            {
                "value": {
                    "typeName": "::armarx::FramedPositionBase", 
                    "value": {
                        "agent": "", 
                        "frame": "Global", 
                        "x": 0, 
                        "y": 0, 
                        "z": 0
                    }
                }
            }
        ], 
        "texFiles": [
            {
                "value": {
                    "typeName": "::memoryx::MongoDBRefBase", 
                    "value": {
                        "dbName": "SecondHandsDB", 
                        "docId": "56f012b6136b9bd3e9170092"
                    }
                }
            }
        ]
    }, 
    "name": "CK20-split22.wrl", 
    "type": "::memoryx::ObjectInstanceBase"
}
{
    "_id": "22", 
    "attrs": {
        "IvFile": [
            {
                "value": {
                    "typeName": "::memoryx::MongoDBRefBase", 
                    "value": {
                        "dbName": "SecondHandsDB", 
                        "docId": "56f012b8136b9bd3e91700c4"
                    }
                }
            }
        ], 
        "IvFileCollision": [
            {
                "value": {
                    "typeName": "::memoryx::MongoDBRefBase", 
                    "value": {
                        "dbName": "SecondHandsDB", 
                        "docId": "56f012b8136b9bd3e91700c4"
                    }
                }
            }
        ], 
        "ManipulationFile": [
            {
                "value": {
                    "typeName": "::memoryx::MongoDBRefBase", 
                    "value": {
                        "dbName": "SecondHandsDB", 
                        "docId": "56f015459a3dba966a33b1ba"
                    }
                }
            }
        ], 
        "classes": [
            {
                "uncertainty": {
                    "typeName": "::memoryx::DiscreteProbabilityBase", 
                    "value": {
                        "prob": 1
                    }
                }, 
                "value": {
                    "typeName": "::armarx::StringVariantData", 
                    "value": "CK20-split23.wrl"
                }
            }
        ], 
        "existenceCertainty": [
            {
                "value": {
                    "typeName": "::armarx::FloatVariantData", 
                    "value": 1
                }
            }
        ], 
        "isInstanceable": [], 
        "orientation": [
            {
                "value": {
                    "typeName": "::armarx::FramedOrientationBase", 
                    "value": {
                        "agent": "", 
                        "frame": "Global", 
                        "qw": 1, 
                        "qx": 0, 
                        "qy": 0, 
                        "qz": 0
                    }
                }
            }
        ], 
        "parentClasses": [], 
        "position": [
            {
                "value": {
                    "typeName": "::armarx::FramedPositionBase", 
                    "value": {
                        "agent": "", 
                        "frame": "Global", 
                        "x": 0, 
                        "y": 0, 
                        "z": 0
                    }
                }
            }
        ], 
        "texFiles": [
            {
                "value": {
                    "typeName": "::memoryx::MongoDBRefBase", 
                    "value": {
                        "dbName": "SecondHandsDB", 
                        "docId": "56f012b6136b9bd3e9170092"
                    }
                }
            }
        ]
    }, 
    "name": "CK20-split23.wrl", 
    "type": "::memoryx::ObjectInstanceBase"
}
{
    "_id": "23", 
    "attrs": {
        "IvFile": [
            {
                "value": {
                    "typeName": "::memoryx::MongoDBRefBase", 
                    "value": {
                        "dbName": "SecondHandsDB", 
                        "docId": "56f012b8136b9bd3e91700d3"
                    }
                }
            }
        ], 
        "IvFileCollision": [
            {
                "value": {
                    "typeName": "::memoryx::MongoDBRefBase", 
                    "value": {
                        "dbName": "SecondHandsDB", 
                        "docId": "56f012b8136b9bd3e91700d3"
                    }
                }
            }
        ], 
        "ManipulationFile": [
            {
                "value": {
                    "typeName": "::memoryx::MongoDBRefBase", 
                    "value": {
                        "dbName": "SecondHandsDB", 
                        "docId": "56f015469a3dba966a33b1c6"
                    }
                }
            }
        ], 
        "classes": [
            {
                "uncertainty": {
                    "typeName": "::memoryx::DiscreteProbabilityBase", 
                    "value": {
                        "prob": 1
                    }
                }, 
                "value": {
                    "typeName": "::armarx::StringVariantData", 
                    "value": "CK20-split24.wrl"
                }
            }
        ], 
        "existenceCertainty": [
            {
                "value": {
                    "typeName": "::armarx::FloatVariantData", 
                    "value": 1
                }
            }
        ], 
        "isInstanceable": [], 
        "orientation": [
            {
                "value": {
                    "typeName": "::armarx::FramedOrientationBase", 
                    "value": {
                        "agent": "", 
                        "frame": "Global", 
                        "qw": 1, 
                        "qx": 0, 
                        "qy": 0, 
                        "qz": 0
                    }
                }
            }
        ], 
        "parentClasses": [], 
        "position": [
            {
                "value": {
                    "typeName": "::armarx::FramedPositionBase", 
                    "value": {
                        "agent": "", 
                        "frame": "Global", 
                        "x": 0, 
                        "y": 0, 
                        "z": 0
                    }
                }
            }
        ], 
        "texFiles": [
            {
                "value": {
                    "typeName": "::memoryx::MongoDBRefBase", 
                    "value": {
                        "dbName": "SecondHandsDB", 
                        "docId": "56f012b6136b9bd3e9170092"
                    }
                }
            }
        ]
    }, 
    "name": "CK20-split24.wrl", 
    "type": "::memoryx::ObjectInstanceBase"
}
{
    "_id": "24", 
    "attrs": {
        "IvFile": [
            {
                "value": {
                    "typeName": "::memoryx::MongoDBRefBase", 
                    "value": {
                        "dbName": "SecondHandsDB", 
                        "docId": "56f012b9136b9bd3e91700d9"
                    }
                }
            }
        ], 
        "IvFileCollision": [
            {
                "value": {
                    "typeName": "::memoryx::MongoDBRefBase", 
                    "value": {
                        "dbName": "SecondHandsDB", 
                        "docId": "56f012b9136b9bd3e91700d9"
                    }
                }
            }
        ], 
        "ManipulationFile": [
            {
                "value": {
                    "typeName": "::memoryx::MongoDBRefBase", 
                    "value": {
                        "dbName": "SecondHandsDB", 
                        "docId": "56f015459a3dba966a33b1be"
                    }
                }
            }
        ], 
        "classes": [
            {
                "uncertainty": {
                    "typeName": "::memoryx::DiscreteProbabilityBase", 
                    "value": {
                        "prob": 1
                    }
                }, 
                "value": {
                    "typeName": "::armarx::StringVariantData", 
                    "value": "CK20-split25.wrl"
                }
            }
        ], 
        "existenceCertainty": [
            {
                "value": {
                    "typeName": "::armarx::FloatVariantData", 
                    "value": 1
                }
            }
        ], 
        "isInstanceable": [], 
        "orientation": [
            {
                "value": {
                    "typeName": "::armarx::FramedOrientationBase", 
                    "value": {
                        "agent": "", 
                        "frame": "Global", 
                        "qw": 1, 
                        "qx": 0, 
                        "qy": 0, 
                        "qz": 0
                    }
                }
            }
        ], 
        "parentClasses": [], 
        "position": [
            {
                "value": {
                    "typeName": "::armarx::FramedPositionBase", 
                    "value": {
                        "agent": "", 
                        "frame": "Global", 
                        "x": 0, 
                        "y": 0, 
                        "z": 0
                    }
                }
            }
        ], 
        "texFiles": [
            {
                "value": {
                    "typeName": "::memoryx::MongoDBRefBase", 
                    "value": {
                        "dbName": "SecondHandsDB", 
                        "docId": "56f012b6136b9bd3e9170092"
                    }
                }
            }
        ]
    }, 
    "name": "CK20-split25.wrl", 
    "type": "::memoryx::ObjectInstanceBase"
}
{
    "_id": "25", 
    "attrs": {
        "IvFile": [
            {
                "value": {
                    "typeName": "::memoryx::MongoDBRefBase", 
                    "value": {
                        "dbName": "SecondHandsDB", 
                        "docId": "56f012b9136b9bd3e91700dc"
                    }
                }
            }
        ], 
        "IvFileCollision": [
            {
                "value": {
                    "typeName": "::memoryx::MongoDBRefBase", 
                    "value": {
                        "dbName": "SecondHandsDB", 
                        "docId": "56f012b9136b9bd3e91700dc"
                    }
                }
            }
        ], 
        "ManipulationFile": [
            {
                "value": {
                    "typeName": "::memoryx::MongoDBRefBase", 
                    "value": {
                        "dbName": "SecondHandsDB", 
                        "docId": "56f015469a3dba966a33b1c2"
                    }
                }
            }
        ], 
        "classes": [
            {
                "uncertainty": {
                    "typeName": "::memoryx::DiscreteProbabilityBase", 
                    "value": {
                        "prob": 1
                    }
                }, 
                "value": {
                    "typeName": "::armarx::StringVariantData", 
                    "value": "CK20-split26.wrl"
                }
            }
        ], 
        "existenceCertainty": [
            {
                "value": {
                    "typeName": "::armarx::FloatVariantData", 
                    "value": 1
                }
            }
        ], 
        "isInstanceable": [], 
        "orientation": [
            {
                "value": {
                    "typeName": "::armarx::FramedOrientationBase", 
                    "value": {
                        "agent": "", 
                        "frame": "Global", 
                        "qw": 1, 
                        "qx": 0, 
                        "qy": 0, 
                        "qz": 0
                    }
                }
            }
        ], 
        "parentClasses": [], 
        "position": [
            {
                "value": {
                    "typeName": "::armarx::FramedPositionBase", 
                    "value": {
                        "agent": "", 
                        "frame": "Global", 
                        "x": 0, 
                        "y": 0, 
                        "z": 0
                    }
                }
            }
        ], 
        "texFiles": [
            {
                "value": {
                    "typeName": "::memoryx::MongoDBRefBase", 
                    "value": {
                        "dbName": "SecondHandsDB", 
                        "docId": "56f012b6136b9bd3e9170092"
                    }
                }
            }
        ]
    }, 
    "name": "CK20-split26.wrl", 
    "type": "::memoryx::ObjectInstanceBase"
}
{
    "_id": "26", 
    "attrs": {
        "IvFile": [
            {
                "value": {
                    "typeName": "::memoryx::MongoDBRefBase", 
                    "value": {
                        "dbName": "SecondHandsDB", 
                        "docId": "56f012b9136b9bd3e91700d6"
                    }
                }
            }
        ], 
        "IvFileCollision": [
            {
                "value": {
                    "typeName": "::memoryx::MongoDBRefBase", 
                    "value": {
                        "dbName": "SecondHandsDB", 
                        "docId": "56f012b9136b9bd3e91700d6"
                    }
                }
            }
        ], 
        "ManipulationFile": [
            {
                "value": {
                    "typeName": "::memoryx::MongoDBRefBase", 
                    "value": {
                        "dbName": "SecondHandsDB", 
                        "docId": "56f015469a3dba966a33b1ce"
                    }
                }
            }
        ], 
        "classes": [
            {
                "uncertainty": {
                    "typeName": "::memoryx::DiscreteProbabilityBase", 
                    "value": {
                        "prob": 1
                    }
                }, 
                "value": {
                    "typeName": "::armarx::StringVariantData", 
                    "value": "CK20-split27.wrl"
                }
            }
        ], 
        "existenceCertainty": [
            {
                "value": {
                    "typeName": "::armarx::FloatVariantData", 
                    "value": 1
                }
            }
        ], 
        "isInstanceable": [], 
        "orientation": [
            {
                "value": {
                    "typeName": "::armarx::FramedOrientationBase", 
                    "value": {
                        "agent": "", 
                        "frame": "Global", 
                        "qw": 1, 
                        "qx": 0, 
                        "qy": 0, 
                        "qz": 0
                    }
                }
            }
        ], 
        "parentClasses": [], 
        "position": [
            {
                "value": {
                    "typeName": "::armarx::FramedPositionBase", 
                    "value": {
                        "agent": "", 
                        "frame": "Global", 
                        "x": 0, 
                        "y": 0, 
                        "z": 0
                    }
                }
            }
        ], 
        "texFiles": [
            {
                "value": {
                    "typeName": "::memoryx::MongoDBRefBase", 
                    "value": {
                        "dbName": "SecondHandsDB", 
                        "docId": "56f012b6136b9bd3e9170092"
                    }
                }
            }
        ]
    }, 
    "name": "CK20-split27.wrl", 
    "type": "::memoryx::ObjectInstanceBase"
}
{
    "_id": "27", 
    "attrs": {
        "IvFile": [
            {
                "value": {
                    "typeName": "::memoryx::MongoDBRefBase", 
                    "value": {
                        "dbName": "SecondHandsDB", 
                        "docId": "56f012b9136b9bd3e91700df"
                    }
                }
            }
        ], 
        "IvFileCollision": [
            {
                "value": {
                    "typeName": "::memoryx::MongoDBRefBase", 
                    "value": {
                        "dbName": "SecondHandsDB", 
                        "docId": "56f012b9136b9bd3e91700df"
                    }
                }
            }
        ], 
        "ManipulationFile": [
            {
                "value": {
                    "typeName": "::memoryx::MongoDBRefBase", 
                    "value": {
                        "dbName": "SecondHandsDB", 
                        "docId": "56f015469a3dba966a33b1ca"
                    }
                }
            }
        ], 
        "classes": [
            {
                "uncertainty": {
                    "typeName": "::memoryx::DiscreteProbabilityBase", 
                    "value": {
                        "prob": 1
                    }
                }, 
                "value": {
                    "typeName": "::armarx::StringVariantData", 
                    "value": "CK20-split28.wrl"
                }
            }
        ], 
        "existenceCertainty": [
            {
                "value": {
                    "typeName": "::armarx::FloatVariantData", 
                    "value": 1
                }
            }
        ], 
        "isInstanceable": [], 
        "orientation": [
            {
                "value": {
                    "typeName": "::armarx::FramedOrientationBase", 
                    "value": {
                        "agent": "", 
                        "frame": "Global", 
                        "qw": 1, 
                        "qx": 0, 
                        "qy": 0, 
                        "qz": 0
                    }
                }
            }
        ], 
        "parentClasses": [], 
        "position": [
            {
                "value": {
                    "typeName": "::armarx::FramedPositionBase", 
                    "value": {
                        "agent": "", 
                        "frame": "Global", 
                        "x": 0, 
                        "y": 0, 
                        "z": 0
                    }
                }
            }
        ], 
        "texFiles": [
            {
                "value": {
                    "typeName": "::memoryx::MongoDBRefBase", 
                    "value": {
                        "dbName": "SecondHandsDB", 
                        "docId": "56f012b6136b9bd3e9170092"
                    }
                }
            }
        ]
    }, 
    "name": "CK20-split28.wrl", 
    "type": "::memoryx::ObjectInstanceBase"
}
{
    "_id": "3", 
    "attrs": {
        "IvFile": [
            {
                "value": {
                    "typeName": "::memoryx::MongoDBRefBase", 
                    "value": {
                        "dbName": "SecondHandsDB", 
                        "docId": "56f012b4136b9bd3e9170091"
                    }
                }
            }
        ], 
        "IvFileCollision": [
            {
                "value": {
                    "typeName": "::memoryx::MongoDBRefBase", 
                    "value": {
                        "dbName": "SecondHandsDB", 
                        "docId": "56f012b4136b9bd3e9170091"
                    }
                }
            }
        ], 
        "ManipulationFile": [
            {
                "value": {
                    "typeName": "::memoryx::MongoDBRefBase", 
                    "value": {
                        "dbName": "SecondHandsDB", 
                        "docId": "56f015439a3dba966a33b16e"
                    }
                }
            }
        ], 
        "classes": [
            {
                "uncertainty": {
                    "typeName": "::memoryx::DiscreteProbabilityBase", 
                    "value": {
                        "prob": 1
                    }
                }, 
                "value": {
                    "typeName": "::armarx::StringVariantData", 
                    "value": "CK20-split04.wrl"
                }
            }
        ], 
        "existenceCertainty": [
            {
                "value": {
                    "typeName": "::armarx::FloatVariantData", 
                    "value": 1
                }
            }
        ], 
        "isInstanceable": [], 
        "orientation": [
            {
                "value": {
                    "typeName": "::armarx::FramedOrientationBase", 
                    "value": {
                        "agent": "", 
                        "frame": "Global", 
                        "qw": 1, 
                        "qx": 0, 
                        "qy": 0, 
                        "qz": 0
                    }
                }
            }
        ], 
        "parentClasses": [], 
        "position": [
            {
                "value": {
                    "typeName": "::armarx::FramedPositionBase", 
                    "value": {
                        "agent": "", 
                        "frame": "Global", 
                        "x": 0, 
                        "y": 0, 
                        "z": 0
                    }
                }
            }
        ], 
        "texFiles": [
            {
                "value": {
                    "typeName": "::memoryx::MongoDBRefBase", 
                    "value": {
                        "dbName": "SecondHandsDB", 
                        "docId": "56f012b6136b9bd3e9170092"
                    }
                }
            }
        ]
    }, 
    "name": "CK20-split04.wrl", 
    "type": "::memoryx::ObjectInstanceBase"
}
{
    "_id": "4", 
    "attrs": {
        "IvFile": [
            {
                "value": {
                    "typeName": "::memoryx::MongoDBRefBase", 
                    "value": {
                        "dbName": "SecondHandsDB", 
                        "docId": "56f012b6136b9bd3e917009a"
                    }
                }
            }
        ], 
        "IvFileCollision": [
            {
                "value": {
                    "typeName": "::memoryx::MongoDBRefBase", 
                    "value": {
                        "dbName": "SecondHandsDB", 
                        "docId": "56f012b6136b9bd3e917009a"
                    }
                }
            }
        ], 
        "ManipulationFile": [
            {
                "value": {
                    "typeName": "::memoryx::MongoDBRefBase", 
                    "value": {
                        "dbName": "SecondHandsDB", 
                        "docId": "56f015439a3dba966a33b172"
                    }
                }
            }
        ], 
        "classes": [
            {
                "uncertainty": {
                    "typeName": "::memoryx::DiscreteProbabilityBase", 
                    "value": {
                        "prob": 1
                    }
                }, 
                "value": {
                    "typeName": "::armarx::StringVariantData", 
                    "value": "CK20-split05.wrl"
                }
            }
        ], 
        "existenceCertainty": [
            {
                "value": {
                    "typeName": "::armarx::FloatVariantData", 
                    "value": 1
                }
            }
        ], 
        "isInstanceable": [], 
        "orientation": [
            {
                "value": {
                    "typeName": "::armarx::FramedOrientationBase", 
                    "value": {
                        "agent": "", 
                        "frame": "Global", 
                        "qw": 1, 
                        "qx": 0, 
                        "qy": 0, 
                        "qz": 0
                    }
                }
            }
        ], 
        "parentClasses": [], 
        "position": [
            {
                "value": {
                    "typeName": "::armarx::FramedPositionBase", 
                    "value": {
                        "agent": "", 
                        "frame": "Global", 
                        "x": 0, 
                        "y": 0, 
                        "z": 0
                    }
                }
            }
        ], 
        "texFiles": [
            {
                "value": {
                    "typeName": "::memoryx::MongoDBRefBase", 
                    "value": {
                        "dbName": "SecondHandsDB", 
                        "docId": "56f012b6136b9bd3e9170092"
                    }
                }
            }
        ]
    }, 
    "name": "CK20-split05.wrl", 
    "type": "::memoryx::ObjectInstanceBase"
}
{
    "_id": "5", 
    "attrs": {
        "IvFile": [
            {
                "value": {
                    "typeName": "::memoryx::MongoDBRefBase", 
                    "value": {
                        "dbName": "SecondHandsDB", 
                        "docId": "56f012b6136b9bd3e917009d"
                    }
                }
            }
        ], 
        "IvFileCollision": [
            {
                "value": {
                    "typeName": "::memoryx::MongoDBRefBase", 
                    "value": {
                        "dbName": "SecondHandsDB", 
                        "docId": "56f012b6136b9bd3e917009d"
                    }
                }
            }
        ], 
        "ManipulationFile": [
            {
                "value": {
                    "typeName": "::memoryx::MongoDBRefBase", 
                    "value": {
                        "dbName": "SecondHandsDB", 
                        "docId": "56f015439a3dba966a33b176"
                    }
                }
            }
        ], 
        "classes": [
            {
                "uncertainty": {
                    "typeName": "::memoryx::DiscreteProbabilityBase", 
                    "value": {
                        "prob": 1
                    }
                }, 
                "value": {
                    "typeName": "::armarx::StringVariantData", 
                    "value": "CK20-split06.wrl"
                }
            }
        ], 
        "existenceCertainty": [
            {
                "value": {
                    "typeName": "::armarx::FloatVariantData", 
                    "value": 1
                }
            }
        ], 
        "isInstanceable": [], 
        "orientation": [
            {
                "value": {
                    "typeName": "::armarx::FramedOrientationBase", 
                    "value": {
                        "agent": "", 
                        "frame": "Global", 
                        "qw": 1, 
                        "qx": 0, 
                        "qy": 0, 
                        "qz": 0
                    }
                }
            }
        ], 
        "parentClasses": [], 
        "position": [
            {
                "value": {
                    "typeName": "::armarx::FramedPositionBase", 
                    "value": {
                        "agent": "", 
                        "frame": "Global", 
                        "x": 0, 
                        "y": 0, 
                        "z": 0
                    }
                }
            }
        ], 
        "texFiles": [
            {
                "value": {
                    "typeName": "::memoryx::MongoDBRefBase", 
                    "value": {
                        "dbName": "SecondHandsDB", 
                        "docId": "56f012b6136b9bd3e9170092"
                    }
                }
            }
        ]
    }, 
    "name": "CK20-split06.wrl", 
    "type": "::memoryx::ObjectInstanceBase"
}
{
    "_id": "6", 
    "attrs": {
        "IvFile": [
            {
                "value": {
                    "typeName": "::memoryx::MongoDBRefBase", 
                    "value": {
                        "dbName": "SecondHandsDB", 
                        "docId": "56f012b6136b9bd3e91700a0"
                    }
                }
            }
        ], 
        "IvFileCollision": [
            {
                "value": {
                    "typeName": "::memoryx::MongoDBRefBase", 
                    "value": {
                        "dbName": "SecondHandsDB", 
                        "docId": "56f012b6136b9bd3e91700a0"
                    }
                }
            }
        ], 
        "ManipulationFile": [
            {
                "value": {
                    "typeName": "::memoryx::MongoDBRefBase", 
                    "value": {
                        "dbName": "SecondHandsDB", 
                        "docId": "56f015439a3dba966a33b17e"
                    }
                }
            }
        ], 
        "classes": [
            {
                "uncertainty": {
                    "typeName": "::memoryx::DiscreteProbabilityBase", 
                    "value": {
                        "prob": 1
                    }
                }, 
                "value": {
                    "typeName": "::armarx::StringVariantData", 
                    "value": "CK20-split07.wrl"
                }
            }
        ], 
        "existenceCertainty": [
            {
                "value": {
                    "typeName": "::armarx::FloatVariantData", 
                    "value": 1
                }
            }
        ], 
        "isInstanceable": [], 
        "orientation": [
            {
                "value": {
                    "typeName": "::armarx::FramedOrientationBase", 
                    "value": {
                        "agent": "", 
                        "frame": "Global", 
                        "qw": 1, 
                        "qx": 0, 
                        "qy": 0, 
                        "qz": 0
                    }
                }
            }
        ], 
        "parentClasses": [], 
        "position": [
            {
                "value": {
                    "typeName": "::armarx::FramedPositionBase", 
                    "value": {
                        "agent": "", 
                        "frame": "Global", 
                        "x": 0, 
                        "y": 0, 
                        "z": 0
                    }
                }
            }
        ], 
        "texFiles": [
            {
                "value": {
                    "typeName": "::memoryx::MongoDBRefBase", 
                    "value": {
                        "dbName": "SecondHandsDB", 
                        "docId": "56f012b6136b9bd3e9170092"
                    }
                }
            }
        ]
    }, 
    "name": "CK20-split07.wrl", 
    "type": "::memoryx::ObjectInstanceBase"
}
{
    "_id": "7", 
    "attrs": {
        "IvFile": [
            {
                "value": {
                    "typeName": "::memoryx::MongoDBRefBase", 
                    "value": {
                        "dbName": "SecondHandsDB", 
                        "docId": "56f012b7136b9bd3e91700ac"
                    }
                }
            }
        ], 
        "IvFileCollision": [
            {
                "value": {
                    "typeName": "::memoryx::MongoDBRefBase", 
                    "value": {
                        "dbName": "SecondHandsDB", 
                        "docId": "56f012b7136b9bd3e91700ac"
                    }
                }
            }
        ], 
        "ManipulationFile": [
            {
                "value": {
                    "typeName": "::memoryx::MongoDBRefBase", 
                    "value": {
                        "dbName": "SecondHandsDB", 
                        "docId": "56f015449a3dba966a33b186"
                    }
                }
            }
        ], 
        "classes": [
            {
                "uncertainty": {
                    "typeName": "::memoryx::DiscreteProbabilityBase", 
                    "value": {
                        "prob": 1
                    }
                }, 
                "value": {
                    "typeName": "::armarx::StringVariantData", 
                    "value": "CK20-split09.wrl"
                }
            }
        ], 
        "existenceCertainty": [
            {
                "value": {
                    "typeName": "::armarx::FloatVariantData", 
                    "value": 1
                }
            }
        ], 
        "isInstanceable": [], 
        "orientation": [
            {
                "value": {
                    "typeName": "::armarx::FramedOrientationBase", 
                    "value": {
                        "agent": "", 
                        "frame": "Global", 
                        "qw": 1, 
                        "qx": 0, 
                        "qy": 0, 
                        "qz": 0
                    }
                }
            }
        ], 
        "parentClasses": [], 
        "position": [
            {
                "value": {
                    "typeName": "::armarx::FramedPositionBase", 
                    "value": {
                        "agent": "", 
                        "frame": "Global", 
                        "x": 0, 
                        "y": 0, 
                        "z": 0
                    }
                }
            }
        ], 
        "texFiles": [
            {
                "value": {
                    "typeName": "::memoryx::MongoDBRefBase", 
                    "value": {
                        "dbName": "SecondHandsDB", 
                        "docId": "56f012b6136b9bd3e9170092"
                    }
                }
            }
        ]
    }, 
    "name": "CK20-split09.wrl", 
    "type": "::memoryx::ObjectInstanceBase"
}
{
    "_id": "8", 
    "attrs": {
        "IvFile": [
            {
                "value": {
                    "typeName": "::memoryx::MongoDBRefBase", 
                    "value": {
                        "dbName": "SecondHandsDB", 
                        "docId": "56f012b7136b9bd3e91700a9"
                    }
                }
            }
        ], 
        "IvFileCollision": [
            {
                "value": {
                    "typeName": "::memoryx::MongoDBRefBase", 
                    "value": {
                        "dbName": "SecondHandsDB", 
                        "docId": "56f012b7136b9bd3e91700a9"
                    }
                }
            }
        ], 
        "ManipulationFile": [
            {
                "value": {
                    "typeName": "::memoryx::MongoDBRefBase", 
                    "value": {
                        "dbName": "SecondHandsDB", 
                        "docId": "56f015449a3dba966a33b182"
                    }
                }
            }
        ], 
        "classes": [
            {
                "uncertainty": {
                    "typeName": "::memoryx::DiscreteProbabilityBase", 
                    "value": {
                        "prob": 1
                    }
                }, 
                "value": {
                    "typeName": "::armarx::StringVariantData", 
                    "value": "CK20-split08.wrl"
                }
            }
        ], 
        "existenceCertainty": [
            {
                "value": {
                    "typeName": "::armarx::FloatVariantData", 
                    "value": 1
                }
            }
        ], 
        "isInstanceable": [], 
        "orientation": [
            {
                "value": {
                    "typeName": "::armarx::FramedOrientationBase", 
                    "value": {
                        "agent": "", 
                        "frame": "Global", 
                        "qw": 1, 
                        "qx": 0, 
                        "qy": 0, 
                        "qz": 0
                    }
                }
            }
        ], 
        "parentClasses": [], 
        "position": [
            {
                "value": {
                    "typeName": "::armarx::FramedPositionBase", 
                    "value": {
                        "agent": "", 
                        "frame": "Global", 
                        "x": 0, 
                        "y": 0, 
                        "z": 0
                    }
                }
            }
        ], 
        "texFiles": [
            {
                "value": {
                    "typeName": "::memoryx::MongoDBRefBase", 
                    "value": {
                        "dbName": "SecondHandsDB", 
                        "docId": "56f012b6136b9bd3e9170092"
                    }
                }
            }
        ]
    }, 
    "name": "CK20-split08.wrl", 
    "type": "::memoryx::ObjectInstanceBase"
}
{
    "_id": "9", 
    "attrs": {
        "IvFile": [
            {
                "value": {
                    "typeName": "::memoryx::MongoDBRefBase", 
                    "value": {
                        "dbName": "SecondHandsDB", 
                        "docId": "56f012b7136b9bd3e91700a3"
                    }
                }
            }
        ], 
        "IvFileCollision": [
            {
                "value": {
                    "typeName": "::memoryx::MongoDBRefBase", 
                    "value": {
                        "dbName": "SecondHandsDB", 
                        "docId": "56f012b7136b9bd3e91700a3"
                    }
                }
            }
        ], 
        "ManipulationFile": [
            {
                "value": {
                    "typeName": "::memoryx::MongoDBRefBase", 
                    "value": {
                        "dbName": "SecondHandsDB", 
                        "docId": "56f015449a3dba966a33b192"
                    }
                }
            }
        ], 
        "classes": [
            {
                "uncertainty": {
                    "typeName": "::memoryx::DiscreteProbabilityBase", 
                    "value": {
                        "prob": 1
                    }
                }, 
                "value": {
                    "typeName": "::armarx::StringVariantData", 
                    "value": "CK20-split13.wrl"
                }
            }
        ], 
        "existenceCertainty": [
            {
                "value": {
                    "typeName": "::armarx::FloatVariantData", 
                    "value": 1
                }
            }
        ], 
        "isInstanceable": [], 
        "orientation": [
            {
                "value": {
                    "typeName": "::armarx::FramedOrientationBase", 
                    "value": {
                        "agent": "", 
                        "frame": "Global", 
                        "qw": 1, 
                        "qx": 0, 
                        "qy": 0, 
                        "qz": 0
                    }
                }
            }
        ], 
        "parentClasses": [], 
        "position": [
            {
                "value": {
                    "typeName": "::armarx::FramedPositionBase", 
                    "value": {
                        "agent": "", 
                        "frame": "Global", 
                        "x": 0, 
                        "y": 0, 
                        "z": 0
                    }
                }
            }
        ], 
        "texFiles": [
            {
                "value": {
                    "typeName": "::memoryx::MongoDBRefBase", 
                    "value": {
                        "dbName": "SecondHandsDB", 
                        "docId": "56f012b6136b9bd3e9170092"
                    }
                }
            }
        ]
    }, 
    "name": "CK20-split13.wrl", 
    "type": "::memoryx::ObjectInstanceBase"
}
