{
    "_id": "1", 
    "attrs": {
        "IvFile": [
            {
                "value": {
                    "typeName": "::memoryx::MongoDBRefBase", 
                    "value": {
                        "dbName": "CeBITdb", 
                        "docId": "5aff284b2ca81b1b721c4d60"
                    }
                }
            }
        ], 
        "IvFileCollision": [
            {
                "value": {
                    "typeName": "::memoryx::MongoDBRefBase", 
                    "value": {
                        "dbName": "CeBITdb", 
                        "docId": "5aff284b2ca81b1b721c4d60"
                    }
                }
            }
        ], 
        "ManipulationFile": [
            {
                "value": {
                    "typeName": "::memoryx::MongoDBRefBase", 
                    "value": {
                        "dbName": "CeBITdb", 
                        "docId": "5afed7a6478639fe237cb68d"
                    }
                }
            }
        ], 
        "PutdownOrientationRPY": [
            {
                "value": {
                    "typeName": "::armarx::Vector3Base", 
                    "value": {
                        "x": 0, 
                        "y": 0, 
                        "z": 0
                    }
                }
            }
        ], 
        "classes": [
            {
                "uncertainty": {
                    "typeName": "::memoryx::DiscreteProbabilityBase", 
                    "value": {
                        "prob": 1
                    }
                }, 
                "value": {
                    "typeName": "::armarx::StringVariantData", 
                    "value": "workbench"
                }
            }
        ], 
        "defaultMotionModel": [
            {
                "value": {
                    "typeName": "::armarx::StringVariantData", 
                    "value": "Static"
                }
            }
        ], 
        "existenceCertainty": [
            {
                "value": {
                    "typeName": "::armarx::FloatVariantData", 
                    "value": 1
                }
            }
        ], 
        "isInstanceable": [
            {
                "value": {
                    "typeName": "::armarx::BoolVariantData", 
                    "value": true
                }
            }
        ], 
        "orientation": [
            {
                "value": {
                    "typeName": "::armarx::FramedOrientationBase", 
                    "value": {
                        "agent": "", 
                        "frame": "Global", 
                        "qw": 0.70710688829422, 
                        "qx": 0, 
                        "qy": 0, 
                        "qz": 0.7071065902709961
                    }
                }
            }
        ], 
        "parentClasses": [
            {
                "value": {
                    "typeName": "::armarx::StringVariantData", 
                    "value": ""
                }
            }
        ], 
        "position": [
            {
                "value": {
                    "typeName": "::armarx::FramedPositionBase", 
                    "value": {
                        "agent": "", 
                        "frame": "Global", 
                        "x": 4195.6259765625, 
                        "y": 4721.83203125, 
                        "z": 22.207950592041016
                    }
                }
            }
        ], 
        "priority": [
            {
                "value": {
                    "typeName": "::armarx::IntVariantData", 
                    "value": 50
                }
            }
        ], 
        "recognitionMethod": [
            {
                "value": {
                    "typeName": "::armarx::StringVariantData", 
                    "value": "<none>"
                }
            }
        ]
    }, 
    "name": "workbench", 
    "type": "::memoryx::ObjectInstanceBase"
}
