{
    "_id": {
        "$oid": "5afede94b17a39c7d2190baf"
    }, 
    "attrs": {
        "adjacentNodes": [
            {
                "value": {
                    "typeName": "::memoryx::EntityRefBase", 
                    "value": {
                        "entityId": "5afedf01b17a39c7d2190bb1", 
                        "entityName": "pd_n0", 
                        "memoryName": "PriorKnowledge", 
                        "segmentName": "graphs"
                    }
                }
            }, 
            {
                "value": {
                    "typeName": "::memoryx::EntityRefBase", 
                    "value": {
                        "entityId": "5afee151b17a39c7d2190bba", 
                        "entityName": "wb_n1", 
                        "memoryName": "PriorKnowledge", 
                        "segmentName": "graphs"
                    }
                }
            }
        ], 
        "pose": [
            {
                "value": {
                    "typeName": "::armarx::FramedPoseBase", 
                    "value": {
                        "agent": "", 
                        "frame": "Global", 
                        "qw": 1, 
                        "qx": 0, 
                        "qy": 0, 
                        "qz": 0, 
                        "x": 4177, 
                        "y": 3841, 
                        "z": 0
                    }
                }
            }
        ], 
        "scene": [
            {
                "value": {
                    "typeName": "::armarx::StringVariantData", 
                    "value": "GraphCeBIT"
                }
            }
        ]
    }, 
    "name": "wb_front", 
    "type": "::memoryx::GraphNodeBase"
}
{
    "_id": {
        "$oid": "5afedec6b17a39c7d2190bb0"
    }, 
    "attrs": {
        "adjacentNodes": [
            {
                "value": {
                    "typeName": "::memoryx::EntityRefBase", 
                    "value": {
                        "entityId": "5afedf01b17a39c7d2190bb1", 
                        "entityName": "pd_n0", 
                        "memoryName": "PriorKnowledge", 
                        "segmentName": "graphs"
                    }
                }
            }
        ], 
        "pose": [
            {
                "value": {
                    "typeName": "::armarx::FramedPoseBase", 
                    "value": {
                        "agent": "", 
                        "frame": "Global", 
                        "qw": 1, 
                        "qx": 0, 
                        "qy": 0, 
                        "qz": 0, 
                        "x": 5250, 
                        "y": 2720, 
                        "z": 0
                    }
                }
            }
        ], 
        "scene": [
            {
                "value": {
                    "typeName": "::armarx::StringVariantData", 
                    "value": "GraphCeBIT"
                }
            }
        ]
    }, 
    "name": "pd_put_down", 
    "type": "::memoryx::GraphNodeBase"
}
{
    "_id": {
        "$oid": "5afedf01b17a39c7d2190bb1"
    }, 
    "attrs": {
        "adjacentNodes": [
            {
                "value": {
                    "typeName": "::memoryx::EntityRefBase", 
                    "value": {
                        "entityId": "5afedec6b17a39c7d2190bb0", 
                        "entityName": "pd_put_down", 
                        "memoryName": "PriorKnowledge", 
                        "segmentName": "graphs"
                    }
                }
            }, 
            {
                "value": {
                    "typeName": "::memoryx::EntityRefBase", 
                    "value": {
                        "entityId": "5afede94b17a39c7d2190baf", 
                        "entityName": "wb_front", 
                        "memoryName": "PriorKnowledge", 
                        "segmentName": "graphs"
                    }
                }
            }
        ], 
        "pose": [
            {
                "value": {
                    "typeName": "::armarx::FramedPoseBase", 
                    "value": {
                        "agent": "", 
                        "frame": "Global", 
                        "qw": 0.9238795638084412, 
                        "qx": 0, 
                        "qy": 0, 
                        "qz": 0.3826834261417389, 
                        "x": 4500, 
                        "y": 3300, 
                        "z": 0
                    }
                }
            }
        ], 
        "scene": [
            {
                "value": {
                    "typeName": "::armarx::StringVariantData", 
                    "value": "GraphCeBIT"
                }
            }
        ]
    }, 
    "name": "pd_n0", 
    "type": "::memoryx::GraphNodeBase"
}
{
    "_id": {
        "$oid": "5afedf85b17a39c7d2190bb2"
    }, 
    "attrs": {
        "adjacentNodes": [], 
        "pose": [
            {
                "value": {
                    "typeName": "::armarx::FramedPoseBase", 
                    "value": {
                        "agent": "", 
                        "frame": "Global", 
                        "qw": 0.6380961537361145, 
                        "qx": 0, 
                        "qy": 0, 
                        "qz": -0.769956648349762, 
                        "x": 690, 
                        "y": 2800, 
                        "z": 0
                    }
                }
            }
        ], 
        "scene": [
            {
                "value": {
                    "typeName": "::armarx::StringVariantData", 
                    "value": "GraphCeBIT"
                }
            }
        ]
    }, 
    "name": "gl_lowering", 
    "type": "::memoryx::GraphNodeBase"
}
{
    "_id": {
        "$oid": "5afedfdab17a39c7d2190bb4"
    }, 
    "attrs": {
        "adjacentNodes": [
            {
                "value": {
                    "typeName": "::memoryx::EntityRefBase", 
                    "value": {
                        "entityId": "5afee127b17a39c7d2190bb9", 
                        "entityName": "wb_n0", 
                        "memoryName": "PriorKnowledge", 
                        "segmentName": "graphs"
                    }
                }
            }
        ], 
        "pose": [
            {
                "value": {
                    "typeName": "::armarx::FramedPoseBase", 
                    "value": {
                        "agent": "", 
                        "frame": "Global", 
                        "qw": 0.9238795638084412, 
                        "qx": 0, 
                        "qy": 0, 
                        "qz": -0.3826834261417389, 
                        "x": 1530, 
                        "y": 3465, 
                        "z": 0
                    }
                }
            }
        ], 
        "scene": [
            {
                "value": {
                    "typeName": "::armarx::StringVariantData", 
                    "value": "GraphCeBIT"
                }
            }
        ]
    }, 
    "name": "gl_n0", 
    "type": "::memoryx::GraphNodeBase"
}
{
    "_id": {
        "$oid": "5afee0ceb17a39c7d2190bb8"
    }, 
    "attrs": {
        "adjacentNodes": [
            {
                "value": {
                    "typeName": "::memoryx::EntityRefBase", 
                    "value": {
                        "entityId": "5b0bbe8420464e82b55b80a2", 
                        "entityName": "wb_n10", 
                        "memoryName": "PriorKnowledge", 
                        "segmentName": "graphs"
                    }
                }
            }, 
            {
                "value": {
                    "typeName": "::memoryx::EntityRefBase", 
                    "value": {
                        "entityId": "5afee127b17a39c7d2190bb9", 
                        "entityName": "wb_n0", 
                        "memoryName": "PriorKnowledge", 
                        "segmentName": "graphs"
                    }
                }
            }
        ], 
        "pose": [
            {
                "value": {
                    "typeName": "::armarx::FramedPoseBase", 
                    "value": {
                        "agent": "", 
                        "frame": "Global", 
                        "qw": 0.7071067690849304, 
                        "qx": 0, 
                        "qy": 0, 
                        "qz": -0.7071067690849304, 
                        "x": 3000, 
                        "y": 3600, 
                        "z": 0
                    }
                }
            }
        ], 
        "scene": [
            {
                "value": {
                    "typeName": "::armarx::StringVariantData", 
                    "value": "GraphCeBIT"
                }
            }
        ]
    }, 
    "name": "wb_g_between", 
    "type": "::memoryx::GraphNodeBase"
}
{
    "_id": {
        "$oid": "5afee127b17a39c7d2190bb9"
    }, 
    "attrs": {
        "adjacentNodes": [
            {
                "value": {
                    "typeName": "::memoryx::EntityRefBase", 
                    "value": {
                        "entityId": "5b091f003d0443321d326ec8", 
                        "entityName": "gl_observation", 
                        "memoryName": "PriorKnowledge", 
                        "segmentName": "graphs"
                    }
                }
            }, 
            {
                "value": {
                    "typeName": "::memoryx::EntityRefBase", 
                    "value": {
                        "entityId": "5afee0ceb17a39c7d2190bb8", 
                        "entityName": "wb_g_between", 
                        "memoryName": "PriorKnowledge", 
                        "segmentName": "graphs"
                    }
                }
            }
        ], 
        "pose": [
            {
                "value": {
                    "typeName": "::armarx::FramedPoseBase", 
                    "value": {
                        "agent": "", 
                        "frame": "Global", 
                        "qw": 0.7071067690849304, 
                        "qx": 0, 
                        "qy": 0, 
                        "qz": -0.7071067690849304, 
                        "x": 2000, 
                        "y": 3800, 
                        "z": 0
                    }
                }
            }
        ], 
        "scene": [
            {
                "value": {
                    "typeName": "::armarx::StringVariantData", 
                    "value": "GraphCeBIT"
                }
            }
        ]
    }, 
    "name": "wb_n0", 
    "type": "::memoryx::GraphNodeBase"
}
{
    "_id": {
        "$oid": "5afee151b17a39c7d2190bba"
    }, 
    "attrs": {
        "adjacentNodes": [
            {
                "value": {
                    "typeName": "::memoryx::EntityRefBase", 
                    "value": {
                        "entityId": "5afede94b17a39c7d2190baf", 
                        "entityName": "wb_front", 
                        "memoryName": "PriorKnowledge", 
                        "segmentName": "graphs"
                    }
                }
            }, 
            {
                "value": {
                    "typeName": "::memoryx::EntityRefBase", 
                    "value": {
                        "entityId": "5b0bbe8420464e82b55b80a2", 
                        "entityName": "wb_n10", 
                        "memoryName": "PriorKnowledge", 
                        "segmentName": "graphs"
                    }
                }
            }, 
            {
                "value": {
                    "typeName": "::memoryx::EntityRefBase", 
                    "value": {
                        "entityId": "5b13f26ef733191925fd0172", 
                        "entityName": "home", 
                        "memoryName": "PriorKnowledge", 
                        "segmentName": "graphs"
                    }
                }
            }, 
            {
                "value": {
                    "typeName": "::memoryx::EntityRefBase", 
                    "value": {
                        "entityId": "5b16b2d12115a290fa9c2c1b", 
                        "entityName": "handover", 
                        "memoryName": "PriorKnowledge", 
                        "segmentName": "graphs"
                    }
                }
            }, 
            {
                "value": {
                    "typeName": "::memoryx::EntityRefBase", 
                    "value": {
                        "entityId": "5b170055321140bb73d08586", 
                        "entityName": "wb_retreat", 
                        "memoryName": "PriorKnowledge", 
                        "segmentName": "graphs"
                    }
                }
            }
        ], 
        "pose": [
            {
                "value": {
                    "typeName": "::armarx::FramedPoseBase", 
                    "value": {
                        "agent": "", 
                        "frame": "Global", 
                        "qw": 1, 
                        "qx": 0, 
                        "qy": 0, 
                        "qz": 0, 
                        "x": 4177, 
                        "y": 3550, 
                        "z": 0
                    }
                }
            }
        ], 
        "scene": [
            {
                "value": {
                    "typeName": "::armarx::StringVariantData", 
                    "value": "GraphCeBIT"
                }
            }
        ]
    }, 
    "name": "wb_n1", 
    "type": "::memoryx::GraphNodeBase"
}
{
    "_id": {
        "$oid": "5b091f003d0443321d326ec8"
    }, 
    "attrs": {
        "adjacentNodes": [
            {
                "value": {
                    "typeName": "::memoryx::EntityRefBase", 
                    "value": {
                        "entityId": "5b09222f3d0443321d326ec9", 
                        "entityName": "gl_node1", 
                        "memoryName": "PriorKnowledge", 
                        "segmentName": "graphs"
                    }
                }
            }
        ], 
        "pose": [
            {
                "value": {
                    "typeName": "::armarx::FramedPoseBase", 
                    "value": {
                        "agent": "", 
                        "frame": "Global", 
                        "qw": -0.4226182699203491, 
                        "qx": 0, 
                        "qy": 0, 
                        "qz": 0.9063078165054321, 
                        "x": 1150, 
                        "y": 4250, 
                        "z": 0
                    }
                }
            }
        ], 
        "scene": [
            {
                "value": {
                    "typeName": "::armarx::StringVariantData", 
                    "value": "GraphCeBIT"
                }
            }
        ]
    }, 
    "name": "gl_observation", 
    "type": "::memoryx::GraphNodeBase"
}
{
    "_id": {
        "$oid": "5b09222f3d0443321d326ec9"
    }, 
    "attrs": {
        "adjacentNodes": [
            {
                "value": {
                    "typeName": "::memoryx::EntityRefBase", 
                    "value": {
                        "entityId": "5b09228f3d0443321d326eca", 
                        "entityName": "gl_node2", 
                        "memoryName": "PriorKnowledge", 
                        "segmentName": "graphs"
                    }
                }
            }
        ], 
        "pose": [
            {
                "value": {
                    "typeName": "::armarx::FramedPoseBase", 
                    "value": {
                        "agent": "", 
                        "frame": "Global", 
                        "qw": -0.4226182699203491, 
                        "qx": 0, 
                        "qy": 0, 
                        "qz": 0.9063078165054321, 
                        "x": 1390, 
                        "y": 3700, 
                        "z": 0
                    }
                }
            }
        ], 
        "scene": [
            {
                "value": {
                    "typeName": "::armarx::StringVariantData", 
                    "value": "GraphCeBIT"
                }
            }
        ]
    }, 
    "name": "gl_node1", 
    "type": "::memoryx::GraphNodeBase"
}
{
    "_id": {
        "$oid": "5b09228f3d0443321d326eca"
    }, 
    "attrs": {
        "adjacentNodes": [
            {
                "value": {
                    "typeName": "::memoryx::EntityRefBase", 
                    "value": {
                        "entityId": "5b0bc0b820464e82b55b80a3", 
                        "entityName": "gl_node3", 
                        "memoryName": "PriorKnowledge", 
                        "segmentName": "graphs"
                    }
                }
            }
        ], 
        "pose": [
            {
                "value": {
                    "typeName": "::armarx::FramedPoseBase", 
                    "value": {
                        "agent": "", 
                        "frame": "Global", 
                        "qw": -0.4999999701976776, 
                        "qx": 0, 
                        "qy": 0, 
                        "qz": 0.8660253882408142, 
                        "x": 1390, 
                        "y": 3260, 
                        "z": 0
                    }
                }
            }
        ], 
        "scene": [
            {
                "value": {
                    "typeName": "::armarx::StringVariantData", 
                    "value": "GraphCeBIT"
                }
            }
        ]
    }, 
    "name": "gl_node2", 
    "type": "::memoryx::GraphNodeBase"
}
{
    "_id": {
        "$oid": "5b0bbe8420464e82b55b80a2"
    }, 
    "attrs": {
        "adjacentNodes": [
            {
                "value": {
                    "typeName": "::memoryx::EntityRefBase", 
                    "value": {
                        "entityId": "5afee151b17a39c7d2190bba", 
                        "entityName": "wb_n1", 
                        "memoryName": "PriorKnowledge", 
                        "segmentName": "graphs"
                    }
                }
            }, 
            {
                "value": {
                    "typeName": "::memoryx::EntityRefBase", 
                    "value": {
                        "entityId": "5afee0ceb17a39c7d2190bb8", 
                        "entityName": "wb_g_between", 
                        "memoryName": "PriorKnowledge", 
                        "segmentName": "graphs"
                    }
                }
            }
        ], 
        "pose": [
            {
                "value": {
                    "typeName": "::armarx::FramedPoseBase", 
                    "value": {
                        "agent": "", 
                        "frame": "Global", 
                        "qw": 0.7071067690849304, 
                        "qx": 0, 
                        "qy": 0, 
                        "qz": -0.7071067690849304, 
                        "x": 3800, 
                        "y": 3600, 
                        "z": 0
                    }
                }
            }
        ], 
        "scene": [
            {
                "value": {
                    "typeName": "::armarx::StringVariantData", 
                    "value": "GraphCeBIT"
                }
            }
        ]
    }, 
    "name": "wb_n10", 
    "type": "::memoryx::GraphNodeBase"
}
{
    "_id": {
        "$oid": "5b0bc0b820464e82b55b80a3"
    }, 
    "attrs": {
        "adjacentNodes": [
            {
                "value": {
                    "typeName": "::memoryx::EntityRefBase", 
                    "value": {
                        "entityId": "5afedf85b17a39c7d2190bb2", 
                        "entityName": "gl_lowering", 
                        "memoryName": "PriorKnowledge", 
                        "segmentName": "graphs"
                    }
                }
            }, 
            {
                "value": {
                    "typeName": "::memoryx::EntityRefBase", 
                    "value": {
                        "entityId": "5afedfdab17a39c7d2190bb4", 
                        "entityName": "gl_n0", 
                        "memoryName": "PriorKnowledge", 
                        "segmentName": "graphs"
                    }
                }
            }
        ], 
        "pose": [
            {
                "value": {
                    "typeName": "::armarx::FramedPoseBase", 
                    "value": {
                        "agent": "", 
                        "frame": "Global", 
                        "qw": 0.6560590267181396, 
                        "qx": 0, 
                        "qy": 0, 
                        "qz": -0.7547096014022827, 
                        "x": 1184, 
                        "y": 2711, 
                        "z": 0
                    }
                }
            }
        ], 
        "scene": [
            {
                "value": {
                    "typeName": "::armarx::StringVariantData", 
                    "value": "GraphCeBIT"
                }
            }
        ]
    }, 
    "name": "gl_node3", 
    "type": "::memoryx::GraphNodeBase"
}
{
    "_id": {
        "$oid": "5b13f26ef733191925fd0172"
    }, 
    "attrs": {
        "adjacentNodes": [
            {
                "value": {
                    "typeName": "::memoryx::EntityRefBase", 
                    "value": {
                        "entityId": "5afee151b17a39c7d2190bba", 
                        "entityName": "wb_n1", 
                        "memoryName": "PriorKnowledge", 
                        "segmentName": "graphs"
                    }
                }
            }
        ], 
        "pose": [
            {
                "value": {
                    "typeName": "::armarx::FramedPoseBase", 
                    "value": {
                        "agent": "", 
                        "frame": "Global", 
                        "qw": 1, 
                        "qx": 0, 
                        "qy": 0, 
                        "qz": 0, 
                        "x": 4400, 
                        "y": 3130, 
                        "z": 0
                    }
                }
            }
        ], 
        "scene": [
            {
                "value": {
                    "typeName": "::armarx::StringVariantData", 
                    "value": "GraphCeBIT"
                }
            }
        ]
    }, 
    "name": "home", 
    "type": "::memoryx::GraphNodeBase"
}
{
    "_id": {
        "$oid": "5b16b2d12115a290fa9c2c1b"
    }, 
    "attrs": {
        "adjacentNodes": [], 
        "pose": [
            {
                "value": {
                    "typeName": "::armarx::FramedPoseBase", 
                    "value": {
                        "agent": "", 
                        "frame": "Global", 
                        "qw": 0.7372773885726929, 
                        "qx": 0, 
                        "qy": 0, 
                        "qz": 0.6755901575088501, 
                        "x": 2272, 
                        "y": 3872, 
                        "z": 0
                    }
                }
            }
        ], 
        "scene": [
            {
                "value": {
                    "typeName": "::armarx::StringVariantData", 
                    "value": "GraphCeBIT"
                }
            }
        ]
    }, 
    "name": "handover", 
    "type": "::memoryx::GraphNodeBase"
}
{
    "_id": {
        "$oid": "5b170055321140bb73d08586"
    }, 
    "attrs": {
        "adjacentNodes": [
            {
                "value": {
                    "typeName": "::memoryx::EntityRefBase", 
                    "value": {
                        "entityId": "5afee151b17a39c7d2190bba", 
                        "entityName": "wb_n1", 
                        "memoryName": "PriorKnowledge", 
                        "segmentName": "graphs"
                    }
                }
            }
        ], 
        "pose": [
            {
                "value": {
                    "typeName": "::armarx::FramedPoseBase", 
                    "value": {
                        "agent": "", 
                        "frame": "Global", 
                        "qw": 1, 
                        "qx": 0, 
                        "qy": 0, 
                        "qz": 0, 
                        "x": 3800, 
                        "y": 3250, 
                        "z": 0
                    }
                }
            }
        ], 
        "scene": [
            {
                "value": {
                    "typeName": "::armarx::StringVariantData", 
                    "value": "GraphCeBIT"
                }
            }
        ]
    }, 
    "name": "wb_retreat", 
    "type": "::memoryx::GraphNodeBase"
}
