{
    "_id": {
        "$oid": "5b473cc4ddbc8f5b4212ba05"
    }, 
    "attrs": {
        "pose": [
            {
                "value": {
                    "typeName": "::armarx::FramedPoseBase", 
                    "value": {
                        "agent": "", 
                        "frame": "Global", 
                        "qw": 0.7162351012229919, 
                        "qx": 0, 
                        "qy": 0, 
                        "qz": 0.6978590488433838, 
                        "x": 2777.834716796875, 
                        "y": 8532.1015625, 
                        "z": 0
                    }
                }
            }
        ]
    }, 
    "name": "Armar6", 
    "type": "::memoryx::EntityBase"
}
{
    "_id": {
        "$oid": "5cacb67a162261f428ada690"
    }, 
    "attrs": {
        "pose": [
            {
                "value": {
                    "typeName": "::armarx::FramedPoseBase", 
                    "value": {
                        "agent": "", 
                        "frame": "Global", 
                        "qw": 0.676653265953064, 
                        "qx": 0, 
                        "qy": 0, 
                        "qz": 0.7363017797470093, 
                        "x": 1866.792114257812, 
                        "y": 3323.59716796875, 
                        "z": 0
                    }
                }
            }
        ]
    }, 
    "name": "Armar6", 
    "type": "::memoryx::EntityBase"
}
