{
  "welcome": [-570, -1135, -2.835],
  "gate_entrance": [-490, -1005, 0.00],
  "gate_middle": [-505, 310, 0.00],
  "gate_exit": [-455, 1375, 0.00],
  "post_gate": [-2485, 3390, 0.642],
  "gate_room_to_room02": [-4650, 5335, 0.64],
  "room02_a": [-5570, 6370, 0.73],
  "room02_entrance": [-6645, 7210, 0.79],
  "room02_chairs": [-8680, 8013, 1.54],
  "room02_podests": [-12457, 8123, 1.588],
  "room02_please_take_your_seat": [-12600, 8123, -1.16],
  "room02_final": [-13988, 6500, -0.85]
}
