{
    "_id": "10", 
    "attrs": {
        "IvFile": [
            {
                "value": {
                    "typeName": "::memoryx::MongoDBRefBase", 
                    "value": {
                        "dbName": "CeBITdb", 
                        "docId": "5adf1c7d27ed1060a5d52978"
                    }
                }
            }
        ], 
        "IvFileCollision": [
            {
                "value": {
                    "typeName": "::memoryx::MongoDBRefBase", 
                    "value": {
                        "dbName": "CeBITdb", 
                        "docId": "5adf1c7d27ed1060a5d52978"
                    }
                }
            }
        ], 
        "ManipulationFile": [
            {
                "value": {
                    "typeName": "::memoryx::MongoDBRefBase", 
                    "value": {
                        "dbName": "CeBITdb", 
                        "docId": "5ae9bcd55495d77d8104fe5b"
                    }
                }
            }
        ], 
        "PutdownOrientationRPY": [
            {
                "value": {
                    "typeName": "::armarx::Vector3Base", 
                    "value": {
                        "x": 0, 
                        "y": 0, 
                        "z": 0
                    }
                }
            }
        ], 
        "classes": [
            {
                "uncertainty": {
                    "typeName": "::memoryx::DiscreteProbabilityBase", 
                    "value": {
                        "prob": 1
                    }
                }, 
                "value": {
                    "typeName": "::armarx::StringVariantData", 
                    "value": "table"
                }
            }
        ], 
        "defaultMotionModel": [
            {
                "value": {
                    "typeName": "::armarx::StringVariantData", 
                    "value": "Static"
                }
            }
        ], 
        "existenceCertainty": [
            {
                "value": {
                    "typeName": "::armarx::FloatVariantData", 
                    "value": 1
                }
            }
        ], 
        "isInstanceable": [
            {
                "value": {
                    "typeName": "::armarx::BoolVariantData", 
                    "value": true
                }
            }
        ], 
        "orientation": [
            {
                "value": {
                    "typeName": "::armarx::FramedOrientationBase", 
                    "value": {
                        "agent": "", 
                        "frame": "Global", 
                        "qw": 0.7071067690849304, 
                        "qx": 0, 
                        "qy": 0, 
                        "qz": 0.7071067094802856
                    }
                }
            }
        ], 
        "parentClasses": [
            {
                "value": {
                    "typeName": "::armarx::StringVariantData", 
                    "value": ""
                }
            }
        ], 
        "position": [
            {
                "uncertainty": {
                    "typeName": "::memoryx::MultivariateNormalDistributionBase", 
                    "value": {
                        "cov": [
                            10000, 
                            0, 
                            0, 
                            0, 
                            10000, 
                            0, 
                            0, 
                            0, 
                            10000
                        ], 
                        "mean": [
                            0, 
                            0, 
                            0
                        ]
                    }
                }, 
                "value": {
                    "typeName": "::armarx::FramedPositionBase", 
                    "value": {
                        "agent": "", 
                        "frame": "Global", 
                        "x": 2474.857666015625, 
                        "y": 4219.81689453125, 
                        "z": -0.0008940696716308594
                    }
                }
            }
        ], 
        "priority": [
            {
                "value": {
                    "typeName": "::armarx::IntVariantData", 
                    "value": 50
                }
            }
        ], 
        "recognitionMethod": [
            {
                "value": {
                    "typeName": "::armarx::StringVariantData", 
                    "value": "<none>"
                }
            }
        ]
    }, 
    "name": "table", 
    "type": "::memoryx::ObjectInstanceBase"
}
{
    "_id": "11", 
    "attrs": {
        "IvFile": [
            {
                "value": {
                    "typeName": "::memoryx::MongoDBRefBase", 
                    "value": {
                        "dbName": "CeBITdb", 
                        "docId": "5afd4bda7ad298f4c225f095"
                    }
                }
            }
        ], 
        "IvFileCollision": [
            {
                "value": {
                    "typeName": "::memoryx::MongoDBRefBase", 
                    "value": {
                        "dbName": "CeBITdb", 
                        "docId": "5afd4bda7ad298f4c225f095"
                    }
                }
            }
        ], 
        "ManipulationFile": [
            {
                "value": {
                    "typeName": "::memoryx::MongoDBRefBase", 
                    "value": {
                        "dbName": "CeBITdb", 
                        "docId": "5b1e1ecc67d8700014e0e7c9"
                    }
                }
            }
        ], 
        "PutdownOrientationRPY": [
            {
                "value": {
                    "typeName": "::armarx::Vector3Base", 
                    "value": {
                        "x": 0, 
                        "y": 0, 
                        "z": 0
                    }
                }
            }
        ], 
        "classes": [
            {
                "uncertainty": {
                    "typeName": "::memoryx::DiscreteProbabilityBase", 
                    "value": {
                        "prob": 1
                    }
                }, 
                "value": {
                    "typeName": "::armarx::StringVariantData", 
                    "value": "spraybottle"
                }
            }
        ], 
        "defaultMotionModel": [
            {
                "value": {
                    "typeName": "::armarx::StringVariantData", 
                    "value": "Static"
                }
            }
        ], 
        "existenceCertainty": [
            {
                "value": {
                    "typeName": "::armarx::FloatVariantData", 
                    "value": 1
                }
            }
        ], 
        "featureFile": [
            {
                "value": {
                    "typeName": "::memoryx::MongoDBRefBase", 
                    "value": {
                        "dbName": "CeBITdb", 
                        "docId": "5b1e3589dfccdb439e25a8c9"
                    }
                }
            }
        ], 
        "isInstanceable": [
            {
                "value": {
                    "typeName": "::armarx::BoolVariantData", 
                    "value": true
                }
            }
        ], 
        "orientation": [
            {
                "value": {
                    "typeName": "::armarx::FramedOrientationBase", 
                    "value": {
                        "agent": "", 
                        "frame": "Global", 
                        "qw": -0.4999998807907104, 
                        "qx": 0.4999998807907104, 
                        "qy": 0.5000001192092896, 
                        "qz": -0.5000001192092896
                    }
                }
            }
        ], 
        "parentClasses": [
            {
                "value": {
                    "typeName": "::armarx::StringVariantData", 
                    "value": "side-grasp"
                }
            }
        ], 
        "position": [
            {
                "uncertainty": {
                    "typeName": "::memoryx::MultivariateNormalDistributionBase", 
                    "value": {
                        "cov": [
                            10000, 
                            0, 
                            0, 
                            0, 
                            10000, 
                            0, 
                            0, 
                            0, 
                            10000
                        ], 
                        "mean": [
                            0, 
                            0, 
                            0
                        ]
                    }
                }, 
                "value": {
                    "typeName": "::armarx::FramedPositionBase", 
                    "value": {
                        "agent": "", 
                        "frame": "Global", 
                        "x": 2477.49560546875, 
                        "y": 4191.84765625, 
                        "z": 1037.035278320312
                    }
                }
            }
        ], 
        "priority": [
            {
                "value": {
                    "typeName": "::armarx::IntVariantData", 
                    "value": 50
                }
            }
        ], 
        "recognitionMethod": [
            {
                "value": {
                    "typeName": "::armarx::StringVariantData", 
                    "value": "TexturedObjectRecognition"
                }
            }
        ], 
        "texFiles": [
            {
                "value": {
                    "typeName": "::memoryx::MongoDBRefBase", 
                    "value": {
                        "dbName": "CeBITdb", 
                        "docId": "5afd4bda7ad298f4c225f096"
                    }
                }
            }
        ]
    }, 
    "name": "spraybottle", 
    "type": "::memoryx::ObjectInstanceBase"
}
{
    "_id": "4", 
    "attrs": {
        "IvFile": [
            {
                "value": {
                    "typeName": "::memoryx::MongoDBRefBase", 
                    "value": {
                        "dbName": "CeBITdb", 
                        "docId": "5ba2134bcb504b73c5e87cd0"
                    }
                }
            }
        ], 
        "IvFileCollision": [
            {
                "value": {
                    "typeName": "::memoryx::MongoDBRefBase", 
                    "value": {
                        "dbName": "CeBITdb", 
                        "docId": "5ba2134bcb504b73c5e87cd1"
                    }
                }
            }
        ], 
        "ManipulationFile": [
            {
                "value": {
                    "typeName": "::memoryx::MongoDBRefBase", 
                    "value": {
                        "dbName": "CeBITdb", 
                        "docId": "5ba2134ccb504b73c5e87cd5"
                    }
                }
            }
        ], 
        "PutdownOrientationRPY": [
            {
                "value": {
                    "typeName": "::armarx::Vector3Base", 
                    "value": {
                        "x": 0, 
                        "y": 0, 
                        "z": 0
                    }
                }
            }
        ], 
        "classes": [
            {
                "uncertainty": {
                    "typeName": "::memoryx::DiscreteProbabilityBase", 
                    "value": {
                        "prob": 1
                    }
                }, 
                "value": {
                    "typeName": "::armarx::StringVariantData", 
                    "value": "ocado_mockup_env"
                }
            }
        ], 
        "defaultMotionModel": [
            {
                "value": {
                    "typeName": "::armarx::StringVariantData", 
                    "value": "Static"
                }
            }
        ], 
        "existenceCertainty": [
            {
                "value": {
                    "typeName": "::armarx::FloatVariantData", 
                    "value": 1
                }
            }
        ], 
        "isInstanceable": [
            {
                "value": {
                    "typeName": "::armarx::BoolVariantData", 
                    "value": true
                }
            }
        ], 
        "orientation": [
            {
                "value": {
                    "typeName": "::armarx::FramedOrientationBase", 
                    "value": {
                        "agent": "", 
                        "frame": "Global", 
                        "qw": 0.7071067690849304, 
                        "qx": 0.7071067094802856, 
                        "qy": 0, 
                        "qz": 0
                    }
                }
            }
        ], 
        "parentClasses": [
            {
                "value": {
                    "typeName": "::armarx::StringVariantData", 
                    "value": ""
                }
            }
        ], 
        "position": [
            {
                "uncertainty": {
                    "typeName": "::memoryx::MultivariateNormalDistributionBase", 
                    "value": {
                        "cov": [
                            10000, 
                            0, 
                            0, 
                            0, 
                            10000, 
                            0, 
                            0, 
                            0, 
                            10000
                        ], 
                        "mean": [
                            0, 
                            0, 
                            0
                        ]
                    }
                }, 
                "value": {
                    "typeName": "::armarx::FramedPositionBase", 
                    "value": {
                        "agent": "", 
                        "frame": "Global", 
                        "x": 6657.37353515625, 
                        "y": 6671.87744140625, 
                        "z": 0.0009536748984828591
                    }
                }
            }
        ], 
        "priority": [
            {
                "value": {
                    "typeName": "::armarx::IntVariantData", 
                    "value": 50
                }
            }
        ], 
        "recognitionMethod": [
            {
                "value": {
                    "typeName": "::armarx::StringVariantData", 
                    "value": "<none>"
                }
            }
        ]
    }, 
    "name": "ocado_mockup_env", 
    "type": "::memoryx::ObjectInstanceBase"
}
{
    "_id": "5", 
    "attrs": {
        "IvFile": [
            {
                "value": {
                    "typeName": "::memoryx::MongoDBRefBase", 
                    "value": {
                        "dbName": "CeBITdb", 
                        "docId": "5ba21476cb504b73c5e87cd7"
                    }
                }
            }
        ], 
        "IvFileCollision": [
            {
                "value": {
                    "typeName": "::memoryx::MongoDBRefBase", 
                    "value": {
                        "dbName": "CeBITdb", 
                        "docId": "5ba21476cb504b73c5e87cd7"
                    }
                }
            }
        ], 
        "ManipulationFile": [
            {
                "value": {
                    "typeName": "::memoryx::MongoDBRefBase", 
                    "value": {
                        "dbName": "CeBITdb", 
                        "docId": "5ba21476cb504b73c5e87cda"
                    }
                }
            }
        ], 
        "PutdownOrientationRPY": [
            {
                "value": {
                    "typeName": "::armarx::Vector3Base", 
                    "value": {
                        "x": 0, 
                        "y": 0, 
                        "z": 0
                    }
                }
            }
        ], 
        "classes": [
            {
                "uncertainty": {
                    "typeName": "::memoryx::DiscreteProbabilityBase", 
                    "value": {
                        "prob": 1
                    }
                }, 
                "value": {
                    "typeName": "::armarx::StringVariantData", 
                    "value": "obstacle_box"
                }
            }
        ], 
        "defaultMotionModel": [
            {
                "value": {
                    "typeName": "::armarx::StringVariantData", 
                    "value": "Static"
                }
            }
        ], 
        "existenceCertainty": [
            {
                "value": {
                    "typeName": "::armarx::FloatVariantData", 
                    "value": 1
                }
            }
        ], 
        "isInstanceable": [
            {
                "value": {
                    "typeName": "::armarx::BoolVariantData", 
                    "value": true
                }
            }
        ], 
        "orientation": [
            {
                "value": {
                    "typeName": "::armarx::FramedOrientationBase", 
                    "value": {
                        "agent": "", 
                        "frame": "Global", 
                        "qw": 0.4999998807907104, 
                        "qx": 0.5000000596046448, 
                        "qy": 0.5000001192092896, 
                        "qz": 0.4999999403953552
                    }
                }
            }
        ], 
        "parentClasses": [
            {
                "value": {
                    "typeName": "::armarx::StringVariantData", 
                    "value": ""
                }
            }
        ], 
        "position": [
            {
                "uncertainty": {
                    "typeName": "::memoryx::MultivariateNormalDistributionBase", 
                    "value": {
                        "cov": [
                            10000, 
                            0, 
                            0, 
                            0, 
                            10000, 
                            0, 
                            0, 
                            0, 
                            10000
                        ], 
                        "mean": [
                            0, 
                            0, 
                            0
                        ]
                    }
                }, 
                "value": {
                    "typeName": "::armarx::FramedPositionBase", 
                    "value": {
                        "agent": "", 
                        "frame": "Global", 
                        "x": 1952.560546875, 
                        "y": 8037.46142578125, 
                        "z": 200
                    }
                }
            }
        ], 
        "priority": [
            {
                "value": {
                    "typeName": "::armarx::IntVariantData", 
                    "value": 50
                }
            }
        ], 
        "recognitionMethod": [
            {
                "value": {
                    "typeName": "::armarx::StringVariantData", 
                    "value": "<none>"
                }
            }
        ]
    }, 
    "name": "obstacle_box", 
    "type": "::memoryx::ObjectInstanceBase"
}
{
    "_id": "6", 
    "attrs": {
        "IvFile": [
            {
                "value": {
                    "typeName": "::memoryx::MongoDBRefBase", 
                    "value": {
                        "dbName": "CeBITdb", 
                        "docId": "5ba21476cb504b73c5e87cd7"
                    }
                }
            }
        ], 
        "IvFileCollision": [
            {
                "value": {
                    "typeName": "::memoryx::MongoDBRefBase", 
                    "value": {
                        "dbName": "CeBITdb", 
                        "docId": "5ba21476cb504b73c5e87cd7"
                    }
                }
            }
        ], 
        "ManipulationFile": [
            {
                "value": {
                    "typeName": "::memoryx::MongoDBRefBase", 
                    "value": {
                        "dbName": "CeBITdb", 
                        "docId": "5ba21476cb504b73c5e87cda"
                    }
                }
            }
        ], 
        "PutdownOrientationRPY": [
            {
                "value": {
                    "typeName": "::armarx::Vector3Base", 
                    "value": {
                        "x": 0, 
                        "y": 0, 
                        "z": 0
                    }
                }
            }
        ], 
        "classes": [
            {
                "uncertainty": {
                    "typeName": "::memoryx::DiscreteProbabilityBase", 
                    "value": {
                        "prob": 1
                    }
                }, 
                "value": {
                    "typeName": "::armarx::StringVariantData", 
                    "value": "obstacle_box"
                }
            }
        ], 
        "defaultMotionModel": [
            {
                "value": {
                    "typeName": "::armarx::StringVariantData", 
                    "value": "Static"
                }
            }
        ], 
        "existenceCertainty": [
            {
                "value": {
                    "typeName": "::armarx::FloatVariantData", 
                    "value": 1
                }
            }
        ], 
        "isInstanceable": [
            {
                "value": {
                    "typeName": "::armarx::BoolVariantData", 
                    "value": true
                }
            }
        ], 
        "orientation": [
            {
                "value": {
                    "typeName": "::armarx::FramedOrientationBase", 
                    "value": {
                        "agent": "", 
                        "frame": "Global", 
                        "qw": 0.7071067690849304, 
                        "qx": 0.7071067094802856, 
                        "qy": 0, 
                        "qz": 0
                    }
                }
            }
        ], 
        "parentClasses": [
            {
                "value": {
                    "typeName": "::armarx::StringVariantData", 
                    "value": ""
                }
            }
        ], 
        "position": [
            {
                "uncertainty": {
                    "typeName": "::memoryx::MultivariateNormalDistributionBase", 
                    "value": {
                        "cov": [
                            10000, 
                            0, 
                            0, 
                            0, 
                            10000, 
                            0, 
                            0, 
                            0, 
                            10000
                        ], 
                        "mean": [
                            0, 
                            0, 
                            0
                        ]
                    }
                }, 
                "value": {
                    "typeName": "::armarx::FramedPositionBase", 
                    "value": {
                        "agent": "", 
                        "frame": "Global", 
                        "x": 6047.5400390625, 
                        "y": 5601.255859375, 
                        "z": 200
                    }
                }
            }
        ], 
        "priority": [
            {
                "value": {
                    "typeName": "::armarx::IntVariantData", 
                    "value": 50
                }
            }
        ], 
        "recognitionMethod": [
            {
                "value": {
                    "typeName": "::armarx::StringVariantData", 
                    "value": "<none>"
                }
            }
        ]
    }, 
    "name": "obstacle_box", 
    "type": "::memoryx::ObjectInstanceBase"
}
{
    "_id": "8", 
    "attrs": {
        "IvFile": [
            {
                "value": {
                    "typeName": "::memoryx::MongoDBRefBase", 
                    "value": {
                        "dbName": "CeBITdb", 
                        "docId": "5b1933cf1e5629c55bd6c0c8"
                    }
                }
            }
        ], 
        "IvFileCollision": [
            {
                "value": {
                    "typeName": "::memoryx::MongoDBRefBase", 
                    "value": {
                        "dbName": "CeBITdb", 
                        "docId": "5b1933cf1e5629c55bd6c0c8"
                    }
                }
            }
        ], 
        "ManipulationFile": [
            {
                "value": {
                    "typeName": "::memoryx::MongoDBRefBase", 
                    "value": {
                        "dbName": "CeBITdb", 
                        "docId": "5b1933cf1e5629c55bd6c0cb"
                    }
                }
            }
        ], 
        "PutdownOrientationRPY": [
            {
                "value": {
                    "typeName": "::armarx::Vector3Base", 
                    "value": {
                        "x": 0, 
                        "y": 0, 
                        "z": 0
                    }
                }
            }
        ], 
        "classes": [
            {
                "uncertainty": {
                    "typeName": "::memoryx::DiscreteProbabilityBase", 
                    "value": {
                        "prob": 1
                    }
                }, 
                "value": {
                    "typeName": "::armarx::StringVariantData", 
                    "value": "guard_support_full_with_light"
                }
            }
        ], 
        "defaultMotionModel": [
            {
                "value": {
                    "typeName": "::armarx::StringVariantData", 
                    "value": "Static"
                }
            }
        ], 
        "existenceCertainty": [
            {
                "value": {
                    "typeName": "::armarx::FloatVariantData", 
                    "value": 1
                }
            }
        ], 
        "isInstanceable": [
            {
                "value": {
                    "typeName": "::armarx::BoolVariantData", 
                    "value": true
                }
            }
        ], 
        "orientation": [
            {
                "value": {
                    "typeName": "::armarx::FramedOrientationBase", 
                    "value": {
                        "agent": "", 
                        "frame": "Global", 
                        "qw": 0.7071067690849304, 
                        "qx": 0, 
                        "qy": 0, 
                        "qz": -0.7071067094802856
                    }
                }
            }
        ], 
        "parentClasses": [
            {
                "value": {
                    "typeName": "::armarx::StringVariantData", 
                    "value": ""
                }
            }
        ], 
        "position": [
            {
                "uncertainty": {
                    "typeName": "::memoryx::MultivariateNormalDistributionBase", 
                    "value": {
                        "cov": [
                            10000, 
                            0, 
                            0, 
                            0, 
                            10000, 
                            0, 
                            0, 
                            0, 
                            10000
                        ], 
                        "mean": [
                            0, 
                            0, 
                            0
                        ]
                    }
                }, 
                "value": {
                    "typeName": "::armarx::FramedPositionBase", 
                    "value": {
                        "agent": "", 
                        "frame": "Global", 
                        "x": 3776.73681640625, 
                        "y": 9574.775390625, 
                        "z": -0.001549720764160156
                    }
                }
            }
        ], 
        "priority": [
            {
                "value": {
                    "typeName": "::armarx::IntVariantData", 
                    "value": 50
                }
            }
        ], 
        "recognitionMethod": [
            {
                "value": {
                    "typeName": "::armarx::StringVariantData", 
                    "value": "<none>"
                }
            }
        ]
    }, 
    "name": "guard_support_full_with_light", 
    "type": "::memoryx::ObjectInstanceBase"
}
{
    "_id": "9", 
    "attrs": {
        "IvFile": [
            {
                "value": {
                    "typeName": "::memoryx::MongoDBRefBase", 
                    "value": {
                        "dbName": "CeBITdb", 
                        "docId": "5ba21b8dcb504b73c5e87ce2"
                    }
                }
            }
        ], 
        "IvFileCollision": [
            {
                "value": {
                    "typeName": "::memoryx::MongoDBRefBase", 
                    "value": {
                        "dbName": "CeBITdb", 
                        "docId": "5ba21b8dcb504b73c5e87ce3"
                    }
                }
            }
        ], 
        "ManipulationFile": [
            {
                "value": {
                    "typeName": "::memoryx::MongoDBRefBase", 
                    "value": {
                        "dbName": "CeBITdb", 
                        "docId": "5ba21b90cb504b73c5e87ce7"
                    }
                }
            }
        ], 
        "PutdownOrientationRPY": [
            {
                "value": {
                    "typeName": "::armarx::Vector3Base", 
                    "value": {
                        "x": 0, 
                        "y": 0, 
                        "z": 0
                    }
                }
            }
        ], 
        "classes": [
            {
                "uncertainty": {
                    "typeName": "::memoryx::DiscreteProbabilityBase", 
                    "value": {
                        "prob": 1
                    }
                }, 
                "value": {
                    "typeName": "::armarx::StringVariantData", 
                    "value": "lower_conveyor"
                }
            }
        ], 
        "defaultMotionModel": [
            {
                "value": {
                    "typeName": "::armarx::StringVariantData", 
                    "value": "Static"
                }
            }
        ], 
        "existenceCertainty": [
            {
                "value": {
                    "typeName": "::armarx::FloatVariantData", 
                    "value": 1
                }
            }
        ], 
        "isInstanceable": [
            {
                "value": {
                    "typeName": "::armarx::BoolVariantData", 
                    "value": true
                }
            }
        ], 
        "orientation": [
            {
                "value": {
                    "typeName": "::armarx::FramedOrientationBase", 
                    "value": {
                        "agent": "", 
                        "frame": "Global", 
                        "qw": 0.4999998807907104, 
                        "qx": 0.4999999403953552, 
                        "qy": 0.5000001192092896, 
                        "qz": 0.5000000596046448
                    }
                }
            }
        ], 
        "parentClasses": [
            {
                "value": {
                    "typeName": "::armarx::StringVariantData", 
                    "value": ""
                }
            }
        ], 
        "position": [
            {
                "uncertainty": {
                    "typeName": "::memoryx::MultivariateNormalDistributionBase", 
                    "value": {
                        "cov": [
                            10000, 
                            0, 
                            0, 
                            0, 
                            10000, 
                            0, 
                            0, 
                            0, 
                            10000
                        ], 
                        "mean": [
                            0, 
                            0, 
                            0
                        ]
                    }
                }, 
                "value": {
                    "typeName": "::armarx::FramedPositionBase", 
                    "value": {
                        "agent": "", 
                        "frame": "Global", 
                        "x": 4507.5615234375, 
                        "y": 11141.68359375, 
                        "z": -316.9939270019531
                    }
                }
            }
        ], 
        "priority": [
            {
                "value": {
                    "typeName": "::armarx::IntVariantData", 
                    "value": 50
                }
            }
        ], 
        "recognitionMethod": [
            {
                "value": {
                    "typeName": "::armarx::StringVariantData", 
                    "value": "<none>"
                }
            }
        ]
    }, 
    "name": "lower_conveyor", 
    "type": "::memoryx::ObjectInstanceBase"
}
