{
    "_id": "1", 
    "attrs": {
        "IvFile": [
            {
                "value": {
                    "typeName": "::memoryx::MongoDBRefBase", 
                    "value": {
                        "dbName": "OMLdb", 
                        "docId": "5df1f11f39cf0c0f7163ca91"
                    }
                }
            }
        ], 
        "IvFileCollision": [
            {
                "value": {
                    "typeName": "::memoryx::MongoDBRefBase", 
                    "value": {
                        "dbName": "OMLdb", 
                        "docId": "5df1f11f39cf0c0f7163ca91"
                    }
                }
            }
        ], 
        "ManipulationFile": [
            {
                "value": {
                    "typeName": "::memoryx::MongoDBRefBase", 
                    "value": {
                        "dbName": "OMLdb", 
                        "docId": "5df1f12039cf0c0f7163caa4"
                    }
                }
            }
        ], 
        "classes": [
            {
                "uncertainty": {
                    "typeName": "::memoryx::DiscreteProbabilityBase", 
                    "value": {
                        "prob": 1
                    }
                }, 
                "value": {
                    "typeName": "::armarx::StringVariantData", 
                    "value": "high-ikea-table"
                }
            }
        ], 
        "existenceCertainty": [
            {
                "value": {
                    "typeName": "::armarx::FloatVariantData", 
                    "value": 1
                }
            }
        ], 
        "isInstanceable": [], 
        "orientation": [
            {
                "value": {
                    "typeName": "::armarx::FramedOrientationBase", 
                    "value": {
                        "agent": "", 
                        "frame": "Global", 
                        "qw": 0.70710688829422, 
                        "qx": 0, 
                        "qy": 0, 
                        "qz": 0.7071065902709961
                    }
                }
            }
        ], 
        "parentClasses": [], 
        "position": [
            {
                "value": {
                    "typeName": "::armarx::FramedPositionBase", 
                    "value": {
                        "agent": "", 
                        "frame": "Global", 
                        "x": 4601.59765625, 
                        "y": 4824.044921875, 
                        "z": -0.006422400940209627
                    }
                }
            }
        ], 
        "priority": [
            {
                "value": {
                    "typeName": "::armarx::IntVariantData", 
                    "value": 50
                }
            }
        ]
    }, 
    "name": "high-ikea-table", 
    "type": "::memoryx::ObjectInstanceBase"
}
{
    "_id": "10", 
    "attrs": {
        "IvFile": [
            {
                "value": {
                    "typeName": "::memoryx::MongoDBRefBase", 
                    "value": {
                        "dbName": "CeBITdb", 
                        "docId": "5df1fdbb5c31670dd698821e"
                    }
                }
            }
        ], 
        "IvFileCollision": [
            {
                "value": {
                    "typeName": "::memoryx::MongoDBRefBase", 
                    "value": {
                        "dbName": "CeBITdb", 
                        "docId": "5df1fdbb5c31670dd698821e"
                    }
                }
            }
        ], 
        "ManipulationFile": [
            {
                "value": {
                    "typeName": "::memoryx::MongoDBRefBase", 
                    "value": {
                        "dbName": "CeBITdb", 
                        "docId": "5df1fdbc5c31670dd6988225"
                    }
                }
            }
        ], 
        "PutdownOrientationRPY": [
            {
                "value": {
                    "typeName": "::armarx::Vector3Base", 
                    "value": {
                        "x": 0, 
                        "y": 0, 
                        "z": 0
                    }
                }
            }
        ], 
        "classes": [
            {
                "uncertainty": {
                    "typeName": "::memoryx::DiscreteProbabilityBase", 
                    "value": {
                        "prob": 1
                    }
                }, 
                "value": {
                    "typeName": "::armarx::StringVariantData", 
                    "value": "soja-milk"
                }
            }
        ], 
        "defaultMotionModel": [
            {
                "value": {
                    "typeName": "::armarx::StringVariantData", 
                    "value": "Static"
                }
            }
        ], 
        "existenceCertainty": [
            {
                "value": {
                    "typeName": "::armarx::FloatVariantData", 
                    "value": 1
                }
            }
        ], 
        "featureFile": [
            {
                "value": {
                    "typeName": "::memoryx::MongoDBRefBase", 
                    "value": {
                        "dbName": "CeBITdb", 
                        "docId": "5df1ff485c31670dd6988265"
                    }
                }
            }
        ], 
        "isInstanceable": [
            {
                "value": {
                    "typeName": "::armarx::BoolVariantData", 
                    "value": true
                }
            }
        ], 
        "orientation": [
            {
                "value": {
                    "typeName": "::armarx::FramedOrientationBase", 
                    "value": {
                        "agent": "", 
                        "frame": "Global", 
                        "qw": 0.70710688829422, 
                        "qx": -0.7071065902709961, 
                        "qy": -2.08684758362665e-09, 
                        "qz": -2.395386555775758e-09
                    }
                }
            }
        ], 
        "parentClasses": [
            {
                "value": {
                    "typeName": "::armarx::StringVariantData", 
                    "value": ""
                }
            }
        ], 
        "position": [
            {
                "value": {
                    "typeName": "::armarx::FramedPositionBase", 
                    "value": {
                        "agent": "", 
                        "frame": "Global", 
                        "x": 4734.35498046875, 
                        "y": 4700.880859375, 
                        "z": 596.4010620117188
                    }
                }
            }
        ], 
        "priority": [
            {
                "value": {
                    "typeName": "::armarx::IntVariantData", 
                    "value": 50
                }
            }
        ], 
        "recognitionMethod": [
            {
                "value": {
                    "typeName": "::armarx::StringVariantData", 
                    "value": "TexturedObjectRecognition"
                }
            }
        ], 
        "texFiles": [
            {
                "value": {
                    "typeName": "::memoryx::MongoDBRefBase", 
                    "value": {
                        "dbName": "CeBITdb", 
                        "docId": "5df1fdbc5c31670dd6988220"
                    }
                }
            }
        ]
    }, 
    "name": "soja-milk", 
    "type": "::memoryx::ObjectInstanceBase"
}
{
    "_id": "11", 
    "attrs": {
        "IvFile": [
            {
                "value": {
                    "typeName": "::memoryx::MongoDBRefBase", 
                    "value": {
                        "dbName": "CeBITdb", 
                        "docId": "5df201165c31670dd6988284"
                    }
                }
            }
        ], 
        "IvFileCollision": [
            {
                "value": {
                    "typeName": "::memoryx::MongoDBRefBase", 
                    "value": {
                        "dbName": "CeBITdb", 
                        "docId": "5df201165c31670dd6988284"
                    }
                }
            }
        ], 
        "ManipulationFile": [
            {
                "value": {
                    "typeName": "::memoryx::MongoDBRefBase", 
                    "value": {
                        "dbName": "CeBITdb", 
                        "docId": "5df201165c31670dd698828a"
                    }
                }
            }
        ], 
        "PutdownOrientationRPY": [
            {
                "value": {
                    "typeName": "::armarx::Vector3Base", 
                    "value": {
                        "x": 0, 
                        "y": 0, 
                        "z": 0
                    }
                }
            }
        ], 
        "classes": [
            {
                "uncertainty": {
                    "typeName": "::memoryx::DiscreteProbabilityBase", 
                    "value": {
                        "prob": 1
                    }
                }, 
                "value": {
                    "typeName": "::armarx::StringVariantData", 
                    "value": "grapefruit-juice"
                }
            }
        ], 
        "defaultMotionModel": [
            {
                "value": {
                    "typeName": "::armarx::StringVariantData", 
                    "value": "Static"
                }
            }
        ], 
        "existenceCertainty": [
            {
                "value": {
                    "typeName": "::armarx::FloatVariantData", 
                    "value": 1
                }
            }
        ], 
        "featureFile": [
            {
                "value": {
                    "typeName": "::memoryx::MongoDBRefBase", 
                    "value": {
                        "dbName": "CeBITdb", 
                        "docId": "5df23bdc1552a94f91aaa233"
                    }
                }
            }
        ], 
        "isInstanceable": [
            {
                "value": {
                    "typeName": "::armarx::BoolVariantData", 
                    "value": true
                }
            }
        ], 
        "orientation": [
            {
                "value": {
                    "typeName": "::armarx::FramedOrientationBase", 
                    "value": {
                        "agent": "", 
                        "frame": "Global", 
                        "qw": 0.6988270878791809, 
                        "qx": -0.6988271474838257, 
                        "qy": -0.10789184272289276, 
                        "qz": 0.10789183527231216
                    }
                }
            }
        ], 
        "parentClasses": [
            {
                "value": {
                    "typeName": "::armarx::StringVariantData", 
                    "value": ""
                }
            }
        ], 
        "position": [
            {
                "value": {
                    "typeName": "::armarx::FramedPositionBase", 
                    "value": {
                        "agent": "", 
                        "frame": "Global", 
                        "x": 3945.999755859375, 
                        "y": 4819.28759765625, 
                        "z": 611.7361450195312
                    }
                }
            }
        ], 
        "priority": [
            {
                "value": {
                    "typeName": "::armarx::IntVariantData", 
                    "value": 50
                }
            }
        ], 
        "recognitionMethod": [
            {
                "value": {
                    "typeName": "::armarx::StringVariantData", 
                    "value": "TexturedObjectRecognition"
                }
            }
        ], 
        "texFiles": [
            {
                "value": {
                    "typeName": "::memoryx::MongoDBRefBase", 
                    "value": {
                        "dbName": "CeBITdb", 
                        "docId": "5df201165c31670dd6988286"
                    }
                }
            }
        ]
    }, 
    "name": "grapefruit-juice", 
    "type": "::memoryx::ObjectInstanceBase"
}
{
    "_id": "2", 
    "attrs": {
        "IvFile": [
            {
                "value": {
                    "typeName": "::memoryx::MongoDBRefBase", 
                    "value": {
                        "dbName": "OMLdb", 
                        "docId": "5df1f11f39cf0c0f7163ca91"
                    }
                }
            }
        ], 
        "IvFileCollision": [
            {
                "value": {
                    "typeName": "::memoryx::MongoDBRefBase", 
                    "value": {
                        "dbName": "OMLdb", 
                        "docId": "5df1f11f39cf0c0f7163ca91"
                    }
                }
            }
        ], 
        "ManipulationFile": [
            {
                "value": {
                    "typeName": "::memoryx::MongoDBRefBase", 
                    "value": {
                        "dbName": "OMLdb", 
                        "docId": "5df1f12039cf0c0f7163caa4"
                    }
                }
            }
        ], 
        "classes": [
            {
                "uncertainty": {
                    "typeName": "::memoryx::DiscreteProbabilityBase", 
                    "value": {
                        "prob": 1
                    }
                }, 
                "value": {
                    "typeName": "::armarx::StringVariantData", 
                    "value": "high-ikea-table"
                }
            }
        ], 
        "existenceCertainty": [
            {
                "value": {
                    "typeName": "::armarx::FloatVariantData", 
                    "value": 1
                }
            }
        ], 
        "isInstanceable": [], 
        "orientation": [
            {
                "value": {
                    "typeName": "::armarx::FramedOrientationBase", 
                    "value": {
                        "agent": "", 
                        "frame": "Global", 
                        "qw": 1, 
                        "qx": 0, 
                        "qy": 0, 
                        "qz": 0
                    }
                }
            }
        ], 
        "parentClasses": [], 
        "position": [
            {
                "value": {
                    "typeName": "::armarx::FramedPositionBase", 
                    "value": {
                        "agent": "", 
                        "frame": "Global", 
                        "x": 5383.25048828125, 
                        "y": 4217.33349609375, 
                        "z": -0.0054985289461910725
                    }
                }
            }
        ], 
        "priority": [
            {
                "value": {
                    "typeName": "::armarx::IntVariantData", 
                    "value": 50
                }
            }
        ]
    }, 
    "name": "high-ikea-table", 
    "type": "::memoryx::ObjectInstanceBase"
}
{
    "_id": "3", 
    "attrs": {
        "IvFile": [
            {
                "value": {
                    "typeName": "::memoryx::MongoDBRefBase", 
                    "value": {
                        "dbName": "OMLdb", 
                        "docId": "5df1f11f39cf0c0f7163ca91"
                    }
                }
            }
        ], 
        "IvFileCollision": [
            {
                "value": {
                    "typeName": "::memoryx::MongoDBRefBase", 
                    "value": {
                        "dbName": "OMLdb", 
                        "docId": "5df1f11f39cf0c0f7163ca91"
                    }
                }
            }
        ], 
        "ManipulationFile": [
            {
                "value": {
                    "typeName": "::memoryx::MongoDBRefBase", 
                    "value": {
                        "dbName": "OMLdb", 
                        "docId": "5df1f12039cf0c0f7163caa4"
                    }
                }
            }
        ], 
        "classes": [
            {
                "uncertainty": {
                    "typeName": "::memoryx::DiscreteProbabilityBase", 
                    "value": {
                        "prob": 1
                    }
                }, 
                "value": {
                    "typeName": "::armarx::StringVariantData", 
                    "value": "high-ikea-table"
                }
            }
        ], 
        "existenceCertainty": [
            {
                "value": {
                    "typeName": "::armarx::FloatVariantData", 
                    "value": 1
                }
            }
        ], 
        "isInstanceable": [], 
        "orientation": [
            {
                "value": {
                    "typeName": "::armarx::FramedOrientationBase", 
                    "value": {
                        "agent": "", 
                        "frame": "Global", 
                        "qw": 0.70710688829422, 
                        "qx": 0, 
                        "qy": 0, 
                        "qz": 0.7071065902709961
                    }
                }
            }
        ], 
        "parentClasses": [], 
        "position": [
            {
                "value": {
                    "typeName": "::armarx::FramedPositionBase", 
                    "value": {
                        "agent": "", 
                        "frame": "Global", 
                        "x": 3382.302978515625, 
                        "y": 4820.318359375, 
                        "z": -0.00570714520290494
                    }
                }
            }
        ], 
        "priority": [
            {
                "value": {
                    "typeName": "::armarx::IntVariantData", 
                    "value": 50
                }
            }
        ]
    }, 
    "name": "high-ikea-table", 
    "type": "::memoryx::ObjectInstanceBase"
}
{
    "_id": "4", 
    "attrs": {
        "IvFile": [
            {
                "value": {
                    "typeName": "::memoryx::MongoDBRefBase", 
                    "value": {
                        "dbName": "CeBITdb", 
                        "docId": "5df201ad5c31670dd6988296"
                    }
                }
            }
        ], 
        "IvFileCollision": [
            {
                "value": {
                    "typeName": "::memoryx::MongoDBRefBase", 
                    "value": {
                        "dbName": "CeBITdb", 
                        "docId": "5df201ad5c31670dd6988296"
                    }
                }
            }
        ], 
        "ManipulationFile": [
            {
                "value": {
                    "typeName": "::memoryx::MongoDBRefBase", 
                    "value": {
                        "dbName": "CeBITdb", 
                        "docId": "5df201ad5c31670dd69882a6"
                    }
                }
            }
        ], 
        "PutdownOrientationRPY": [
            {
                "value": {
                    "typeName": "::armarx::Vector3Base", 
                    "value": {
                        "x": 0, 
                        "y": 0, 
                        "z": 0
                    }
                }
            }
        ], 
        "classes": [
            {
                "uncertainty": {
                    "typeName": "::memoryx::DiscreteProbabilityBase", 
                    "value": {
                        "prob": 1
                    }
                }, 
                "value": {
                    "typeName": "::armarx::StringVariantData", 
                    "value": "peppermint-tea"
                }
            }
        ], 
        "defaultMotionModel": [
            {
                "value": {
                    "typeName": "::armarx::StringVariantData", 
                    "value": "Static"
                }
            }
        ], 
        "existenceCertainty": [
            {
                "value": {
                    "typeName": "::armarx::FloatVariantData", 
                    "value": 1
                }
            }
        ], 
        "featureFile": [
            {
                "value": {
                    "typeName": "::memoryx::MongoDBRefBase", 
                    "value": {
                        "dbName": "CeBITdb", 
                        "docId": "5df23f661552a94f91aaa28e"
                    }
                }
            }
        ], 
        "isInstanceable": [
            {
                "value": {
                    "typeName": "::armarx::BoolVariantData", 
                    "value": true
                }
            }
        ], 
        "orientation": [
            {
                "value": {
                    "typeName": "::armarx::FramedOrientationBase", 
                    "value": {
                        "agent": "", 
                        "frame": "Global", 
                        "qw": 0.6808762550354004, 
                        "qx": -0.6833937764167786, 
                        "qy": -0.1859094202518463, 
                        "qz": 0.18659652769565582
                    }
                }
            }
        ], 
        "parentClasses": [
            {
                "value": {
                    "typeName": "::armarx::StringVariantData", 
                    "value": ""
                }
            }
        ], 
        "position": [
            {
                "value": {
                    "typeName": "::armarx::FramedPositionBase", 
                    "value": {
                        "agent": "", 
                        "frame": "Global", 
                        "x": 2759.882568359375, 
                        "y": 4849.4814453125, 
                        "z": 542.8224487304688
                    }
                }
            }
        ], 
        "priority": [
            {
                "value": {
                    "typeName": "::armarx::IntVariantData", 
                    "value": 50
                }
            }
        ], 
        "recognitionMethod": [
            {
                "value": {
                    "typeName": "::armarx::StringVariantData", 
                    "value": "TexturedObjectRecognition"
                }
            }
        ], 
        "texFiles": [
            {
                "value": {
                    "typeName": "::memoryx::MongoDBRefBase", 
                    "value": {
                        "dbName": "CeBITdb", 
                        "docId": "5df201ad5c31670dd6988298"
                    }
                }
            }
        ]
    }, 
    "name": "peppermint-tea", 
    "type": "::memoryx::ObjectInstanceBase"
}
{
    "_id": "5", 
    "attrs": {
        "IvFile": [
            {
                "value": {
                    "typeName": "::memoryx::MongoDBRefBase", 
                    "value": {
                        "dbName": "CeBITdb", 
                        "docId": "5df2093438a329d027a80551"
                    }
                }
            }
        ], 
        "IvFileCollision": [
            {
                "value": {
                    "typeName": "::memoryx::MongoDBRefBase", 
                    "value": {
                        "dbName": "CeBITdb", 
                        "docId": "5df2093438a329d027a80551"
                    }
                }
            }
        ], 
        "ManipulationFile": [
            {
                "value": {
                    "typeName": "::memoryx::MongoDBRefBase", 
                    "value": {
                        "dbName": "CeBITdb", 
                        "docId": "5df2093438a329d027a80556"
                    }
                }
            }
        ], 
        "PutdownOrientationRPY": [
            {
                "value": {
                    "typeName": "::armarx::Vector3Base", 
                    "value": {
                        "x": 0, 
                        "y": 0, 
                        "z": 0
                    }
                }
            }
        ], 
        "classes": [
            {
                "uncertainty": {
                    "typeName": "::memoryx::DiscreteProbabilityBase", 
                    "value": {
                        "prob": 1
                    }
                }, 
                "value": {
                    "typeName": "::armarx::StringVariantData", 
                    "value": "wildberry-tea"
                }
            }
        ], 
        "defaultMotionModel": [
            {
                "value": {
                    "typeName": "::armarx::StringVariantData", 
                    "value": "Static"
                }
            }
        ], 
        "existenceCertainty": [
            {
                "value": {
                    "typeName": "::armarx::FloatVariantData", 
                    "value": 1
                }
            }
        ], 
        "featureFile": [
            {
                "value": {
                    "typeName": "::memoryx::MongoDBRefBase", 
                    "value": {
                        "dbName": "CeBITdb", 
                        "docId": "5df247aa1552a94f91aaa2a9"
                    }
                }
            }
        ], 
        "isInstanceable": [
            {
                "value": {
                    "typeName": "::armarx::BoolVariantData", 
                    "value": true
                }
            }
        ], 
        "orientation": [
            {
                "value": {
                    "typeName": "::armarx::FramedOrientationBase", 
                    "value": {
                        "agent": "", 
                        "frame": "Global", 
                        "qw": 0.9761938452720642, 
                        "qx": 0, 
                        "qy": 0, 
                        "qz": 0.2169000208377838
                    }
                }
            }
        ], 
        "parentClasses": [
            {
                "value": {
                    "typeName": "::armarx::StringVariantData", 
                    "value": ""
                }
            }
        ], 
        "position": [
            {
                "value": {
                    "typeName": "::armarx::FramedPositionBase", 
                    "value": {
                        "agent": "", 
                        "frame": "Global", 
                        "x": 2932.0771484375, 
                        "y": 4751.8212890625, 
                        "z": 528.6982421875
                    }
                }
            }
        ], 
        "priority": [
            {
                "value": {
                    "typeName": "::armarx::IntVariantData", 
                    "value": 50
                }
            }
        ], 
        "recognitionMethod": [
            {
                "value": {
                    "typeName": "::armarx::StringVariantData", 
                    "value": "TexturedObjectRecognition"
                }
            }
        ], 
        "texFiles": [
            {
                "value": {
                    "typeName": "::memoryx::MongoDBRefBase", 
                    "value": {
                        "dbName": "CeBITdb", 
                        "docId": "5df2093438a329d027a80553"
                    }
                }
            }
        ]
    }, 
    "name": "wildberry-tea", 
    "type": "::memoryx::ObjectInstanceBase"
}
{
    "_id": "6", 
    "attrs": {
        "IvFile": [
            {
                "value": {
                    "typeName": "::memoryx::MongoDBRefBase", 
                    "value": {
                        "dbName": "CeBITdb", 
                        "docId": "5df2068f3dda57b3d1dc4ccf"
                    }
                }
            }
        ], 
        "IvFileCollision": [
            {
                "value": {
                    "typeName": "::memoryx::MongoDBRefBase", 
                    "value": {
                        "dbName": "CeBITdb", 
                        "docId": "5df2068f3dda57b3d1dc4ccf"
                    }
                }
            }
        ], 
        "ManipulationFile": [
            {
                "value": {
                    "typeName": "::memoryx::MongoDBRefBase", 
                    "value": {
                        "dbName": "CeBITdb", 
                        "docId": "5df2068f3dda57b3d1dc4cd3"
                    }
                }
            }
        ], 
        "PutdownOrientationRPY": [
            {
                "value": {
                    "typeName": "::armarx::Vector3Base", 
                    "value": {
                        "x": 0, 
                        "y": 0, 
                        "z": 0
                    }
                }
            }
        ], 
        "classes": [
            {
                "uncertainty": {
                    "typeName": "::memoryx::DiscreteProbabilityBase", 
                    "value": {
                        "prob": 1
                    }
                }, 
                "value": {
                    "typeName": "::armarx::StringVariantData", 
                    "value": "apple-tea"
                }
            }
        ], 
        "defaultMotionModel": [
            {
                "value": {
                    "typeName": "::armarx::StringVariantData", 
                    "value": "Static"
                }
            }
        ], 
        "existenceCertainty": [
            {
                "value": {
                    "typeName": "::armarx::FloatVariantData", 
                    "value": 1
                }
            }
        ], 
        "featureFile": [
            {
                "value": {
                    "typeName": "::memoryx::MongoDBRefBase", 
                    "value": {
                        "dbName": "CeBITdb", 
                        "docId": "5df2078f3dda57b3d1dc4cf1"
                    }
                }
            }
        ], 
        "isInstanceable": [
            {
                "value": {
                    "typeName": "::armarx::BoolVariantData", 
                    "value": true
                }
            }
        ], 
        "orientation": [
            {
                "value": {
                    "typeName": "::armarx::FramedOrientationBase", 
                    "value": {
                        "agent": "", 
                        "frame": "Global", 
                        "qw": -4.371138828673793e-08, 
                        "qx": 1, 
                        "qy": 0, 
                        "qz": 0
                    }
                }
            }
        ], 
        "parentClasses": [
            {
                "value": {
                    "typeName": "::armarx::StringVariantData", 
                    "value": ""
                }
            }
        ], 
        "position": [
            {
                "value": {
                    "typeName": "::armarx::FramedPositionBase", 
                    "value": {
                        "agent": "", 
                        "frame": "Global", 
                        "x": 2967.941650390625, 
                        "y": 4973.271484375, 
                        "z": 524.8485717773438
                    }
                }
            }
        ], 
        "priority": [
            {
                "value": {
                    "typeName": "::armarx::IntVariantData", 
                    "value": 50
                }
            }
        ], 
        "recognitionMethod": [
            {
                "value": {
                    "typeName": "::armarx::StringVariantData", 
                    "value": "TexturedObjectRecognition"
                }
            }
        ], 
        "texFiles": [
            {
                "value": {
                    "typeName": "::memoryx::MongoDBRefBase", 
                    "value": {
                        "dbName": "CeBITdb", 
                        "docId": "5df2068f3dda57b3d1dc4cd1"
                    }
                }
            }
        ]
    }, 
    "name": "apple-tea", 
    "type": "::memoryx::ObjectInstanceBase"
}
{
    "_id": "7", 
    "attrs": {
        "IvFile": [
            {
                "value": {
                    "typeName": "::memoryx::MongoDBRefBase", 
                    "value": {
                        "dbName": "CeBITdb", 
                        "docId": "5df209e438a329d027a80561"
                    }
                }
            }
        ], 
        "IvFileCollision": [
            {
                "value": {
                    "typeName": "::memoryx::MongoDBRefBase", 
                    "value": {
                        "dbName": "CeBITdb", 
                        "docId": "5df209e438a329d027a80561"
                    }
                }
            }
        ], 
        "ManipulationFile": [
            {
                "value": {
                    "typeName": "::memoryx::MongoDBRefBase", 
                    "value": {
                        "dbName": "CeBITdb", 
                        "docId": "5df209e438a329d027a80565"
                    }
                }
            }
        ], 
        "PutdownOrientationRPY": [
            {
                "value": {
                    "typeName": "::armarx::Vector3Base", 
                    "value": {
                        "x": 0, 
                        "y": 0, 
                        "z": 0
                    }
                }
            }
        ], 
        "classes": [
            {
                "uncertainty": {
                    "typeName": "::memoryx::DiscreteProbabilityBase", 
                    "value": {
                        "prob": 1
                    }
                }, 
                "value": {
                    "typeName": "::armarx::StringVariantData", 
                    "value": "melitta-coffee-filters"
                }
            }
        ], 
        "defaultMotionModel": [
            {
                "value": {
                    "typeName": "::armarx::StringVariantData", 
                    "value": "Static"
                }
            }
        ], 
        "existenceCertainty": [
            {
                "value": {
                    "typeName": "::armarx::FloatVariantData", 
                    "value": 1
                }
            }
        ], 
        "featureFile": [
            {
                "value": {
                    "typeName": "::memoryx::MongoDBRefBase", 
                    "value": {
                        "dbName": "CeBITdb", 
                        "docId": "5df23edf1552a94f91aaa264"
                    }
                }
            }
        ], 
        "isInstanceable": [
            {
                "value": {
                    "typeName": "::armarx::BoolVariantData", 
                    "value": true
                }
            }
        ], 
        "orientation": [
            {
                "value": {
                    "typeName": "::armarx::FramedOrientationBase", 
                    "value": {
                        "agent": "", 
                        "frame": "Global", 
                        "qw": 0.70710688829422, 
                        "qx": -0.7071065902709961, 
                        "qy": 0, 
                        "qz": 0
                    }
                }
            }
        ], 
        "parentClasses": [
            {
                "value": {
                    "typeName": "::armarx::StringVariantData", 
                    "value": ""
                }
            }
        ], 
        "position": [
            {
                "value": {
                    "typeName": "::armarx::FramedPositionBase", 
                    "value": {
                        "agent": "", 
                        "frame": "Global", 
                        "x": 3601.59375, 
                        "y": 4794.8369140625, 
                        "z": 595.8140258789062
                    }
                }
            }
        ], 
        "priority": [
            {
                "value": {
                    "typeName": "::armarx::IntVariantData", 
                    "value": 50
                }
            }
        ], 
        "recognitionMethod": [
            {
                "value": {
                    "typeName": "::armarx::StringVariantData", 
                    "value": "TexturedObjectRecognition"
                }
            }
        ], 
        "texFiles": [
            {
                "value": {
                    "typeName": "::memoryx::MongoDBRefBase", 
                    "value": {
                        "dbName": "CeBITdb", 
                        "docId": "5df209e438a329d027a80563"
                    }
                }
            }
        ]
    }, 
    "name": "melitta-coffee-filters", 
    "type": "::memoryx::ObjectInstanceBase"
}
{
    "_id": "8", 
    "attrs": {
        "IvFile": [
            {
                "value": {
                    "typeName": "::memoryx::MongoDBRefBase", 
                    "value": {
                        "dbName": "CeBITdb", 
                        "docId": "5df20b8d38a329d027a8059d"
                    }
                }
            }
        ], 
        "IvFileCollision": [
            {
                "value": {
                    "typeName": "::memoryx::MongoDBRefBase", 
                    "value": {
                        "dbName": "CeBITdb", 
                        "docId": "5df20b8d38a329d027a8059d"
                    }
                }
            }
        ], 
        "ManipulationFile": [
            {
                "value": {
                    "typeName": "::memoryx::MongoDBRefBase", 
                    "value": {
                        "dbName": "CeBITdb", 
                        "docId": "5df20b8d38a329d027a805a1"
                    }
                }
            }
        ], 
        "PutdownOrientationRPY": [
            {
                "value": {
                    "typeName": "::armarx::Vector3Base", 
                    "value": {
                        "x": 0, 
                        "y": 0, 
                        "z": 0
                    }
                }
            }
        ], 
        "classes": [
            {
                "uncertainty": {
                    "typeName": "::memoryx::DiscreteProbabilityBase", 
                    "value": {
                        "prob": 1
                    }
                }, 
                "value": {
                    "typeName": "::armarx::StringVariantData", 
                    "value": "edeka-coffee-filters"
                }
            }
        ], 
        "defaultMotionModel": [
            {
                "value": {
                    "typeName": "::armarx::StringVariantData", 
                    "value": "Static"
                }
            }
        ], 
        "existenceCertainty": [
            {
                "value": {
                    "typeName": "::armarx::FloatVariantData", 
                    "value": 1
                }
            }
        ], 
        "featureFile": [
            {
                "value": {
                    "typeName": "::memoryx::MongoDBRefBase", 
                    "value": {
                        "dbName": "CeBITdb", 
                        "docId": "5df23ea51552a94f91aaa255"
                    }
                }
            }
        ], 
        "isInstanceable": [
            {
                "value": {
                    "typeName": "::armarx::BoolVariantData", 
                    "value": true
                }
            }
        ], 
        "orientation": [
            {
                "value": {
                    "typeName": "::armarx::FramedOrientationBase", 
                    "value": {
                        "agent": "", 
                        "frame": "Global", 
                        "qw": 0.6895533800125122, 
                        "qx": -0.689553439617157, 
                        "qy": -0.15657612681388855, 
                        "qz": 0.15657611191272736
                    }
                }
            }
        ], 
        "parentClasses": [
            {
                "value": {
                    "typeName": "::armarx::StringVariantData", 
                    "value": ""
                }
            }
        ], 
        "position": [
            {
                "value": {
                    "typeName": "::armarx::FramedPositionBase", 
                    "value": {
                        "agent": "", 
                        "frame": "Global", 
                        "x": 3448.112548828125, 
                        "y": 4785.5380859375, 
                        "z": 581.4827270507812
                    }
                }
            }
        ], 
        "priority": [
            {
                "value": {
                    "typeName": "::armarx::IntVariantData", 
                    "value": 50
                }
            }
        ], 
        "recognitionMethod": [
            {
                "value": {
                    "typeName": "::armarx::StringVariantData", 
                    "value": "TexturedObjectRecognition"
                }
            }
        ], 
        "texFiles": [
            {
                "value": {
                    "typeName": "::memoryx::MongoDBRefBase", 
                    "value": {
                        "dbName": "CeBITdb", 
                        "docId": "5df20b8d38a329d027a8059f"
                    }
                }
            }
        ]
    }, 
    "name": "edeka-coffee-filters", 
    "type": "::memoryx::ObjectInstanceBase"
}
{
    "_id": "9", 
    "attrs": {
        "IvFile": [
            {
                "value": {
                    "typeName": "::memoryx::MongoDBRefBase", 
                    "value": {
                        "dbName": "CeBITdb", 
                        "docId": "5df1f65ec4f54e06e1aef59a"
                    }
                }
            }
        ], 
        "IvFileCollision": [
            {
                "value": {
                    "typeName": "::memoryx::MongoDBRefBase", 
                    "value": {
                        "dbName": "CeBITdb", 
                        "docId": "5df1f65ec4f54e06e1aef59a"
                    }
                }
            }
        ], 
        "ManipulationFile": [
            {
                "value": {
                    "typeName": "::memoryx::MongoDBRefBase", 
                    "value": {
                        "dbName": "CeBITdb", 
                        "docId": "5df1f65ec4f54e06e1aef5a0"
                    }
                }
            }
        ], 
        "PutdownOrientationRPY": [
            {
                "value": {
                    "typeName": "::armarx::Vector3Base", 
                    "value": {
                        "x": 0, 
                        "y": 0, 
                        "z": 0
                    }
                }
            }
        ], 
        "classes": [
            {
                "uncertainty": {
                    "typeName": "::memoryx::DiscreteProbabilityBase", 
                    "value": {
                        "prob": 1
                    }
                }, 
                "value": {
                    "typeName": "::armarx::StringVariantData", 
                    "value": "bio-milk"
                }
            }
        ], 
        "defaultMotionModel": [
            {
                "value": {
                    "typeName": "::armarx::StringVariantData", 
                    "value": "Static"
                }
            }
        ], 
        "existenceCertainty": [
            {
                "value": {
                    "typeName": "::armarx::FloatVariantData", 
                    "value": 1
                }
            }
        ], 
        "featureFile": [
            {
                "value": {
                    "typeName": "::memoryx::MongoDBRefBase", 
                    "value": {
                        "dbName": "CeBITdb", 
                        "docId": "5df24c951552a94f91aaa2ba"
                    }
                }
            }
        ], 
        "isInstanceable": [
            {
                "value": {
                    "typeName": "::armarx::BoolVariantData", 
                    "value": true
                }
            }
        ], 
        "orientation": [
            {
                "value": {
                    "typeName": "::armarx::FramedOrientationBase", 
                    "value": {
                        "agent": "", 
                        "frame": "Global", 
                        "qw": 0.70710688829422, 
                        "qx": -0.7071065902709961, 
                        "qy": 0, 
                        "qz": 0
                    }
                }
            }
        ], 
        "parentClasses": [
            {
                "value": {
                    "typeName": "::armarx::StringVariantData", 
                    "value": ""
                }
            }
        ], 
        "position": [
            {
                "value": {
                    "typeName": "::armarx::FramedPositionBase", 
                    "value": {
                        "agent": "", 
                        "frame": "Global", 
                        "x": 4850.11669921875, 
                        "y": 4700.36376953125, 
                        "z": 594.995361328125
                    }
                }
            }
        ], 
        "priority": [
            {
                "value": {
                    "typeName": "::armarx::IntVariantData", 
                    "value": 50
                }
            }
        ], 
        "recognitionMethod": [
            {
                "value": {
                    "typeName": "::armarx::StringVariantData", 
                    "value": "TexturedObjectRecognition"
                }
            }
        ], 
        "texFiles": [
            {
                "value": {
                    "typeName": "::memoryx::MongoDBRefBase", 
                    "value": {
                        "dbName": "CeBITdb", 
                        "docId": "5df1f65ec4f54e06e1aef59c"
                    }
                }
            }
        ]
    }, 
    "name": "bio-milk", 
    "type": "::memoryx::ObjectInstanceBase"
}
