{
    "_id": "1", 
    "attrs": {
        "IvFile": [
            {
                "value": {
                    "typeName": "::memoryx::MongoDBRefBase", 
                    "value": {
                        "dbName": "CeBITdb", 
                        "docId": "5aff284b2ca81b1b721c4d60"
                    }
                }
            }
        ], 
        "IvFileCollision": [
            {
                "value": {
                    "typeName": "::memoryx::MongoDBRefBase", 
                    "value": {
                        "dbName": "CeBITdb", 
                        "docId": "5aff284b2ca81b1b721c4d60"
                    }
                }
            }
        ], 
        "ManipulationFile": [
            {
                "value": {
                    "typeName": "::memoryx::MongoDBRefBase", 
                    "value": {
                        "dbName": "CeBITdb", 
                        "docId": "5afed7a6478639fe237cb68d"
                    }
                }
            }
        ], 
        "PutdownOrientationRPY": [
            {
                "value": {
                    "typeName": "::armarx::Vector3Base", 
                    "value": {
                        "x": 0, 
                        "y": 0, 
                        "z": 0
                    }
                }
            }
        ], 
        "classes": [
            {
                "uncertainty": {
                    "typeName": "::memoryx::DiscreteProbabilityBase", 
                    "value": {
                        "prob": 1
                    }
                }, 
                "value": {
                    "typeName": "::armarx::StringVariantData", 
                    "value": "workbench"
                }
            }
        ], 
        "defaultMotionModel": [
            {
                "value": {
                    "typeName": "::armarx::StringVariantData", 
                    "value": "Static"
                }
            }
        ], 
        "existenceCertainty": [
            {
                "value": {
                    "typeName": "::armarx::FloatVariantData", 
                    "value": 1
                }
            }
        ], 
        "isInstanceable": [
            {
                "value": {
                    "typeName": "::armarx::BoolVariantData", 
                    "value": true
                }
            }
        ], 
        "orientation": [
            {
                "value": {
                    "typeName": "::armarx::FramedOrientationBase", 
                    "value": {
                        "agent": "", 
                        "frame": "Global", 
                        "qw": 0.7071069478988647, 
                        "qx": 0, 
                        "qy": 0, 
                        "qz": 0.7071065306663513
                    }
                }
            }
        ], 
        "parentClasses": [
            {
                "value": {
                    "typeName": "::armarx::StringVariantData", 
                    "value": ""
                }
            }
        ], 
        "position": [
            {
                "uncertainty": {
                    "typeName": "::memoryx::MultivariateNormalDistributionBase", 
                    "value": {
                        "cov": [
                            10000, 
                            0, 
                            0, 
                            0, 
                            10000, 
                            0, 
                            0, 
                            0, 
                            10000
                        ], 
                        "mean": [
                            0, 
                            0, 
                            0
                        ]
                    }
                }, 
                "value": {
                    "typeName": "::armarx::FramedPositionBase", 
                    "value": {
                        "agent": "", 
                        "frame": "Global", 
                        "x": 4195.62646484375, 
                        "y": 4721.83203125, 
                        "z": 0
                    }
                }
            }
        ], 
        "priority": [
            {
                "value": {
                    "typeName": "::armarx::IntVariantData", 
                    "value": 50
                }
            }
        ], 
        "recognitionMethod": [
            {
                "value": {
                    "typeName": "::armarx::StringVariantData", 
                    "value": "<none>"
                }
            }
        ]
    }, 
    "name": "workbench", 
    "type": "::memoryx::ObjectInstanceBase"
}
{
    "_id": "4", 
    "attrs": {
        "IvFile": [
            {
                "value": {
                    "typeName": "::memoryx::MongoDBRefBase", 
                    "value": {
                        "dbName": "CeBITdb", 
                        "docId": "5b1933cf1e5629c55bd6c0c8"
                    }
                }
            }
        ], 
        "IvFileCollision": [
            {
                "value": {
                    "typeName": "::memoryx::MongoDBRefBase", 
                    "value": {
                        "dbName": "CeBITdb", 
                        "docId": "5b1933cf1e5629c55bd6c0c8"
                    }
                }
            }
        ], 
        "ManipulationFile": [
            {
                "value": {
                    "typeName": "::memoryx::MongoDBRefBase", 
                    "value": {
                        "dbName": "CeBITdb", 
                        "docId": "5b1933cf1e5629c55bd6c0cb"
                    }
                }
            }
        ], 
        "PutdownOrientationRPY": [
            {
                "value": {
                    "typeName": "::armarx::Vector3Base", 
                    "value": {
                        "x": 0, 
                        "y": 0, 
                        "z": 0
                    }
                }
            }
        ], 
        "classes": [
            {
                "uncertainty": {
                    "typeName": "::memoryx::DiscreteProbabilityBase", 
                    "value": {
                        "prob": 1
                    }
                }, 
                "value": {
                    "typeName": "::armarx::StringVariantData", 
                    "value": "guard_support_full_with_light"
                }
            }
        ], 
        "defaultMotionModel": [
            {
                "value": {
                    "typeName": "::armarx::StringVariantData", 
                    "value": "Static"
                }
            }
        ], 
        "existenceCertainty": [
            {
                "value": {
                    "typeName": "::armarx::FloatVariantData", 
                    "value": 1
                }
            }
        ], 
        "isInstanceable": [
            {
                "value": {
                    "typeName": "::armarx::BoolVariantData", 
                    "value": true
                }
            }
        ], 
        "orientation": [
            {
                "value": {
                    "typeName": "::armarx::FramedOrientationBase", 
                    "value": {
                        "agent": "", 
                        "frame": "Global", 
                        "qw": 0.7071067690849304, 
                        "qx": 0, 
                        "qy": 0, 
                        "qz": 0.7071067094802856
                    }
                }
            }
        ], 
        "parentClasses": [
            {
                "value": {
                    "typeName": "::armarx::StringVariantData", 
                    "value": ""
                }
            }
        ], 
        "position": [
            {
                "uncertainty": {
                    "typeName": "::memoryx::MultivariateNormalDistributionBase", 
                    "value": {
                        "cov": [
                            10000, 
                            0, 
                            0, 
                            0, 
                            10000, 
                            0, 
                            0, 
                            0, 
                            10000
                        ], 
                        "mean": [
                            0, 
                            0, 
                            0
                        ]
                    }
                }, 
                "value": {
                    "typeName": "::armarx::FramedPositionBase", 
                    "value": {
                        "agent": "", 
                        "frame": "Global", 
                        "x": 2010, 
                        "y": 2310, 
                        "z": 0
                    }
                }
            }
        ], 
        "priority": [
            {
                "value": {
                    "typeName": "::armarx::IntVariantData", 
                    "value": 50
                }
            }
        ], 
        "recognitionMethod": [
            {
                "value": {
                    "typeName": "::armarx::StringVariantData", 
                    "value": "<none>"
                }
            }
        ]
    }, 
    "name": "guard_support_full_with_light", 
    "type": "::memoryx::ObjectInstanceBase"
}
{
    "_id": "5", 
    "attrs": {
        "IvFile": [
            {
                "value": {
                    "typeName": "::memoryx::MongoDBRefBase", 
                    "value": {
                        "dbName": "CeBITdb", 
                        "docId": "5ef4be1d11d2ce445f70bc2b"
                    }
                }
            }
        ], 
        "IvFileCollision": [
            {
                "value": {
                    "typeName": "::memoryx::MongoDBRefBase", 
                    "value": {
                        "dbName": "CeBITdb", 
                        "docId": "5ef4be1d11d2ce445f70bc2b"
                    }
                }
            }
        ], 
        "ManipulationFile": [
            {
                "value": {
                    "typeName": "::memoryx::MongoDBRefBase", 
                    "value": {
                        "dbName": "CeBITdb", 
                        "docId": "5ef4be1d11d2ce445f70bc2d"
                    }
                }
            }
        ], 
        "PutdownOrientationRPY": [
            {
                "value": {
                    "typeName": "::armarx::Vector3Base", 
                    "value": {
                        "x": 0, 
                        "y": 0, 
                        "z": 0
                    }
                }
            }
        ], 
        "classes": [
            {
                "uncertainty": {
                    "typeName": "::memoryx::DiscreteProbabilityBase", 
                    "value": {
                        "prob": 1
                    }
                }, 
                "value": {
                    "typeName": "::armarx::StringVariantData", 
                    "value": "dirty-box"
                }
            }
        ], 
        "defaultMotionModel": [
            {
                "value": {
                    "typeName": "::armarx::StringVariantData", 
                    "value": "Static"
                }
            }
        ], 
        "existenceCertainty": [
            {
                "value": {
                    "typeName": "::armarx::FloatVariantData", 
                    "value": 1
                }
            }
        ], 
        "isInstanceable": [
            {
                "value": {
                    "typeName": "::armarx::BoolVariantData", 
                    "value": true
                }
            }
        ], 
        "orientation": [
            {
                "value": {
                    "typeName": "::armarx::FramedOrientationBase", 
                    "value": {
                        "agent": "", 
                        "frame": "Global", 
                        "qw": 1, 
                        "qx": 0, 
                        "qy": 0, 
                        "qz": 0
                    }
                }
            }
        ], 
        "parentClasses": [
            {
                "value": {
                    "typeName": "::armarx::StringVariantData", 
                    "value": "robdekon_empty_box"
                }
            }
        ], 
        "position": [
            {
                "uncertainty": {
                    "typeName": "::memoryx::MultivariateNormalDistributionBase", 
                    "value": {
                        "cov": [
                            10000, 
                            0, 
                            0, 
                            0, 
                            10000, 
                            0, 
                            0, 
                            0, 
                            10000
                        ], 
                        "mean": [
                            0, 
                            0, 
                            0
                        ]
                    }
                }, 
                "value": {
                    "typeName": "::armarx::FramedPositionBase", 
                    "value": {
                        "agent": "", 
                        "frame": "Global", 
                        "x": 2190, 
                        "y": 8570, 
                        "z": 760.0001220703125
                    }
                }
            }
        ], 
        "priority": [
            {
                "value": {
                    "typeName": "::armarx::IntVariantData", 
                    "value": 50
                }
            }
        ]
    }, 
    "name": "dirty-box", 
    "type": "::memoryx::ObjectInstanceBase"
}
{
    "_id": "6", 
    "attrs": {
        "IvFile": [
            {
                "value": {
                    "typeName": "::memoryx::MongoDBRefBase", 
                    "value": {
                        "dbName": "CeBITdb", 
                        "docId": "5ef493174fcbdfc77c21e1ed"
                    }
                }
            }
        ], 
        "IvFileCollision": [
            {
                "value": {
                    "typeName": "::memoryx::MongoDBRefBase", 
                    "value": {
                        "dbName": "CeBITdb", 
                        "docId": "5ef493174fcbdfc77c21e1ed"
                    }
                }
            }
        ], 
        "ManipulationFile": [
            {
                "value": {
                    "typeName": "::memoryx::MongoDBRefBase", 
                    "value": {
                        "dbName": "CeBITdb", 
                        "docId": "5ef493174fcbdfc77c21e1ef"
                    }
                }
            }
        ], 
        "PutdownOrientationRPY": [
            {
                "value": {
                    "typeName": "::armarx::Vector3Base", 
                    "value": {
                        "x": 0, 
                        "y": 0, 
                        "z": 0
                    }
                }
            }
        ], 
        "classes": [
            {
                "uncertainty": {
                    "typeName": "::memoryx::DiscreteProbabilityBase", 
                    "value": {
                        "prob": 1
                    }
                }, 
                "value": {
                    "typeName": "::armarx::StringVariantData", 
                    "value": "clean-box"
                }
            }
        ], 
        "defaultMotionModel": [
            {
                "value": {
                    "typeName": "::armarx::StringVariantData", 
                    "value": "Static"
                }
            }
        ], 
        "existenceCertainty": [
            {
                "value": {
                    "typeName": "::armarx::FloatVariantData", 
                    "value": 1
                }
            }
        ], 
        "isInstanceable": [
            {
                "value": {
                    "typeName": "::armarx::BoolVariantData", 
                    "value": true
                }
            }
        ], 
        "orientation": [
            {
                "value": {
                    "typeName": "::armarx::FramedOrientationBase", 
                    "value": {
                        "agent": "", 
                        "frame": "Global", 
                        "qw": 0.7071067690849304, 
                        "qx": 0, 
                        "qy": 0, 
                        "qz": 0.7071067094802856
                    }
                }
            }
        ], 
        "parentClasses": [
            {
                "value": {
                    "typeName": "::armarx::StringVariantData", 
                    "value": "robdekon_empty_box"
                }
            }
        ], 
        "position": [
            {
                "uncertainty": {
                    "typeName": "::memoryx::MultivariateNormalDistributionBase", 
                    "value": {
                        "cov": [
                            10000, 
                            0, 
                            0, 
                            0, 
                            10000, 
                            0, 
                            0, 
                            0, 
                            10000
                        ], 
                        "mean": [
                            0, 
                            0, 
                            0
                        ]
                    }
                }, 
                "value": {
                    "typeName": "::armarx::FramedPositionBase", 
                    "value": {
                        "agent": "", 
                        "frame": "Global", 
                        "x": 4200.00048828125, 
                        "y": 7250, 
                        "z": 760
                    }
                }
            }
        ], 
        "priority": [
            {
                "value": {
                    "typeName": "::armarx::IntVariantData", 
                    "value": 50
                }
            }
        ]
    }, 
    "name": "clean-box", 
    "type": "::memoryx::ObjectInstanceBase"
}
{
    "_id": "7", 
    "attrs": {
        "IvFile": [
            {
                "value": {
                    "typeName": "::memoryx::MongoDBRefBase", 
                    "value": {
                        "dbName": "CeBITdb", 
                        "docId": "60b783d1e9d46660a0335ac8"
                    }
                }
            }
        ], 
        "IvFileCollision": [
            {
                "value": {
                    "typeName": "::memoryx::MongoDBRefBase", 
                    "value": {
                        "dbName": "CeBITdb", 
                        "docId": "60b783d1e9d46660a0335ac8"
                    }
                }
            }
        ], 
        "ManipulationFile": [
            {
                "value": {
                    "typeName": "::memoryx::MongoDBRefBase", 
                    "value": {
                        "dbName": "CeBITdb", 
                        "docId": "60b783d1e9d46660a0335ad4"
                    }
                }
            }
        ], 
        "PutdownOrientationRPY": [
            {
                "value": {
                    "typeName": "::armarx::Vector3Base", 
                    "value": {
                        "x": 0, 
                        "y": 0, 
                        "z": 0
                    }
                }
            }
        ], 
        "classes": [
            {
                "uncertainty": {
                    "typeName": "::memoryx::DiscreteProbabilityBase", 
                    "value": {
                        "prob": 1
                    }
                }, 
                "value": {
                    "typeName": "::armarx::StringVariantData", 
                    "value": "rustypipe2"
                }
            }
        ], 
        "defaultMotionModel": [
            {
                "value": {
                    "typeName": "::armarx::StringVariantData", 
                    "value": "Static"
                }
            }
        ], 
        "existenceCertainty": [
            {
                "value": {
                    "typeName": "::armarx::FloatVariantData", 
                    "value": 1
                }
            }
        ], 
        "isInstanceable": [
            {
                "value": {
                    "typeName": "::armarx::BoolVariantData", 
                    "value": true
                }
            }
        ], 
        "orientation": [
            {
                "value": {
                    "typeName": "::armarx::FramedOrientationBase", 
                    "value": {
                        "agent": "", 
                        "frame": "Global", 
                        "qw": 0.6259752511978149, 
                        "qx": -0.32886430621147156, 
                        "qy": 0.6259804368019104, 
                        "qz": 0.32886433601379395
                    }
                }
            }
        ], 
        "parentClasses": [
            {
                "value": {
                    "typeName": "::armarx::StringVariantData", 
                    "value": ""
                }
            }
        ], 
        "position": [
            {
                "uncertainty": {
                    "typeName": "::memoryx::MultivariateNormalDistributionBase", 
                    "value": {
                        "cov": [
                            10000, 
                            0, 
                            0, 
                            0, 
                            10000, 
                            0, 
                            0, 
                            0, 
                            10000
                        ], 
                        "mean": [
                            0, 
                            0, 
                            0
                        ]
                    }
                }, 
                "value": {
                    "typeName": "::armarx::FramedPositionBase", 
                    "value": {
                        "agent": "", 
                        "frame": "Global", 
                        "x": 2580, 
                        "y": 5180, 
                        "z": 4520
                    }
                }
            }
        ], 
        "priority": [
            {
                "value": {
                    "typeName": "::armarx::IntVariantData", 
                    "value": 50
                }
            }
        ], 
        "recognitionMethod": [
            {
                "value": {
                    "typeName": "::armarx::StringVariantData", 
                    "value": "<none>"
                }
            }
        ], 
        "texFiles": [
            {
                "value": {
                    "typeName": "::memoryx::MongoDBRefBase", 
                    "value": {
                        "dbName": "CeBITdb", 
                        "docId": "60b783d1e9d46660a0335aca"
                    }
                }
            }
        ]
    }, 
    "name": "rustypipe2", 
    "type": "::memoryx::ObjectInstanceBase"
}
