{
    "_id": "1", 
    "attrs": {
        "agentFilePath": [
            {
                "value": {
                    "typeName": "::armarx::StringVariantData", 
                    "value": "Armar6RT/robotmodel/Armar6-SH/Armar6-SH.xml"
                }
            }
        ], 
        "orientation": [
            {
                "value": {
                    "typeName": "::armarx::FramedOrientationBase", 
                    "value": {
                        "agent": "", 
                        "frame": "Global", 
                        "qw": 0.8746957778930664, 
                        "qx": 0, 
                        "qy": 0, 
                        "qz": -0.4846723675727844
                    }
                }
            }
        ], 
        "position": [
            {
                "value": {
                    "typeName": "::armarx::FramedPositionBase", 
                    "value": {
                        "agent": "", 
                        "frame": "Global", 
                        "x": 2101.919189453125, 
                        "y": 3532.039794921875, 
                        "z": 0
                    }
                }
            }
        ], 
        "stringifiedSharedRobotInterfaceProxy": [
            {
                "value": {
                    "typeName": "::armarx::StringVariantData", 
                    "value": "67B8E5B8-A8FC-44FB-8DBA-28B7210C8BCF -t -e 1.0:tcp -h 10.6.2.101 -p 40009 -t 60000"
                }
            }
        ]
    }, 
    "name": "Armar6", 
    "type": "::memoryx::AgentInstanceBase"
}
