{
    "_id": {
        "$oid": "5ba262856819abda89e122b6"
    }, 
    "attrs": {
        "adjacentNodes": [
            {
                "value": {
                    "typeName": "::memoryx::EntityRefBase", 
                    "value": {
                        "entityId": "5ba262b56819abda89e122b8", 
                        "entityName": "gl_observation", 
                        "memoryName": "PriorKnowledge", 
                        "segmentName": "graphs"
                    }
                }
            }, 
            {
                "value": {
                    "typeName": "::memoryx::EntityRefBase", 
                    "value": {
                        "entityId": "5ba262986819abda89e122b7", 
                        "entityName": "handover", 
                        "memoryName": "PriorKnowledge", 
                        "segmentName": "graphs"
                    }
                }
            }, 
            {
                "value": {
                    "typeName": "::memoryx::EntityRefBase", 
                    "value": {
                        "entityId": "5ba2663a6819abda89e122bb", 
                        "entityName": "center", 
                        "memoryName": "PriorKnowledge", 
                        "segmentName": "graphs"
                    }
                }
            }
        ], 
        "pose": [
            {
                "value": {
                    "typeName": "::armarx::FramedPoseBase", 
                    "value": {
                        "agent": "", 
                        "frame": "Global", 
                        "qw": 0.7040147185325623, 
                        "qx": 0, 
                        "qy": 0, 
                        "qz": 0.7101853489875793, 
                        "x": 3414, 
                        "y": 4232, 
                        "z": 0
                    }
                }
            }
        ], 
        "scene": [
            {
                "value": {
                    "typeName": "::armarx::StringVariantData", 
                    "value": "GraphCeBIT"
                }
            }
        ]
    }, 
    "name": "wb_front", 
    "type": "::memoryx::GraphNodeBase"
}
{
    "_id": {
        "$oid": "5ba262986819abda89e122b7"
    }, 
    "attrs": {
        "adjacentNodes": [
            {
                "value": {
                    "typeName": "::memoryx::EntityRefBase", 
                    "value": {
                        "entityId": "5ba262856819abda89e122b6", 
                        "entityName": "wb_front", 
                        "memoryName": "PriorKnowledge", 
                        "segmentName": "graphs"
                    }
                }
            }, 
            {
                "value": {
                    "typeName": "::memoryx::EntityRefBase", 
                    "value": {
                        "entityId": "5ba262b56819abda89e122b8", 
                        "entityName": "gl_observation", 
                        "memoryName": "PriorKnowledge", 
                        "segmentName": "graphs"
                    }
                }
            }
        ], 
        "pose": [
            {
                "value": {
                    "typeName": "::armarx::FramedPoseBase", 
                    "value": {
                        "agent": "", 
                        "frame": "Global", 
                        "qw": 0.9025852680206299, 
                        "qx": 0, 
                        "qy": 0, 
                        "qz": 0.4305110573768616, 
                        "x": 4383, 
                        "y": 7570, 
                        "z": 0
                    }
                }
            }
        ], 
        "scene": [
            {
                "value": {
                    "typeName": "::armarx::StringVariantData", 
                    "value": "GraphCeBIT"
                }
            }
        ]
    }, 
    "name": "handover", 
    "type": "::memoryx::GraphNodeBase"
}
{
    "_id": {
        "$oid": "5ba262b56819abda89e122b8"
    }, 
    "attrs": {
        "adjacentNodes": [
            {
                "value": {
                    "typeName": "::memoryx::EntityRefBase", 
                    "value": {
                        "entityId": "5ba262856819abda89e122b6", 
                        "entityName": "wb_front", 
                        "memoryName": "PriorKnowledge", 
                        "segmentName": "graphs"
                    }
                }
            }, 
            {
                "value": {
                    "typeName": "::memoryx::EntityRefBase", 
                    "value": {
                        "entityId": "5ba262986819abda89e122b7", 
                        "entityName": "handover", 
                        "memoryName": "PriorKnowledge", 
                        "segmentName": "graphs"
                    }
                }
            }, 
            {
                "value": {
                    "typeName": "::memoryx::EntityRefBase", 
                    "value": {
                        "entityId": "5ba264cb6819abda89e122ba", 
                        "entityName": "gl_node0", 
                        "memoryName": "PriorKnowledge", 
                        "segmentName": "graphs"
                    }
                }
            }, 
            {
                "value": {
                    "typeName": "::memoryx::EntityRefBase", 
                    "value": {
                        "entityId": "5ba2663a6819abda89e122bb", 
                        "entityName": "center", 
                        "memoryName": "PriorKnowledge", 
                        "segmentName": "graphs"
                    }
                }
            }
        ], 
        "pose": [
            {
                "value": {
                    "typeName": "::armarx::FramedPoseBase", 
                    "value": {
                        "agent": "", 
                        "frame": "Global", 
                        "qw": 0.9170600771903992, 
                        "qx": 0, 
                        "qy": 0, 
                        "qz": 0.3987490832805634, 
                        "x": 4840, 
                        "y": 7700, 
                        "z": 0
                    }
                }
            }
        ], 
        "scene": [
            {
                "value": {
                    "typeName": "::armarx::StringVariantData", 
                    "value": "GraphCeBIT"
                }
            }
        ]
    }, 
    "name": "gl_observation", 
    "type": "::memoryx::GraphNodeBase"
}
{
    "_id": {
        "$oid": "5ba262d16819abda89e122b9"
    }, 
    "attrs": {
        "adjacentNodes": [
            {
                "value": {
                    "typeName": "::memoryx::EntityRefBase", 
                    "value": {
                        "entityId": "5ba264cb6819abda89e122ba", 
                        "entityName": "gl_node0", 
                        "memoryName": "PriorKnowledge", 
                        "segmentName": "graphs"
                    }
                }
            }
        ], 
        "pose": [
            {
                "value": {
                    "typeName": "::armarx::FramedPoseBase", 
                    "value": {
                        "agent": "", 
                        "frame": "Global", 
                        "qw": 0.7144727110862732, 
                        "qx": 0, 
                        "qy": 0, 
                        "qz": 0.6996632814407349, 
                        "x": 4507, 
                        "y": 9536, 
                        "z": 0
                    }
                }
            }
        ], 
        "scene": [
            {
                "value": {
                    "typeName": "::armarx::StringVariantData", 
                    "value": "GraphCeBIT"
                }
            }
        ]
    }, 
    "name": "gl_lowering", 
    "type": "::memoryx::GraphNodeBase"
}
{
    "_id": {
        "$oid": "5ba264cb6819abda89e122ba"
    }, 
    "attrs": {
        "adjacentNodes": [
            {
                "value": {
                    "typeName": "::memoryx::EntityRefBase", 
                    "value": {
                        "entityId": "5ba262b56819abda89e122b8", 
                        "entityName": "gl_observation", 
                        "memoryName": "PriorKnowledge", 
                        "segmentName": "graphs"
                    }
                }
            }, 
            {
                "value": {
                    "typeName": "::memoryx::EntityRefBase", 
                    "value": {
                        "entityId": "5ba262d16819abda89e122b9", 
                        "entityName": "gl_lowering", 
                        "memoryName": "PriorKnowledge", 
                        "segmentName": "graphs"
                    }
                }
            }
        ], 
        "pose": [
            {
                "value": {
                    "typeName": "::armarx::FramedPoseBase", 
                    "value": {
                        "agent": "", 
                        "frame": "Global", 
                        "qw": 0.9025852680206299, 
                        "qx": 0, 
                        "qy": 0, 
                        "qz": 0.4305110573768616, 
                        "x": 4100, 
                        "y": 9000, 
                        "z": 0
                    }
                }
            }
        ], 
        "scene": [
            {
                "value": {
                    "typeName": "::armarx::StringVariantData", 
                    "value": "GraphCeBIT"
                }
            }
        ]
    }, 
    "name": "gl_node0", 
    "type": "::memoryx::GraphNodeBase"
}
{
    "_id": {
        "$oid": "5ba2663a6819abda89e122bb"
    }, 
    "attrs": {
        "adjacentNodes": [], 
        "pose": [
            {
                "value": {
                    "typeName": "::armarx::FramedPoseBase", 
                    "value": {
                        "agent": "", 
                        "frame": "Global", 
                        "qw": 1, 
                        "qx": 0, 
                        "qy": 0, 
                        "qz": 0, 
                        "x": 4400, 
                        "y": 5840, 
                        "z": 0
                    }
                }
            }
        ], 
        "scene": [
            {
                "value": {
                    "typeName": "::armarx::StringVariantData", 
                    "value": "GraphCeBIT"
                }
            }
        ]
    }, 
    "name": "home", 
    "type": "::memoryx::GraphNodeBase"
}
