{
    "_id": {
        "$oid": "5501e76e0efe001bc1fdf997"
    }, 
    "attrs": {
        "measure": [
            {
                "value": {
                    "typeName": "::memoryx::OacStatisticalMeasureBase", 
                    "value": {
                        "count": 8, 
                        "countFailed": 5
                    }
                }
            }
        ], 
        "parameters": [
            {
                "value": {
                    "typeName": "::memoryx::OacParameterListBase", 
                    "value": {
                        "names": [
                            "a : obj_agent_robot", 
                            "l1 : location", 
                            "l2 : location"
                        ]
                    }
                }
            }
        ], 
        "plannable": [
            {
                "value": {
                    "typeName": "::armarx::BoolVariantData", 
                    "value": true
                }
            }
        ], 
        "prediction": [
            {
                "value": {
                    "typeName": "::memoryx::OacPredictionFunctionBase", 
                    "value": {
                        "SECSideConstraintsFirstRelations": [], 
                        "SECSideConstraintsSecondRelations": [], 
                        "effect": "", 
                        "precondition": ""
                    }
                }
            }
        ], 
        "stateUUID": [
            {
                "value": {
                    "typeName": "::armarx::StringVariantData", 
                    "value": "MovePlatformSkill"
                }
            }
        ], 
        "statechartProxyName": [
            {
                "value": {
                    "typeName": "::armarx::StringVariantData", 
                    "value": "Armar6HighlevelTaskGroupRemoteStateOfferer"
                }
            }
        ]
    }, 
    "name": "moveToLandmark", 
    "type": "::memoryx::OacBase"
}
{
    "_id": {
        "$oid": "5afc797d09d492ea0cb007b1"
    }, 
    "attrs": {
        "measure": [
            {
                "value": {
                    "typeName": "::memoryx::OacStatisticalMeasureBase", 
                    "value": {
                        "count": 3, 
                        "countFailed": 1
                    }
                }
            }
        ], 
        "parameters": [
            {
                "value": {
                    "typeName": "::memoryx::OacParameterListBase", 
                    "value": {
                        "names": []
                    }
                }
            }
        ], 
        "plannable": [
            {
                "value": {
                    "typeName": "::armarx::BoolVariantData", 
                    "value": true
                }
            }
        ], 
        "prediction": [
            {
                "value": {
                    "typeName": "::memoryx::OacPredictionFunctionBase", 
                    "value": {
                        "SECSideConstraintsFirstRelations": [], 
                        "SECSideConstraintsSecondRelations": [], 
                        "effect": "", 
                        "precondition": ""
                    }
                }
            }
        ], 
        "stateUUID": [
            {
                "value": {
                    "typeName": "::armarx::StringVariantData", 
                    "value": "EchoTask"
                }
            }
        ], 
        "statechartProxyName": [
            {
                "value": {
                    "typeName": "::armarx::StringVariantData", 
                    "value": "Armar6HighlevelTaskGroupRemoteStateOfferer"
                }
            }
        ]
    }, 
    "name": "echo", 
    "type": "::memoryx::OacBase"
}
{
    "_id": {
        "$oid": "5b0e8d3c9754ff2c23768908"
    }, 
    "attrs": {
        "measure": [
            {
                "value": {
                    "typeName": "::memoryx::OacStatisticalMeasureBase", 
                    "value": {
                        "count": 765, 
                        "countFailed": 568
                    }
                }
            }
        ], 
        "parameters": [
            {
                "value": {
                    "typeName": "::memoryx::OacParameterListBase", 
                    "value": {
                        "names": []
                    }
                }
            }
        ], 
        "plannable": [
            {
                "value": {
                    "typeName": "::armarx::BoolVariantData", 
                    "value": true
                }
            }
        ], 
        "prediction": [
            {
                "value": {
                    "typeName": "::memoryx::OacPredictionFunctionBase", 
                    "value": {
                        "SECSideConstraintsFirstRelations": [], 
                        "SECSideConstraintsSecondRelations": [], 
                        "effect": "", 
                        "precondition": ""
                    }
                }
            }
        ], 
        "stateUUID": [
            {
                "value": {
                    "typeName": "::armarx::StringVariantData", 
                    "value": "BringObjectTask"
                }
            }
        ], 
        "statechartProxyName": [
            {
                "value": {
                    "typeName": "::armarx::StringVariantData", 
                    "value": "Armar6HighlevelTaskGroupRemoteStateOfferer"
                }
            }
        ]
    }, 
    "name": "BringObject", 
    "type": "::memoryx::OacBase"
}
{
    "_id": {
        "$oid": "5b0e8d689754ff2c23768909"
    }, 
    "attrs": {
        "measure": [
            {
                "value": {
                    "typeName": "::memoryx::OacStatisticalMeasureBase", 
                    "value": {
                        "count": 53, 
                        "countFailed": 35
                    }
                }
            }
        ], 
        "parameters": [
            {
                "value": {
                    "typeName": "::memoryx::OacParameterListBase", 
                    "value": {
                        "names": []
                    }
                }
            }
        ], 
        "plannable": [
            {
                "value": {
                    "typeName": "::armarx::BoolVariantData", 
                    "value": true
                }
            }
        ], 
        "prediction": [
            {
                "value": {
                    "typeName": "::memoryx::OacPredictionFunctionBase", 
                    "value": {
                        "SECSideConstraintsFirstRelations": [], 
                        "SECSideConstraintsSecondRelations": [], 
                        "effect": "", 
                        "precondition": ""
                    }
                }
            }
        ], 
        "stateUUID": [
            {
                "value": {
                    "typeName": "::armarx::StringVariantData", 
                    "value": "CleanUpTableTask"
                }
            }
        ], 
        "statechartProxyName": [
            {
                "value": {
                    "typeName": "::armarx::StringVariantData", 
                    "value": "Armar6HighlevelTaskGroupRemoteStateOfferer"
                }
            }
        ]
    }, 
    "name": "CleanUpTable", 
    "type": "::memoryx::OacBase"
}
{
    "_id": {
        "$oid": "5b0e8d879754ff2c2376890a"
    }, 
    "attrs": {
        "measure": [
            {
                "value": {
                    "typeName": "::memoryx::OacStatisticalMeasureBase", 
                    "value": {
                        "count": 211, 
                        "countFailed": 209
                    }
                }
            }
        ], 
        "parameters": [
            {
                "value": {
                    "typeName": "::memoryx::OacParameterListBase", 
                    "value": {
                        "names": []
                    }
                }
            }
        ], 
        "plannable": [
            {
                "value": {
                    "typeName": "::armarx::BoolVariantData", 
                    "value": true
                }
            }
        ], 
        "prediction": [
            {
                "value": {
                    "typeName": "::memoryx::OacPredictionFunctionBase", 
                    "value": {
                        "SECSideConstraintsFirstRelations": [], 
                        "SECSideConstraintsSecondRelations": [], 
                        "effect": "", 
                        "precondition": ""
                    }
                }
            }
        ], 
        "stateUUID": [
            {
                "value": {
                    "typeName": "::armarx::StringVariantData", 
                    "value": "EnableGuidingArmTask"
                }
            }
        ], 
        "statechartProxyName": [
            {
                "value": {
                    "typeName": "::armarx::StringVariantData", 
                    "value": "Armar6HighlevelTaskGroupRemoteStateOfferer"
                }
            }
        ]
    }, 
    "name": "EnableGuidingArm", 
    "type": "::memoryx::OacBase"
}
{
    "_id": {
        "$oid": "5b0e8dbb9754ff2c2376890b"
    }, 
    "attrs": {
        "measure": [
            {
                "value": {
                    "typeName": "::memoryx::OacStatisticalMeasureBase", 
                    "value": {
                        "count": 2, 
                        "countFailed": 1
                    }
                }
            }
        ], 
        "parameters": [
            {
                "value": {
                    "typeName": "::memoryx::OacParameterListBase", 
                    "value": {
                        "names": []
                    }
                }
            }
        ], 
        "plannable": [
            {
                "value": {
                    "typeName": "::armarx::BoolVariantData", 
                    "value": true
                }
            }
        ], 
        "prediction": [
            {
                "value": {
                    "typeName": "::memoryx::OacPredictionFunctionBase", 
                    "value": {
                        "SECSideConstraintsFirstRelations": [], 
                        "SECSideConstraintsSecondRelations": [], 
                        "effect": "", 
                        "precondition": ""
                    }
                }
            }
        ], 
        "stateUUID": [
            {
                "value": {
                    "typeName": "::armarx::StringVariantData", 
                    "value": "GraspObjectTask"
                }
            }
        ], 
        "statechartProxyName": [
            {
                "value": {
                    "typeName": "::armarx::StringVariantData", 
                    "value": "Armar6HighlevelTaskGroupRemoteStateOfferer"
                }
            }
        ]
    }, 
    "name": "GraspObject", 
    "type": "::memoryx::OacBase"
}
{
    "_id": {
        "$oid": "5b0e8dcf9754ff2c2376890c"
    }, 
    "attrs": {
        "measure": [
            {
                "value": {
                    "typeName": "::memoryx::OacStatisticalMeasureBase", 
                    "value": {
                        "count": 474, 
                        "countFailed": 232
                    }
                }
            }
        ], 
        "parameters": [
            {
                "value": {
                    "typeName": "::memoryx::OacParameterListBase", 
                    "value": {
                        "names": []
                    }
                }
            }
        ], 
        "plannable": [
            {
                "value": {
                    "typeName": "::armarx::BoolVariantData", 
                    "value": true
                }
            }
        ], 
        "prediction": [
            {
                "value": {
                    "typeName": "::memoryx::OacPredictionFunctionBase", 
                    "value": {
                        "SECSideConstraintsFirstRelations": [], 
                        "SECSideConstraintsSecondRelations": [], 
                        "effect": "", 
                        "precondition": ""
                    }
                }
            }
        ], 
        "stateUUID": [
            {
                "value": {
                    "typeName": "::armarx::StringVariantData", 
                    "value": "GuardRemoveTask"
                }
            }
        ], 
        "statechartProxyName": [
            {
                "value": {
                    "typeName": "::armarx::StringVariantData", 
                    "value": "Armar6HighlevelTaskGroupRemoteStateOfferer"
                }
            }
        ]
    }, 
    "name": "GuardSupport", 
    "type": "::memoryx::OacBase"
}
{
    "_id": {
        "$oid": "5b0e8dde9754ff2c2376890d"
    }, 
    "attrs": {
        "measure": [
            {
                "value": {
                    "typeName": "::memoryx::OacStatisticalMeasureBase", 
                    "value": {
                        "count": 736, 
                        "countFailed": 57
                    }
                }
            }
        ], 
        "parameters": [
            {
                "value": {
                    "typeName": "::memoryx::OacParameterListBase", 
                    "value": {
                        "names": []
                    }
                }
            }
        ], 
        "plannable": [
            {
                "value": {
                    "typeName": "::armarx::BoolVariantData", 
                    "value": true
                }
            }
        ], 
        "prediction": [
            {
                "value": {
                    "typeName": "::memoryx::OacPredictionFunctionBase", 
                    "value": {
                        "SECSideConstraintsFirstRelations": [], 
                        "SECSideConstraintsSecondRelations": [], 
                        "effect": "", 
                        "precondition": ""
                    }
                }
            }
        ], 
        "stateUUID": [
            {
                "value": {
                    "typeName": "::armarx::StringVariantData", 
                    "value": "LookToTask"
                }
            }
        ], 
        "statechartProxyName": [
            {
                "value": {
                    "typeName": "::armarx::StringVariantData", 
                    "value": "Armar6HighlevelTaskGroupRemoteStateOfferer"
                }
            }
        ]
    }, 
    "name": "LookTo", 
    "type": "::memoryx::OacBase"
}
{
    "_id": {
        "$oid": "5b0e8ded9754ff2c2376890e"
    }, 
    "attrs": {
        "measure": [
            {
                "value": {
                    "typeName": "::memoryx::OacStatisticalMeasureBase", 
                    "value": {
                        "count": 860, 
                        "countFailed": 115
                    }
                }
            }
        ], 
        "parameters": [
            {
                "value": {
                    "typeName": "::memoryx::OacParameterListBase", 
                    "value": {
                        "names": []
                    }
                }
            }
        ], 
        "plannable": [
            {
                "value": {
                    "typeName": "::armarx::BoolVariantData", 
                    "value": true
                }
            }
        ], 
        "prediction": [
            {
                "value": {
                    "typeName": "::memoryx::OacPredictionFunctionBase", 
                    "value": {
                        "SECSideConstraintsFirstRelations": [], 
                        "SECSideConstraintsSecondRelations": [], 
                        "effect": "", 
                        "precondition": ""
                    }
                }
            }
        ], 
        "stateUUID": [
            {
                "value": {
                    "typeName": "::armarx::StringVariantData", 
                    "value": "MoveArmsToPositionTask"
                }
            }
        ], 
        "statechartProxyName": [
            {
                "value": {
                    "typeName": "::armarx::StringVariantData", 
                    "value": "Armar6HighlevelTaskGroupRemoteStateOfferer"
                }
            }
        ]
    }, 
    "name": "MoveArmsToPosition", 
    "type": "::memoryx::OacBase"
}
{
    "_id": {
        "$oid": "5b0e8e119754ff2c2376890f"
    }, 
    "attrs": {
        "measure": [
            {
                "value": {
                    "typeName": "::memoryx::OacStatisticalMeasureBase", 
                    "value": {
                        "count": 867, 
                        "countFailed": 146
                    }
                }
            }
        ], 
        "parameters": [
            {
                "value": {
                    "typeName": "::memoryx::OacParameterListBase", 
                    "value": {
                        "names": []
                    }
                }
            }
        ], 
        "plannable": [
            {
                "value": {
                    "typeName": "::armarx::BoolVariantData", 
                    "value": true
                }
            }
        ], 
        "prediction": [
            {
                "value": {
                    "typeName": "::memoryx::OacPredictionFunctionBase", 
                    "value": {
                        "SECSideConstraintsFirstRelations": [], 
                        "SECSideConstraintsSecondRelations": [], 
                        "effect": "", 
                        "precondition": ""
                    }
                }
            }
        ], 
        "stateUUID": [
            {
                "value": {
                    "typeName": "::armarx::StringVariantData", 
                    "value": "MoveToLocationTask"
                }
            }
        ], 
        "statechartProxyName": [
            {
                "value": {
                    "typeName": "::armarx::StringVariantData", 
                    "value": "Armar6HighlevelTaskGroupRemoteStateOfferer"
                }
            }
        ]
    }, 
    "name": "MoveToLocation", 
    "type": "::memoryx::OacBase"
}
{
    "_id": {
        "$oid": "5b0e8e279754ff2c23768910"
    }, 
    "attrs": {
        "measure": [
            {
                "value": {
                    "typeName": "::memoryx::OacStatisticalMeasureBase", 
                    "value": {
                        "count": 271, 
                        "countFailed": 129
                    }
                }
            }
        ], 
        "parameters": [
            {
                "value": {
                    "typeName": "::memoryx::OacParameterListBase", 
                    "value": {
                        "names": []
                    }
                }
            }
        ], 
        "plannable": [
            {
                "value": {
                    "typeName": "::armarx::BoolVariantData", 
                    "value": true
                }
            }
        ], 
        "prediction": [
            {
                "value": {
                    "typeName": "::memoryx::OacPredictionFunctionBase", 
                    "value": {
                        "SECSideConstraintsFirstRelations": [], 
                        "SECSideConstraintsSecondRelations": [], 
                        "effect": "", 
                        "precondition": ""
                    }
                }
            }
        ], 
        "stateUUID": [
            {
                "value": {
                    "typeName": "::armarx::StringVariantData", 
                    "value": "PutObjectAwayTask"
                }
            }
        ], 
        "statechartProxyName": [
            {
                "value": {
                    "typeName": "::armarx::StringVariantData", 
                    "value": "Armar6HighlevelTaskGroupRemoteStateOfferer"
                }
            }
        ]
    }, 
    "name": "PutObjectAway", 
    "type": "::memoryx::OacBase"
}
{
    "_id": {
        "$oid": "5b0e8e519754ff2c23768911"
    }, 
    "attrs": {
        "measure": [
            {
                "value": {
                    "typeName": "::memoryx::OacStatisticalMeasureBase", 
                    "value": {
                        "count": 519, 
                        "countFailed": 81
                    }
                }
            }
        ], 
        "parameters": [
            {
                "value": {
                    "typeName": "::memoryx::OacParameterListBase", 
                    "value": {
                        "names": []
                    }
                }
            }
        ], 
        "plannable": [
            {
                "value": {
                    "typeName": "::armarx::BoolVariantData", 
                    "value": true
                }
            }
        ], 
        "prediction": [
            {
                "value": {
                    "typeName": "::memoryx::OacPredictionFunctionBase", 
                    "value": {
                        "SECSideConstraintsFirstRelations": [], 
                        "SECSideConstraintsSecondRelations": [], 
                        "effect": "", 
                        "precondition": ""
                    }
                }
            }
        ], 
        "stateUUID": [
            {
                "value": {
                    "typeName": "::armarx::StringVariantData", 
                    "value": "WhatCanYouSeeNowTask"
                }
            }
        ], 
        "statechartProxyName": [
            {
                "value": {
                    "typeName": "::armarx::StringVariantData", 
                    "value": "Armar6HighlevelTaskGroupRemoteStateOfferer"
                }
            }
        ]
    }, 
    "name": "WhatCanYouSeeNow", 
    "type": "::memoryx::OacBase"
}
{
    "_id": {
        "$oid": "5b13f41fe08f9fcb0e7f2d53"
    }, 
    "attrs": {
        "measure": [
            {
                "value": {
                    "typeName": "::memoryx::OacStatisticalMeasureBase", 
                    "value": {
                        "count": 184, 
                        "countFailed": 25
                    }
                }
            }
        ], 
        "parameters": [
            {
                "value": {
                    "typeName": "::memoryx::OacParameterListBase", 
                    "value": {
                        "names": []
                    }
                }
            }
        ], 
        "plannable": [
            {
                "value": {
                    "typeName": "::armarx::BoolVariantData", 
                    "value": true
                }
            }
        ], 
        "prediction": [
            {
                "value": {
                    "typeName": "::memoryx::OacPredictionFunctionBase", 
                    "value": {
                        "SECSideConstraintsFirstRelations": [], 
                        "SECSideConstraintsSecondRelations": [], 
                        "effect": "", 
                        "precondition": ""
                    }
                }
            }
        ], 
        "stateUUID": [
            {
                "value": {
                    "typeName": "::armarx::StringVariantData", 
                    "value": "PresentationTask"
                }
            }
        ], 
        "statechartProxyName": [
            {
                "value": {
                    "typeName": "::armarx::StringVariantData", 
                    "value": "Armar6HighlevelTaskGroupRemoteStateOfferer"
                }
            }
        ]
    }, 
    "name": "Present", 
    "type": "::memoryx::OacBase"
}
{
    "_id": {
        "$oid": "5b1cf2873a4bd069c04dbf54"
    }, 
    "attrs": {
        "measure": [
            {
                "value": {
                    "typeName": "::memoryx::OacStatisticalMeasureBase", 
                    "value": {
                        "count": 521, 
                        "countFailed": 309
                    }
                }
            }
        ], 
        "parameters": [
            {
                "value": {
                    "typeName": "::memoryx::OacParameterListBase", 
                    "value": {
                        "names": []
                    }
                }
            }
        ], 
        "plannable": [
            {
                "value": {
                    "typeName": "::armarx::BoolVariantData", 
                    "value": true
                }
            }
        ], 
        "prediction": [
            {
                "value": {
                    "typeName": "::memoryx::OacPredictionFunctionBase", 
                    "value": {
                        "SECSideConstraintsFirstRelations": [], 
                        "SECSideConstraintsSecondRelations": [], 
                        "effect": "", 
                        "precondition": ""
                    }
                }
            }
        ], 
        "stateUUID": [
            {
                "value": {
                    "typeName": "::armarx::StringVariantData", 
                    "value": "BringObjectAndPutAwayTask"
                }
            }
        ], 
        "statechartProxyName": [
            {
                "value": {
                    "typeName": "::armarx::StringVariantData", 
                    "value": "Armar6HighlevelTaskGroupRemoteStateOfferer"
                }
            }
        ]
    }, 
    "name": "BringObjectAndPutAway", 
    "type": "::memoryx::OacBase"
}
{
    "_id": {
        "$oid": "5b2288f00611f0d19e690a0d"
    }, 
    "attrs": {
        "measure": [
            {
                "value": {
                    "typeName": "::memoryx::OacStatisticalMeasureBase", 
                    "value": {
                        "count": 143, 
                        "countFailed": 39
                    }
                }
            }
        ], 
        "parameters": [
            {
                "value": {
                    "typeName": "::memoryx::OacParameterListBase", 
                    "value": {
                        "names": []
                    }
                }
            }
        ], 
        "plannable": [
            {
                "value": {
                    "typeName": "::armarx::BoolVariantData", 
                    "value": true
                }
            }
        ], 
        "prediction": [
            {
                "value": {
                    "typeName": "::memoryx::OacPredictionFunctionBase", 
                    "value": {
                        "SECSideConstraintsFirstRelations": [], 
                        "SECSideConstraintsSecondRelations": [], 
                        "effect": "", 
                        "precondition": ""
                    }
                }
            }
        ], 
        "stateUUID": [
            {
                "value": {
                    "typeName": "::armarx::StringVariantData", 
                    "value": "ShapeHandTask"
                }
            }
        ], 
        "statechartProxyName": [
            {
                "value": {
                    "typeName": "::armarx::StringVariantData", 
                    "value": "Armar6HighlevelTaskGroupRemoteStateOfferer"
                }
            }
        ]
    }, 
    "name": "ShapeHand", 
    "type": "::memoryx::OacBase"
}
{
    "_id": {
        "$oid": "5beed2861b50096665c18f6a"
    }, 
    "attrs": {
        "measure": [
            {
                "value": {
                    "typeName": "::memoryx::OacStatisticalMeasureBase", 
                    "value": {
                        "count": 39, 
                        "countFailed": 10
                    }
                }
            }
        ], 
        "parameters": [
            {
                "value": {
                    "typeName": "::memoryx::OacParameterListBase", 
                    "value": {
                        "names": []
                    }
                }
            }
        ], 
        "plannable": [
            {
                "value": {
                    "typeName": "::armarx::BoolVariantData", 
                    "value": true
                }
            }
        ], 
        "prediction": [
            {
                "value": {
                    "typeName": "::memoryx::OacPredictionFunctionBase", 
                    "value": {
                        "SECSideConstraintsFirstRelations": [], 
                        "SECSideConstraintsSecondRelations": [], 
                        "effect": "", 
                        "precondition": ""
                    }
                }
            }
        ], 
        "stateUUID": [
            {
                "value": {
                    "typeName": "::armarx::StringVariantData", 
                    "value": "FotoTask"
                }
            }
        ], 
        "statechartProxyName": [
            {
                "value": {
                    "typeName": "::armarx::StringVariantData", 
                    "value": "Armar6HighlevelTaskGroupRemoteStateOfferer"
                }
            }
        ]
    }, 
    "name": "Foto", 
    "type": "::memoryx::OacBase"
}
{
    "_id": {
        "$oid": "5cf7895261d13d1f018bde92"
    }, 
    "attrs": {
        "measure": [
            {
                "value": {
                    "typeName": "::memoryx::OacStatisticalMeasureBase", 
                    "value": {
                        "count": 0, 
                        "countFailed": 0
                    }
                }
            }
        ], 
        "parameters": [
            {
                "value": {
                    "typeName": "::memoryx::OacParameterListBase", 
                    "value": {
                        "names": []
                    }
                }
            }
        ], 
        "plannable": [
            {
                "value": {
                    "typeName": "::armarx::BoolVariantData", 
                    "value": true
                }
            }
        ], 
        "prediction": [
            {
                "value": {
                    "typeName": "::memoryx::OacPredictionFunctionBase", 
                    "value": {
                        "SECSideConstraintsFirstRelations": [], 
                        "SECSideConstraintsSecondRelations": [], 
                        "effect": "", 
                        "precondition": ""
                    }
                }
            }
        ], 
        "stateUUID": [
            {
                "value": {
                    "typeName": "::armarx::StringVariantData", 
                    "value": "HandoverToHumanTask"
                }
            }
        ], 
        "statechartProxyName": [
            {
                "value": {
                    "typeName": "::armarx::StringVariantData", 
                    "value": "Armar6HighlevelTaskGroupRemoteStateOfferer"
                }
            }
        ]
    }, 
    "name": "HandoverToHuman", 
    "type": "::memoryx::OacBase"
}
{
    "_id": {
        "$oid": "5cf7898861d13d1f018bde93"
    }, 
    "attrs": {
        "measure": [
            {
                "value": {
                    "typeName": "::memoryx::OacStatisticalMeasureBase", 
                    "value": {
                        "count": 196, 
                        "countFailed": 108
                    }
                }
            }
        ], 
        "parameters": [
            {
                "value": {
                    "typeName": "::memoryx::OacParameterListBase", 
                    "value": {
                        "names": []
                    }
                }
            }
        ], 
        "plannable": [
            {
                "value": {
                    "typeName": "::armarx::BoolVariantData", 
                    "value": true
                }
            }
        ], 
        "prediction": [
            {
                "value": {
                    "typeName": "::memoryx::OacPredictionFunctionBase", 
                    "value": {
                        "SECSideConstraintsFirstRelations": [], 
                        "SECSideConstraintsSecondRelations": [], 
                        "effect": "", 
                        "precondition": ""
                    }
                }
            }
        ], 
        "stateUUID": [
            {
                "value": {
                    "typeName": "::armarx::StringVariantData", 
                    "value": "GuardInsertionTask"
                }
            }
        ], 
        "statechartProxyName": [
            {
                "value": {
                    "typeName": "::armarx::StringVariantData", 
                    "value": "Armar6HighlevelTaskGroupRemoteStateOfferer"
                }
            }
        ]
    }, 
    "name": "LiftGuard", 
    "type": "::memoryx::OacBase"
}
{
    "_id": {
        "$oid": "5cf789a061d13d1f018bde94"
    }, 
    "attrs": {
        "measure": [
            {
                "value": {
                    "typeName": "::memoryx::OacStatisticalMeasureBase", 
                    "value": {
                        "count": 5, 
                        "countFailed": 5
                    }
                }
            }
        ], 
        "parameters": [
            {
                "value": {
                    "typeName": "::memoryx::OacParameterListBase", 
                    "value": {
                        "names": []
                    }
                }
            }
        ], 
        "plannable": [
            {
                "value": {
                    "typeName": "::armarx::BoolVariantData", 
                    "value": true
                }
            }
        ], 
        "prediction": [
            {
                "value": {
                    "typeName": "::memoryx::OacPredictionFunctionBase", 
                    "value": {
                        "SECSideConstraintsFirstRelations": [], 
                        "SECSideConstraintsSecondRelations": [], 
                        "effect": "", 
                        "precondition": ""
                    }
                }
            }
        ], 
        "stateUUID": [
            {
                "value": {
                    "typeName": "::armarx::StringVariantData", 
                    "value": "PlaceObjectTask"
                }
            }
        ], 
        "statechartProxyName": [
            {
                "value": {
                    "typeName": "::armarx::StringVariantData", 
                    "value": "Armar6HighlevelTaskGroupRemoteStateOfferer"
                }
            }
        ]
    }, 
    "name": "PlaceObject", 
    "type": "::memoryx::OacBase"
}
{
    "_id": {
        "$oid": "5cf789c061d13d1f018bde95"
    }, 
    "attrs": {
        "measure": [
            {
                "value": {
                    "typeName": "::memoryx::OacStatisticalMeasureBase", 
                    "value": {
                        "count": 0, 
                        "countFailed": 0
                    }
                }
            }
        ], 
        "parameters": [
            {
                "value": {
                    "typeName": "::memoryx::OacParameterListBase", 
                    "value": {
                        "names": []
                    }
                }
            }
        ], 
        "plannable": [
            {
                "value": {
                    "typeName": "::armarx::BoolVariantData", 
                    "value": true
                }
            }
        ], 
        "prediction": [
            {
                "value": {
                    "typeName": "::memoryx::OacPredictionFunctionBase", 
                    "value": {
                        "SECSideConstraintsFirstRelations": [], 
                        "SECSideConstraintsSecondRelations": [], 
                        "effect": "", 
                        "precondition": ""
                    }
                }
            }
        ], 
        "stateUUID": [
            {
                "value": {
                    "typeName": "::armarx::StringVariantData", 
                    "value": "ReceiveFromHumanTask"
                }
            }
        ], 
        "statechartProxyName": [
            {
                "value": {
                    "typeName": "::armarx::StringVariantData", 
                    "value": "Armar6HighlevelTaskGroupRemoteStateOfferer"
                }
            }
        ]
    }, 
    "name": "ReceiveFromHuman", 
    "type": "::memoryx::OacBase"
}
{
    "_id": {
        "$oid": "5cff9e37df03ce9ac1672750"
    }, 
    "attrs": {
        "measure": [
            {
                "value": {
                    "typeName": "::memoryx::OacStatisticalMeasureBase", 
                    "value": {
                        "count": 50, 
                        "countFailed": 10
                    }
                }
            }
        ], 
        "parameters": [
            {
                "value": {
                    "typeName": "::memoryx::OacParameterListBase", 
                    "value": {
                        "names": []
                    }
                }
            }
        ], 
        "plannable": [
            {
                "value": {
                    "typeName": "::armarx::BoolVariantData", 
                    "value": true
                }
            }
        ], 
        "prediction": [
            {
                "value": {
                    "typeName": "::memoryx::OacPredictionFunctionBase", 
                    "value": {
                        "SECSideConstraintsFirstRelations": [], 
                        "SECSideConstraintsSecondRelations": [], 
                        "effect": "", 
                        "precondition": ""
                    }
                }
            }
        ], 
        "stateUUID": [
            {
                "value": {
                    "typeName": "::armarx::StringVariantData", 
                    "value": "LearnWipingTask"
                }
            }
        ], 
        "statechartProxyName": [
            {
                "value": {
                    "typeName": "::armarx::StringVariantData", 
                    "value": "Armar6HighlevelTaskGroupRemoteStateOfferer"
                }
            }
        ]
    }, 
    "name": "LearnWiping", 
    "type": "::memoryx::OacBase"
}
{
    "_id": {
        "$oid": "5ea2dff441c0a597ae80dce8"
    }, 
    "attrs": {
        "measure": [
            {
                "value": {
                    "typeName": "::memoryx::OacStatisticalMeasureBase", 
                    "value": {
                        "count": 1141, 
                        "countFailed": 65
                    }
                }
            }
        ], 
        "parameters": [
            {
                "value": {
                    "typeName": "::memoryx::OacParameterListBase", 
                    "value": {
                        "names": []
                    }
                }
            }
        ], 
        "plannable": [
            {
                "value": {
                    "typeName": "::armarx::BoolVariantData", 
                    "value": true
                }
            }
        ], 
        "prediction": [
            {
                "value": {
                    "typeName": "::memoryx::OacPredictionFunctionBase", 
                    "value": {
                        "SECSideConstraintsFirstRelations": [], 
                        "SECSideConstraintsSecondRelations": [], 
                        "effect": "", 
                        "precondition": ""
                    }
                }
            }
        ], 
        "stateUUID": [
            {
                "value": {
                    "typeName": "::armarx::StringVariantData", 
                    "value": "PlaceLadderTask"
                }
            }
        ], 
        "statechartProxyName": [
            {
                "value": {
                    "typeName": "::armarx::StringVariantData", 
                    "value": "Armar6HighlevelTaskGroupRemoteStateOfferer"
                }
            }
        ]
    }, 
    "name": "PlaceLadder", 
    "type": "::memoryx::OacBase"
}
{
    "_id": {
        "$oid": "5ea2e02041c0a597ae80dcee"
    }, 
    "attrs": {
        "measure": [
            {
                "value": {
                    "typeName": "::memoryx::OacStatisticalMeasureBase", 
                    "value": {
                        "count": 999, 
                        "countFailed": 0
                    }
                }
            }
        ], 
        "parameters": [
            {
                "value": {
                    "typeName": "::memoryx::OacParameterListBase", 
                    "value": {
                        "names": []
                    }
                }
            }
        ], 
        "plannable": [
            {
                "value": {
                    "typeName": "::armarx::BoolVariantData", 
                    "value": true
                }
            }
        ], 
        "prediction": [
            {
                "value": {
                    "typeName": "::memoryx::OacPredictionFunctionBase", 
                    "value": {
                        "SECSideConstraintsFirstRelations": [], 
                        "SECSideConstraintsSecondRelations": [], 
                        "effect": "", 
                        "precondition": ""
                    }
                }
            }
        ], 
        "stateUUID": [
            {
                "value": {
                    "typeName": "::armarx::StringVariantData", 
                    "value": "StartDecontamination"
                }
            }
        ], 
        "statechartProxyName": [
            {
                "value": {
                    "typeName": "::armarx::StringVariantData", 
                    "value": "RobdekonDemoTaskGroupRemoteStateOfferer"
                }
            }
        ]
    }, 
    "name": "RobdekonDemo", 
    "type": "::memoryx::OacBase"
}
{
    "_id": {
        "$oid": "6036808dd9108d654bfe87ea"
    }, 
    "attrs": {
        "measure": [
            {
                "value": {
                    "typeName": "::memoryx::OacStatisticalMeasureBase", 
                    "value": {
                        "count": 1143, 
                        "countFailed": 66
                    }
                }
            }
        ], 
        "parameters": [
            {
                "value": {
                    "typeName": "::memoryx::OacParameterListBase", 
                    "value": {
                        "names": []
                    }
                }
            }
        ], 
        "plannable": [
            {
                "value": {
                    "typeName": "::armarx::BoolVariantData", 
                    "value": true
                }
            }
        ], 
        "prediction": [
            {
                "value": {
                    "typeName": "::memoryx::OacPredictionFunctionBase", 
                    "value": {
                        "SECSideConstraintsFirstRelations": [], 
                        "SECSideConstraintsSecondRelations": [], 
                        "effect": "", 
                        "precondition": ""
                    }
                }
            }
        ], 
        "stateUUID": [
            {
                "value": {
                    "typeName": "::armarx::StringVariantData", 
                    "value": "BimanualBoxTransport"
                }
            }
        ], 
        "statechartProxyName": [
            {
                "value": {
                    "typeName": "::armarx::StringVariantData", 
                    "value": "Armar6HighlevelTaskGroupRemoteStateOfferer"
                }
            }
        ]
    }, 
    "name": "BimanualBoxTransport", 
    "type": "::memoryx::OacBase"
}
