{
    "_id": {
        "$oid": "5b1934c995a1fe49bdc59cfb"
    }, 
    "name": "Snapshot_CeBIT", 
    "segments": {
        "activeOac": "Snapshot_CeBIT_activeOac", 
        "affordances": "Snapshot_CeBIT_affordances", 
        "agentInstances": "Snapshot_CeBIT_agentInstances", 
        "environmentalPrimitives": "Snapshot_CeBIT_environmentalPrimitives", 
        "objectClasses": "Snapshot_CeBIT_objectClasses", 
        "objectInstances": "Snapshot_CeBIT_objectInstances", 
        "objectRelations": "Snapshot_CeBIT_objectRelations", 
        "worldState": "Snapshot_CeBIT_worldState"
    }
}
{
    "_id": {
        "$oid": "5de639d080943f3e640a9eac"
    }, 
    "name": "Snapshot_RobdekonBarrelDemo", 
    "segments": {
        "activeOac": "Snapshot_RobdekonBarrelDemo_activeOac", 
        "affordances": "Snapshot_RobdekonBarrelDemo_affordances", 
        "agentInstances": "Snapshot_RobdekonBarrelDemo_agentInstances", 
        "environmentalPrimitives": "Snapshot_RobdekonBarrelDemo_environmentalPrimitives", 
        "objectClasses": "Snapshot_RobdekonBarrelDemo_objectClasses", 
        "objectInstances": "Snapshot_RobdekonBarrelDemo_objectInstances", 
        "objectRelations": "Snapshot_RobdekonBarrelDemo_objectRelations", 
        "worldState": "Snapshot_RobdekonBarrelDemo_worldState"
    }
}
{
    "_id": {
        "$oid": "5e3035ac54a8315f447bccc6"
    }, 
    "name": "Snapshot_Armar6Lab", 
    "segments": {
        "activeOac": "Snapshot_Armar6Lab_activeOac", 
        "affordances": "Snapshot_Armar6Lab_affordances", 
        "agentInstances": "Snapshot_Armar6Lab_agentInstances", 
        "environmentalPrimitives": "Snapshot_Armar6Lab_environmentalPrimitives", 
        "objectClasses": "Snapshot_Armar6Lab_objectClasses", 
        "objectInstances": "Snapshot_Armar6Lab_objectInstances", 
        "objectRelations": "Snapshot_Armar6Lab_objectRelations", 
        "worldState": "Snapshot_Armar6Lab_worldState"
    }
}
{
    "_id": {
        "$oid": "5e3035ac54a8315f447bccda"
    }, 
    "name": "Snapshot_Empty", 
    "segments": {
        "activeOac": "Snapshot_Empty_activeOac", 
        "affordances": "Snapshot_Empty_affordances", 
        "agentInstances": "Snapshot_Empty_agentInstances", 
        "environmentalPrimitives": "Snapshot_Empty_environmentalPrimitives", 
        "objectClasses": "Snapshot_Empty_objectClasses", 
        "objectInstances": "Snapshot_Empty_objectInstances", 
        "objectRelations": "Snapshot_Empty_objectRelations", 
        "worldState": "Snapshot_Empty_worldState"
    }
}
{
    "_id": {
        "$oid": "5e3035ac54a8315f447bccf5"
    }, 
    "name": "Snapshot_CleanedUpTable", 
    "segments": {
        "activeOac": "Snapshot_CleanedUpTable_activeOac", 
        "affordances": "Snapshot_CleanedUpTable_affordances", 
        "agentInstances": "Snapshot_CleanedUpTable_agentInstances", 
        "environmentalPrimitives": "Snapshot_CleanedUpTable_environmentalPrimitives", 
        "objectClasses": "Snapshot_CleanedUpTable_objectClasses", 
        "objectInstances": "Snapshot_CleanedUpTable_objectInstances", 
        "objectRelations": "Snapshot_CleanedUpTable_objectRelations", 
        "worldState": "Snapshot_CleanedUpTable_worldState"
    }
}
{
    "_id": {
        "$oid": "5eccbf1f3242258b37a95b64"
    }, 
    "name": "Snapshot_CeBIT_2020_04_23", 
    "segments": {
        "activeOac": "Snapshot_CeBIT_2020_04_23_activeOac", 
        "affordances": "Snapshot_CeBIT_2020_04_23_affordances", 
        "agentInstances": "Snapshot_CeBIT_2020_04_23_agentInstances", 
        "environmentalPrimitives": "Snapshot_CeBIT_2020_04_23_environmentalPrimitives", 
        "objectClasses": "Snapshot_CeBIT_2020_04_23_objectClasses", 
        "objectInstances": "Snapshot_CeBIT_2020_04_23_objectInstances", 
        "objectRelations": "Snapshot_CeBIT_2020_04_23_objectRelations", 
        "worldState": "Snapshot_CeBIT_2020_04_23_worldState"
    }
}
{
    "_id": {
        "$oid": "5ef4bef6ecfaaf932dc1358e"
    }, 
    "name": "Snapshot_ROBDEKON_PickAndPlaceExperiment", 
    "segments": {
        "activeOac": "Snapshot_ROBDEKON_PickAndPlaceExperiment_activeOac", 
        "affordances": "Snapshot_ROBDEKON_PickAndPlaceExperiment_affordances", 
        "agentInstances": "Snapshot_ROBDEKON_PickAndPlaceExperiment_agentInstances", 
        "environmentalPrimitives": "Snapshot_ROBDEKON_PickAndPlaceExperiment_environmentalPrimitives", 
        "objectClasses": "Snapshot_ROBDEKON_PickAndPlaceExperiment_objectClasses", 
        "objectInstances": "Snapshot_ROBDEKON_PickAndPlaceExperiment_objectInstances", 
        "objectRelations": "Snapshot_ROBDEKON_PickAndPlaceExperiment_objectRelations", 
        "worldState": "Snapshot_ROBDEKON_PickAndPlaceExperiment_worldState"
    }
}
{
    "_id": {
        "$oid": "5ef7153b14c4934a156246ca"
    }, 
    "name": "Snapshot_R003_2020_06_25", 
    "segments": {
        "activeOac": "Snapshot_R003_2020_06_25_activeOac", 
        "affordances": "Snapshot_R003_2020_06_25_affordances", 
        "agentInstances": "Snapshot_R003_2020_06_25_agentInstances", 
        "environmentalPrimitives": "Snapshot_R003_2020_06_25_environmentalPrimitives", 
        "objectClasses": "Snapshot_R003_2020_06_25_objectClasses", 
        "objectInstances": "Snapshot_R003_2020_06_25_objectInstances", 
        "objectRelations": "Snapshot_R003_2020_06_25_objectRelations", 
        "worldState": "Snapshot_R003_2020_06_25_worldState"
    }
}
{
    "_id": {
        "$oid": "5f0e21ed31be919a17cce6a8"
    }, 
    "name": "Snapshot_R003_2020_07_14", 
    "segments": {
        "activeOac": "Snapshot_R003_2020_07_14_activeOac", 
        "affordances": "Snapshot_R003_2020_07_14_affordances", 
        "agentInstances": "Snapshot_R003_2020_07_14_agentInstances", 
        "environmentalPrimitives": "Snapshot_R003_2020_07_14_environmentalPrimitives", 
        "objectClasses": "Snapshot_R003_2020_07_14_objectClasses", 
        "objectInstances": "Snapshot_R003_2020_07_14_objectInstances", 
        "objectRelations": "Snapshot_R003_2020_07_14_objectRelations", 
        "worldState": "Snapshot_R003_2020_07_14_worldState"
    }
}
{
    "_id": {
        "$oid": "5f9af8f34d749fa1d4846d33"
    }, 
    "name": "Snapshot_R003_2020_10_29", 
    "segments": {
        "activeOac": "Snapshot_R003_2020_10_29_activeOac", 
        "affordances": "Snapshot_R003_2020_10_29_affordances", 
        "agentInstances": "Snapshot_R003_2020_10_29_agentInstances", 
        "environmentalPrimitives": "Snapshot_R003_2020_10_29_environmentalPrimitives", 
        "objectClasses": "Snapshot_R003_2020_10_29_objectClasses", 
        "objectInstances": "Snapshot_R003_2020_10_29_objectInstances", 
        "objectRelations": "Snapshot_R003_2020_10_29_objectRelations", 
        "worldState": "Snapshot_R003_2020_10_29_worldState"
    }
}
{
    "_id": {
        "$oid": "603642df60a40fe1dfa48c25"
    }, 
    "name": "Snapshot_R003_2021_02_19", 
    "segments": {
        "activeOac": "Snapshot_R003_2021_02_19_activeOac", 
        "affordances": "Snapshot_R003_2021_02_19_affordances", 
        "agentInstances": "Snapshot_R003_2021_02_19_agentInstances", 
        "environmentalPrimitives": "Snapshot_R003_2021_02_19_environmentalPrimitives", 
        "objectClasses": "Snapshot_R003_2021_02_19_objectClasses", 
        "objectInstances": "Snapshot_R003_2021_02_19_objectInstances", 
        "objectRelations": "Snapshot_R003_2021_02_19_objectRelations", 
        "worldState": "Snapshot_R003_2021_02_19_worldState"
    }
}
{
    "_id": {
        "$oid": "6037685415a95f7c8f52a56c"
    }, 
    "name": "Snapshot_R003_2021_02_25", 
    "segments": {
        "activeOac": "Snapshot_R003_2021_02_25_activeOac", 
        "affordances": "Snapshot_R003_2021_02_25_affordances", 
        "agentInstances": "Snapshot_R003_2021_02_25_agentInstances", 
        "environmentalPrimitives": "Snapshot_R003_2021_02_25_environmentalPrimitives", 
        "objectClasses": "Snapshot_R003_2021_02_25_objectClasses", 
        "objectInstances": "Snapshot_R003_2021_02_25_objectInstances", 
        "objectRelations": "Snapshot_R003_2021_02_25_objectRelations", 
        "worldState": "Snapshot_R003_2021_02_25_worldState"
    }
}
