{
  "Name":"CeBIT at KIT",
  "LengthUnit":"mm",
  "Map":
  [
    {
      "Name":"Wall",
      "Position":[40, 2000],
      "RelativeLineStrip":[
        [5800, 0],
        [0, 3000],
        [-5800, 0],
        [0, -3000]
      ]
    },    

    {
      "Name":"Workbench_middle",
      "Position":[5000, 4903],
      "RelativeLineStrip":[
        [-1620, 0]
      ]
    }
  ],
  "Map_backup":
	[
	{
	      "Name":"Workbench_side_1",
	      "Position":[3460, 5000],
	      "RelativeLineStrip":[
		[0, -500]
	      ]
	    },
    {
      "Name":"Workbench_side_2",
      "Position":[4950, 5000],
      "RelativeLineStrip":[
        [0, -500]
      ]
    }
	]
}
