timestamp,x,y,z,qw,qx,qy,qz
0,593.836,-52.6643,450.936,-0.220493,0.712575,-0.665139,-0.0347992
0.0132076,593.836,-52.6643,450.936,-0.220493,0.712575,-0.665139,-0.0347992
0.0264152,594.206,-34.488,448.201,-0.22389,0.714189,-0.66185,-0.041984
0.0396228,594.46,-28.1906,447.319,-0.225046,0.714741,-0.660704,-0.0443808
0.0528304,594.757,-21.4403,446.419,-0.226281,0.715306,-0.659496,-0.0469042
0.066038,595.001,-14.5194,445.478,-0.227394,0.715924,-0.658248,-0.0495374
0.0792456,595.341,-0.560005,443.32,-0.228922,0.7172,-0.65591,-0.0547769
0.0924532,595.501,6.93943,442.222,-0.229695,0.717894,-0.654648,-0.0574885
0.105661,595.689,14.3383,441.145,-0.230438,0.718703,-0.653263,-0.0600986
0.118868,595.937,22.2327,440.052,-0.231257,0.719542,-0.651798,-0.0627631
0.132076,596.356,38.5134,437.854,-0.232722,0.721371,-0.648704,-0.068168
0.145284,596.591,46.7122,436.768,-0.233317,0.72234,-0.647133,-0.0707658
0.158491,596.862,55.0963,435.683,-0.233919,0.723243,-0.645619,-0.0733388
0.171699,597.247,63.5951,434.662,-0.234561,0.724172,-0.644063,-0.075753
0.184906,598.998,78.7731,432.757,-0.235629,0.725976,-0.641228,-0.0791576
0.198114,600.097,86.9348,432.011,-0.236515,0.726784,-0.639763,-0.0809274
0.211322,601.128,95.3926,431.345,-0.237576,0.727534,-0.638279,-0.0827828
0.224529,602.232,104.849,430.79,-0.238869,0.728291,-0.636636,-0.0850231
0.237737,603.227,113.473,430.387,-0.240052,0.729002,-0.635088,-0.0871425
0.250944,605.414,130.557,429.971,-0.242491,0.730343,-0.632016,-0.091389
0.264152,606.645,137.779,429.794,-0.243314,0.730958,-0.630749,-0.0930304
0.27736,607.988,146.676,430.011,-0.24494,0.731314,-0.62938,-0.095207
0.290567,609.403,155.344,430.314,-0.246561,0.731654,-0.628034,-0.09728
0.303775,612.585,173.627,431.666,-0.250705,0.731948,-0.625334,-0.101774
0.316982,614.179,182.855,432.614,-0.253018,0.731937,-0.624023,-0.10414
0.33019,614.179,182.855,432.614,-0.253018,0.731937,-0.624023,-0.10414
0.343398,617.408,206.48,435.667,-0.258699,0.732049,-0.620342,-0.111153
0.356605,618.488,216.773,437.357,-0.261151,0.732039,-0.618718,-0.114482
0.369813,619.499,227.121,439.166,-0.263754,0.731754,-0.617279,-0.118053
0.38302,620.611,237.398,441.276,-0.266521,0.731354,-0.615878,-0.121583
0.396228,622.997,259.743,446.643,-0.273387,0.73027,-0.612529,-0.129514
0.409436,624.327,269.61,449.368,-0.276756,0.729509,-0.611113,-0.133279
0.422643,625.354,282.9,453.353,-0.281383,0.728324,-0.609209,-0.13868
0.435851,626.932,308.132,461.819,-0.290662,0.725774,-0.605243,-0.14983
0.449058,627.693,321.114,466.615,-0.295763,0.724334,-0.602997,-0.155758
0.462266,628.378,334.656,471.983,-0.3012,0.722577,-0.600794,-0.161885
0.475474,629.771,363.175,484.692,-0.314256,0.718072,-0.595587,-0.175762
0.488681,630.778,376.237,491.294,-0.320873,0.715687,-0.59284,-0.182684
0.501889,631.396,391.403,499.254,-0.328492,0.712795,-0.589589,-0.190789
0.515096,632.274,423.991,518.042,-0.346052,0.705613,-0.581767,-0.209535
0.528304,632.487,440.2,528.244,-0.355278,0.70171,-0.577308,-0.21931
0.541512,632.617,456.224,538.901,-0.364405,0.69763,-0.572811,-0.228931
0.554719,632.316,489.03,563.206,-0.384971,0.688122,-0.56176,-0.250424
0.567927,632.615,504.313,576.099,-0.395825,0.68282,-0.555806,-0.261073
0.581134,632.465,521.076,590.866,-0.407584,0.677062,-0.548687,-0.272772
0.594342,631.869,554.136,622.953,-0.432122,0.664169,-0.532811,-0.29709
0.607549,631.721,570.208,640.366,-0.444836,0.656956,-0.524245,-0.30935
0.620757,631.127,586.321,658.856,-0.457848,0.64918,-0.514922,-0.322173
0.633965,631.127,586.321,658.856,-0.457848,0.64918,-0.514922,-0.322173
0.647172,630.896,632.12,720.278,-0.498868,0.62233,-0.484347,-0.359507
0.66038,631.052,646.031,741.924,-0.512661,0.612215,-0.473756,-0.371385
0.673588,631.951,671.534,786.998,-0.540013,0.589979,-0.452399,-0.394521
0.686795,632.702,682.855,809.854,-0.553023,0.578074,-0.442043,-0.405701
0.700003,633.694,694.447,834.702,-0.56634,0.565089,-0.431052,-0.417287
0.71321,635.797,712.61,880.148,-0.589504,0.53923,-0.411917,-0.438224
0.726418,636.635,720.058,901.649,-0.599521,0.526414,-0.403148,-0.448257
0.739626,637.218,727.374,923.071,-0.608715,0.513266,-0.394873,-0.458366
0.752833,637.307,740.37,963.926,-0.624084,0.488107,-0.379318,-0.477901
0.766041,637.202,746.101,982.885,-0.630337,0.476195,-0.372582,-0.486926
0.779248,636.94,751.212,1001.12,-0.635929,0.4648,-0.365897,-0.495656
0.792456,636.451,756.234,1018.45,-0.640541,0.454277,-0.359773,-0.503889
0.805663,634.581,765.084,1050.58,-0.647737,0.435112,-0.347997,-0.519628
0.818871,633.735,768.469,1064.31,-0.650074,0.426979,-0.342883,-0.526805
0.832079,632.018,772.569,1080.34,-0.652208,0.418214,-0.336556,-0.535212
0.845286,628.496,779.184,1106.98,-0.654741,0.404219,-0.325562,-0.549483
0.858494,626.542,782.011,1119.23,-0.655477,0.397849,-0.320262,-0.556326
0.871701,624.51,784.773,1130.94,-0.65593,0.392038,-0.315231,-0.562754
0.884909,620.542,789.881,1152.54,-0.656585,0.381595,-0.306087,-0.574101
0.898117,618.971,791.945,1161.34,-0.656389,0.377555,-0.302598,-0.578826
0.911324,616.975,794.496,1171.52,-0.656321,0.373133,-0.298589,-0.583833
0.924532,615.121,796.716,1180.13,-0.656144,0.369635,-0.295165,-0.587982
0.937739,611.282,800.819,1195.85,-0.655363,0.363694,-0.288843,-0.595648
0.950947,609.669,802.543,1202.16,-0.654823,0.361415,-0.286469,-0.598767
0.964155,606.211,806.656,1214.79,-0.653602,0.357568,-0.282293,-0.604368
0.977362,604.698,808.898,1219.9,-0.652457,0.356778,-0.281296,-0.606532
0.99057,603.202,811.107,1224.65,-0.651408,0.356278,-0.28038,-0.608376
1.00378,600.483,815.544,1232.45,-0.649163,0.356235,-0.279783,-0.61107
1.01699,599.316,817.937,1235.65,-0.648023,0.356758,-0.280232,-0.611769
1.03019,598.271,820.365,1238.27,-0.646837,0.357696,-0.281078,-0.612087
1.0434,596.479,825.162,1242.53,-0.644492,0.360193,-0.283424,-0.612015
1.05661,595.73,827.577,1243.84,-0.643201,0.361876,-0.285144,-0.61158
1.06982,595.15,829.836,1244.79,-0.641941,0.363655,-0.287074,-0.610946
1.08302,594.444,832.231,1245.47,-0.640491,0.365711,-0.289197,-0.610239
1.09623,593.386,837.137,1246.13,-0.637684,0.370342,-0.294249,-0.607966
1.10944,593.013,839.855,1246.01,-0.635999,0.373155,-0.297488,-0.606434
1.12265,592.558,844.216,1245.71,-0.63314,0.377636,-0.302946,-0.603944
1.13585,592.424,846.324,1245.32,-0.631655,0.379907,-0.305801,-0.602635
1.14906,592.366,848.334,1244.73,-0.630125,0.382206,-0.308774,-0.601265
1.16227,592.194,852.232,1243.63,-0.627022,0.386526,-0.314562,-0.598742
1.17548,592.247,854.015,1242.95,-0.625512,0.388528,-0.317401,-0.597526
1.18868,592.417,855.667,1242.4,-0.624063,0.390334,-0.320217,-0.596361
1.20189,592.721,858.758,1241.43,-0.621276,0.393339,-0.325552,-0.594404
1.2151,592.816,860.007,1241.11,-0.620075,0.394372,-0.327748,-0.593767
1.22831,592.816,860.007,1241.11,-0.620075,0.394372,-0.327748,-0.593767
1.24151,593.327,863.654,1239.88,-0.616262,0.397654,-0.33469,-0.591672
1.25472,593.485,864.614,1239.62,-0.615187,0.398298,-0.336587,-0.59128
1.26793,593.676,865.514,1239.26,-0.614132,0.398881,-0.338482,-0.590903
1.28114,593.849,866.464,1238.89,-0.612943,0.399466,-0.340558,-0.590549
1.29434,594.277,867.858,1238.48,-0.611074,0.400025,-0.343832,-0.590211
1.30755,594.506,868.412,1238.23,-0.610245,0.400056,-0.345313,-0.590183
1.32076,594.782,868.988,1237.97,-0.609328,0.400221,-0.34692,-0.590076
1.33397,595.327,870.026,1237.35,-0.607614,0.400385,-0.349936,-0.589951
1.34718,595.555,870.429,1237.01,-0.606868,0.40036,-0.351212,-0.589978
1.36038,595.775,870.792,1236.86,-0.606151,0.400296,-0.352401,-0.590049
1.37359,596.048,871.122,1236.62,-0.605503,0.400143,-0.353576,-0.590114
1.3868,596.513,871.812,1236.18,-0.604158,0.400038,-0.35588,-0.59018
1.40001,596.805,872.132,1235.93,-0.603504,0.399937,-0.357058,-0.590206
1.41321,597.104,872.388,1235.77,-0.602892,0.39973,-0.358131,-0.590321
1.42642,597.632,872.805,1235.52,-0.601848,0.399274,-0.359975,-0.590573
1.43963,597.847,872.99,1235.39,-0.601372,0.39906,-0.360801,-0.590699
1.45284,598.043,873.176,1235.32,-0.600894,0.398846,-0.361605,-0.590838
1.46604,598.455,873.455,1235.07,-0.600041,0.398427,-0.363065,-0.591093
1.47925,598.699,873.579,1234.91,-0.599663,0.398217,-0.363755,-0.591193
1.49246,598.897,873.708,1234.81,-0.599237,0.398007,-0.364471,-0.591326
1.50567,599.136,873.812,1234.66,-0.598893,0.397837,-0.365111,-0.591394
1.51887,599.302,873.93,1234.59,-0.598513,0.397677,-0.365737,-0.5915
1.53208,599.687,874.231,1234.24,-0.597649,0.397297,-0.367205,-0.591719
1.54529,599.783,874.272,1234.27,-0.597485,0.397187,-0.367477,-0.59179
1.5585,600.179,874.455,1234.13,-0.596939,0.396859,-0.368503,-0.591923
1.5717,600.267,874.555,1233.95,-0.596617,0.396773,-0.368979,-0.592008
1.58491,600.378,874.638,1233.95,-0.596382,0.396617,-0.369384,-0.592097
1.59812,600.563,874.777,1233.84,-0.595949,0.396401,-0.370092,-0.592236
1.61133,600.639,874.836,1233.77,-0.59577,0.396267,-0.370384,-0.592323
1.62453,600.714,874.893,1233.84,-0.595596,0.396131,-0.370645,-0.592425
1.63774,600.836,874.979,1233.93,-0.595355,0.395827,-0.371053,-0.592615
1.65095,600.88,875.008,1233.95,-0.595262,0.395674,-0.371189,-0.592726
1.66416,600.94,875.063,1234.07,-0.595163,0.395569,-0.371368,-0.592783
1.67736,600.912,875.186,1234.23,-0.594977,0.395341,-0.371573,-0.592994
1.69057,600.872,875.271,1234.37,-0.594869,0.395251,-0.371691,-0.593088
1.70378,600.892,875.333,1234.44,-0.594794,0.395137,-0.371806,-0.593167
1.71699,600.905,875.432,1234.63,-0.594638,0.394909,-0.372002,-0.593353
1.7302,600.849,875.496,1234.8,-0.594549,0.394799,-0.372073,-0.593471
1.7434,600.859,875.532,1234.91,-0.594495,0.394688,-0.372114,-0.593573
1.75661,600.799,875.639,1235.19,-0.59436,0.394413,-0.372247,-0.593807
1.76982,600.848,875.693,1235.4,-0.594307,0.394337,-0.372332,-0.593857
1.78303,600.797,875.768,1235.5,-0.594225,0.394276,-0.372383,-0.593948
1.79623,600.794,875.933,1235.91,-0.59413,0.394128,-0.372529,-0.59405
1.80944,600.712,876.035,1236.01,-0.594038,0.394106,-0.372582,-0.594123
1.82265,600.712,876.035,1236.01,-0.594038,0.394106,-0.372582,-0.594123
1.83586,600.711,876.223,1236.21,-0.593817,0.394097,-0.372887,-0.594158
1.84906,600.638,876.456,1236.27,-0.593517,0.394224,-0.373233,-0.594156
1.86227,600.657,876.59,1236.39,-0.593396,0.394283,-0.373422,-0.594119
1.87548,600.591,876.75,1236.44,-0.593242,0.394415,-0.373633,-0.594054
1.88869,600.511,876.933,1236.5,-0.593097,0.39461,-0.373778,-0.593978
1.90189,600.344,877.34,1236.6,-0.592748,0.395108,-0.374211,-0.593722
1.9151,600.237,877.554,1236.67,-0.592537,0.395402,-0.374458,-0.593581
1.92831,600.102,877.746,1236.65,-0.592318,0.395733,-0.374655,-0.593454
1.94152,599.916,877.968,1236.76,-0.592081,0.396042,-0.374883,-0.593341
1.95472,599.525,878.462,1236.92,-0.591588,0.396706,-0.375315,-0.593116
1.96793,599.371,878.686,1236.97,-0.591388,0.396964,-0.375508,-0.593021
1.98114,599.2,879.037,1237.25,-0.591076,0.397472,-0.375846,-0.592777
1.99435,599.044,879.209,1237.27,-0.590858,0.397809,-0.375991,-0.592678
2.00755,598.987,879.358,1237.48,-0.590729,0.398035,-0.376148,-0.592554
2.02076,598.637,879.721,1237.77,-0.590371,0.398472,-0.376427,-0.592441
2.03397,598.457,879.928,1237.84,-0.590173,0.398734,-0.376587,-0.59236
2.04718,598.317,880.13,1238.04,-0.589975,0.399026,-0.376758,-0.592251
2.06039,598.032,880.511,1238.16,-0.589548,0.399615,-0.377176,-0.592012
2.07359,597.932,880.667,1238.08,-0.589351,0.399924,-0.377387,-0.591866
2.0868,597.864,880.818,1238.15,-0.589161,0.400206,-0.377583,-0.591739
2.10001,597.699,880.969,1238.13,-0.588925,0.400489,-0.377785,-0.591655
2.11322,597.595,881.073,1238.21,-0.588779,0.400678,-0.377876,-0.591613
2.12642,597.29,881.333,1238.51,-0.588448,0.400965,-0.378123,-0.59159
