{
    "_id": {
        "$oid": "5afede94b17a39c7d2190baf"
    }, 
    "attrs": {
        "adjacentNodes": [
            {
                "value": {
                    "typeName": "::memoryx::EntityRefBase", 
                    "value": {
                        "entityId": "5afedf01b17a39c7d2190bb1", 
                        "entityName": "pd_n0", 
                        "memoryName": "PriorKnowledge", 
                        "segmentName": "graphs"
                    }
                }
            }, 
            {
                "value": {
                    "typeName": "::memoryx::EntityRefBase", 
                    "value": {
                        "entityId": "5afee151b17a39c7d2190bba", 
                        "entityName": "wb_n1", 
                        "memoryName": "PriorKnowledge", 
                        "segmentName": "graphs"
                    }
                }
            }
        ], 
        "pose": [
            {
                "value": {
                    "typeName": "::armarx::FramedPoseBase", 
                    "value": {
                        "agent": "", 
                        "frame": "Global", 
                        "qw": 1, 
                        "qx": 0, 
                        "qy": 0, 
                        "qz": 0, 
                        "x": 4177, 
                        "y": 3841, 
                        "z": 0
                    }
                }
            }
        ], 
        "scene": [
            {
                "value": {
                    "typeName": "::armarx::StringVariantData", 
                    "value": "GraphCeBIT"
                }
            }
        ]
    }, 
    "name": "wb_front", 
    "type": "::memoryx::GraphNodeBase"
}
{
    "_id": {
        "$oid": "5afedec6b17a39c7d2190bb0"
    }, 
    "attrs": {
        "adjacentNodes": [
            {
                "value": {
                    "typeName": "::memoryx::EntityRefBase", 
                    "value": {
                        "entityId": "5afedf01b17a39c7d2190bb1", 
                        "entityName": "pd_n0", 
                        "memoryName": "PriorKnowledge", 
                        "segmentName": "graphs"
                    }
                }
            }
        ], 
        "pose": [
            {
                "value": {
                    "typeName": "::armarx::FramedPoseBase", 
                    "value": {
                        "agent": "", 
                        "frame": "Global", 
                        "qw": 1, 
                        "qx": 0, 
                        "qy": 0, 
                        "qz": 0, 
                        "x": 5250, 
                        "y": 2720, 
                        "z": 0
                    }
                }
            }
        ], 
        "scene": [
            {
                "value": {
                    "typeName": "::armarx::StringVariantData", 
                    "value": "GraphCeBIT"
                }
            }
        ]
    }, 
    "name": "pd_put_down", 
    "type": "::memoryx::GraphNodeBase"
}
{
    "_id": {
        "$oid": "5afedf01b17a39c7d2190bb1"
    }, 
    "attrs": {
        "adjacentNodes": [
            {
                "value": {
                    "typeName": "::memoryx::EntityRefBase", 
                    "value": {
                        "entityId": "5afedec6b17a39c7d2190bb0", 
                        "entityName": "pd_put_down", 
                        "memoryName": "PriorKnowledge", 
                        "segmentName": "graphs"
                    }
                }
            }, 
            {
                "value": {
                    "typeName": "::memoryx::EntityRefBase", 
                    "value": {
                        "entityId": "5afede94b17a39c7d2190baf", 
                        "entityName": "wb_front", 
                        "memoryName": "PriorKnowledge", 
                        "segmentName": "graphs"
                    }
                }
            }
        ], 
        "pose": [
            {
                "value": {
                    "typeName": "::armarx::FramedPoseBase", 
                    "value": {
                        "agent": "", 
                        "frame": "Global", 
                        "qw": 0.9238795638084412, 
                        "qx": 0, 
                        "qy": 0, 
                        "qz": 0.3826834261417389, 
                        "x": 4500, 
                        "y": 3300, 
                        "z": 0
                    }
                }
            }
        ], 
        "scene": [
            {
                "value": {
                    "typeName": "::armarx::StringVariantData", 
                    "value": "GraphCeBIT"
                }
            }
        ]
    }, 
    "name": "pd_n0", 
    "type": "::memoryx::GraphNodeBase"
}
{
    "_id": {
        "$oid": "5afee151b17a39c7d2190bba"
    }, 
    "attrs": {
        "adjacentNodes": [
            {
                "value": {
                    "typeName": "::memoryx::EntityRefBase", 
                    "value": {
                        "entityId": "5afede94b17a39c7d2190baf", 
                        "entityName": "wb_front", 
                        "memoryName": "PriorKnowledge", 
                        "segmentName": "graphs"
                    }
                }
            }, 
            {
                "value": {
                    "typeName": "::memoryx::EntityRefBase", 
                    "value": {
                        "entityId": "5b13f26ef733191925fd0172", 
                        "entityName": "home", 
                        "memoryName": "PriorKnowledge", 
                        "segmentName": "graphs"
                    }
                }
            }, 
            {
                "value": {
                    "typeName": "::memoryx::EntityRefBase", 
                    "value": {
                        "entityId": "5cada1df2a5850985aecbd53", 
                        "entityName": "gl_middle", 
                        "memoryName": "PriorKnowledge", 
                        "segmentName": "graphs"
                    }
                }
            }
        ], 
        "pose": [
            {
                "value": {
                    "typeName": "::armarx::FramedPoseBase", 
                    "value": {
                        "agent": "", 
                        "frame": "Global", 
                        "qw": 1, 
                        "qx": 0, 
                        "qy": 0, 
                        "qz": 0, 
                        "x": 4177, 
                        "y": 3550, 
                        "z": 0
                    }
                }
            }
        ], 
        "scene": [
            {
                "value": {
                    "typeName": "::armarx::StringVariantData", 
                    "value": "GraphCeBIT"
                }
            }
        ]
    }, 
    "name": "wb_n1", 
    "type": "::memoryx::GraphNodeBase"
}
{
    "_id": {
        "$oid": "5b13f26ef733191925fd0172"
    }, 
    "attrs": {
        "adjacentNodes": [
            {
                "value": {
                    "typeName": "::memoryx::EntityRefBase", 
                    "value": {
                        "entityId": "5afee151b17a39c7d2190bba", 
                        "entityName": "wb_n1", 
                        "memoryName": "PriorKnowledge", 
                        "segmentName": "graphs"
                    }
                }
            }
        ], 
        "pose": [
            {
                "value": {
                    "typeName": "::armarx::FramedPoseBase", 
                    "value": {
                        "agent": "", 
                        "frame": "Global", 
                        "qw": 1, 
                        "qx": 0, 
                        "qy": 0, 
                        "qz": 0, 
                        "x": 4400, 
                        "y": 3130, 
                        "z": 0
                    }
                }
            }
        ], 
        "scene": [
            {
                "value": {
                    "typeName": "::armarx::StringVariantData", 
                    "value": "GraphCeBIT"
                }
            }
        ]
    }, 
    "name": "home", 
    "type": "::memoryx::GraphNodeBase"
}
{
    "_id": {
        "$oid": "5cacc7ba2d9d2236ad9a1121"
    }, 
    "attrs": {
        "adjacentNodes": [
            {
                "value": {
                    "typeName": "::memoryx::EntityRefBase", 
                    "value": {
                        "entityId": "5cacc8d22d9d2236ad9a1123", 
                        "entityName": "handover_ladder", 
                        "memoryName": "PriorKnowledge", 
                        "segmentName": "graphs"
                    }
                }
            }
        ], 
        "pose": [
            {
                "value": {
                    "typeName": "::armarx::FramedPoseBase", 
                    "value": {
                        "agent": "", 
                        "frame": "Global", 
                        "qw": 0.5036232471466064, 
                        "qx": 0, 
                        "qy": 0, 
                        "qz": 0.8639234304428101, 
                        "x": 2016, 
                        "y": 4974, 
                        "z": 0
                    }
                }
            }
        ], 
        "scene": [
            {
                "value": {
                    "typeName": "::armarx::StringVariantData", 
                    "value": "GraphCeBIT"
                }
            }
        ]
    }, 
    "name": "gl_pickup", 
    "type": "::memoryx::GraphNodeBase"
}
{
    "_id": {
        "$oid": "5cacc8d22d9d2236ad9a1123"
    }, 
    "attrs": {
        "adjacentNodes": [
            {
                "value": {
                    "typeName": "::memoryx::EntityRefBase", 
                    "value": {
                        "entityId": "5cacc7ba2d9d2236ad9a1121", 
                        "entityName": "gl_pickup", 
                        "memoryName": "PriorKnowledge", 
                        "segmentName": "graphs"
                    }
                }
            }, 
            {
                "value": {
                    "typeName": "::memoryx::EntityRefBase", 
                    "value": {
                        "entityId": "5cada1df2a5850985aecbd53", 
                        "entityName": "gl_middle", 
                        "memoryName": "PriorKnowledge", 
                        "segmentName": "graphs"
                    }
                }
            }, 
            {
                "value": {
                    "typeName": "::memoryx::EntityRefBase", 
                    "value": {
                        "entityId": "5cacca7a2d9d2236ad9a1124", 
                        "entityName": "gl_preguard", 
                        "memoryName": "PriorKnowledge", 
                        "segmentName": "graphs"
                    }
                }
            }
        ], 
        "pose": [
            {
                "value": {
                    "typeName": "::armarx::FramedPoseBase", 
                    "value": {
                        "agent": "", 
                        "frame": "Global", 
                        "qw": 0.4835764503479004, 
                        "qx": 0, 
                        "qy": 0, 
                        "qz": 0.87, 
                        "x": 2633, 
                        "y": 3776, 
                        "z": 0
                    }
                }
            }
        ], 
        "scene": [
            {
                "value": {
                    "typeName": "::armarx::StringVariantData", 
                    "value": "GraphCeBIT"
                }
            }
        ]
    }, 
    "name": "handover_ladder", 
    "type": "::memoryx::GraphNodeBase"
}
{
    "_id": {
        "$oid": "5cacca7a2d9d2236ad9a1124"
    }, 
    "attrs": {
        "adjacentNodes": [
            {
                "value": {
                    "typeName": "::memoryx::EntityRefBase", 
                    "value": {
                        "entityId": "5caccb1c2d9d2236ad9a1125", 
                        "entityName": "gl_prepickup1", 
                        "memoryName": "PriorKnowledge", 
                        "segmentName": "graphs"
                    }
                }
            }, 
            {
                "value": {
                    "typeName": "::memoryx::EntityRefBase", 
                    "value": {
                        "entityId": "5cacc8d22d9d2236ad9a1123", 
                        "entityName": "handover_ladder", 
                        "memoryName": "PriorKnowledge", 
                        "segmentName": "graphs"
                    }
                }
            }, 
            {
                "value": {
                    "typeName": "::memoryx::EntityRefBase", 
                    "value": {
                        "entityId": "5cfe3fe14edb960dee44fdcf", 
                        "entityName": "handover_under_conveyor", 
                        "memoryName": "PriorKnowledge", 
                        "segmentName": "graphs"
                    }
                }
            }
        ], 
        "pose": [
            {
                "value": {
                    "typeName": "::armarx::FramedPoseBase", 
                    "value": {
                        "agent": "", 
                        "frame": "Global", 
                        "qw": 0.7247734069824219, 
                        "qx": 0, 
                        "qy": 0, 
                        "qz": 0.6889872550964355, 
                        "x": 1851, 
                        "y": 3318, 
                        "z": 0
                    }
                }
            }
        ], 
        "scene": [
            {
                "value": {
                    "typeName": "::armarx::StringVariantData", 
                    "value": "GraphCeBIT"
                }
            }
        ]
    }, 
    "name": "gl_preguard", 
    "type": "::memoryx::GraphNodeBase"
}
{
    "_id": {
        "$oid": "5caccb1c2d9d2236ad9a1125"
    }, 
    "attrs": {
        "adjacentNodes": [
            {
                "value": {
                    "typeName": "::memoryx::EntityRefBase", 
                    "value": {
                        "entityId": "5cacca7a2d9d2236ad9a1124", 
                        "entityName": "gl_preguard", 
                        "memoryName": "PriorKnowledge", 
                        "segmentName": "graphs"
                    }
                }
            }, 
            {
                "value": {
                    "typeName": "::memoryx::EntityRefBase", 
                    "value": {
                        "entityId": "5d00e8a0eac0b8cc51649c0c", 
                        "entityName": "gl_lowering", 
                        "memoryName": "PriorKnowledge", 
                        "segmentName": "graphs"
                    }
                }
            }
        ], 
        "pose": [
            {
                "value": {
                    "typeName": "::armarx::FramedPoseBase", 
                    "value": {
                        "agent": "", 
                        "frame": "Global", 
                        "qw": 0.7953148484230042, 
                        "qx": 0, 
                        "qy": 0, 
                        "qz": 0.6061965823173523, 
                        "x": 1971, 
                        "y": 3073, 
                        "z": 0
                    }
                }
            }
        ], 
        "scene": [
            {
                "value": {
                    "typeName": "::armarx::StringVariantData", 
                    "value": "GraphCeBIT"
                }
            }
        ]
    }, 
    "name": "gl_prepickup1", 
    "type": "::memoryx::GraphNodeBase"
}
{
    "_id": {
        "$oid": "5cada1df2a5850985aecbd53"
    }, 
    "attrs": {
        "adjacentNodes": [
            {
                "value": {
                    "typeName": "::memoryx::EntityRefBase", 
                    "value": {
                        "entityId": "5afee151b17a39c7d2190bba", 
                        "entityName": "wb_n1", 
                        "memoryName": "PriorKnowledge", 
                        "segmentName": "graphs"
                    }
                }
            }, 
            {
                "value": {
                    "typeName": "::memoryx::EntityRefBase", 
                    "value": {
                        "entityId": "5cacc8d22d9d2236ad9a1123", 
                        "entityName": "handover_ladder", 
                        "memoryName": "PriorKnowledge", 
                        "segmentName": "graphs"
                    }
                }
            }
        ], 
        "pose": [
            {
                "value": {
                    "typeName": "::armarx::FramedPoseBase", 
                    "value": {
                        "agent": "", 
                        "frame": "Global", 
                        "qw": 0.7669971585273743, 
                        "qx": 0, 
                        "qy": 0, 
                        "qz": 0.6416504979133606, 
                        "x": 3195, 
                        "y": 3754, 
                        "z": 0
                    }
                }
            }
        ], 
        "scene": [
            {
                "value": {
                    "typeName": "::armarx::StringVariantData", 
                    "value": "GraphCeBIT"
                }
            }
        ]
    }, 
    "name": "gl_middle", 
    "type": "::memoryx::GraphNodeBase"
}
{
    "_id": {
        "$oid": "5cfe3fe14edb960dee44fdcf"
    }, 
    "attrs": {
        "adjacentNodes": [], 
        "pose": [
            {
                "value": {
                    "typeName": "::armarx::FramedPoseBase", 
                    "value": {
                        "agent": "", 
                        "frame": "Global", 
                        "qw": 0.36, 
                        "qx": 0, 
                        "qy": 0, 
                        "qz": 0.93, 
                        "x": 2247, 
                        "y": 3646, 
                        "z": 0
                    }
                }
            }
        ], 
        "scene": [
            {
                "value": {
                    "typeName": "::armarx::StringVariantData", 
                    "value": "GraphCeBIT"
                }
            }
        ]
    }, 
    "name": "handover_under_conveyor", 
    "type": "::memoryx::GraphNodeBase"
}
{
    "_id": {
        "$oid": "5d00e8a0eac0b8cc51649c0c"
    }, 
    "attrs": {
        "adjacentNodes": [], 
        "pose": [
            {
                "value": {
                    "typeName": "::armarx::FramedPoseBase", 
                    "value": {
                        "agent": "", 
                        "frame": "Global", 
                        "qw": 0.7431448101997375, 
                        "qx": 0, 
                        "qy": 0, 
                        "qz": 0.6691306233406067, 
                        "x": 2299, 
                        "y": 2643, 
                        "z": 0
                    }
                }
            }
        ], 
        "scene": [
            {
                "value": {
                    "typeName": "::armarx::StringVariantData", 
                    "value": "GraphCeBIT"
                }
            }
        ]
    }, 
    "name": "gl_lowering", 
    "type": "::memoryx::GraphNodeBase"
}
