{
    "_id": "1", 
    "attrs": {
        "agentFilePath": [
            {
                "value": {
                    "typeName": "::armarx::StringVariantData", 
                    "value": "Armar6RT/robotmodel/Armar6-SH/Armar6-SH.xml"
                }
            }
        ], 
        "orientation": [
            {
                "value": {
                    "typeName": "::armarx::FramedOrientationBase", 
                    "value": {
                        "agent": "", 
                        "frame": "Global", 
                        "qw": 0.7088216543197632, 
                        "qx": 0, 
                        "qy": 0, 
                        "qz": 0.7053877115249634
                    }
                }
            }
        ], 
        "position": [
            {
                "value": {
                    "typeName": "::armarx::FramedPositionBase", 
                    "value": {
                        "agent": "", 
                        "frame": "Global", 
                        "x": 2375.85693359375, 
                        "y": 2414.892578125, 
                        "z": 0
                    }
                }
            }
        ], 
        "stringifiedSharedRobotInterfaceProxy": [
            {
                "value": {
                    "typeName": "::armarx::StringVariantData", 
                    "value": "644B7F22-32DF-4E43-99B5-EA2789C97A42 -t -e 1.0:tcp -h 10.6.2.101 -p 38833"
                }
            }
        ]
    }, 
    "name": "Armar6", 
    "type": "::memoryx::AgentInstanceBase"
}
